feature 1, ..., feature 102, activity
1,2,3,4,5,6,7,8,9,10,11,12,13,14,15,16,17,18,19,20,21,22,23,24,25,26,27,28,29,30,31,32,33,34,35,36,37,38,39,40,41,42,43,44,45,46,47,48,49,50,51,52,53,54,55,56,57,58,59,60,61,62,63,64,7.638272
1,2,3,4,5,6,7,8,9,10,11,12,13,14,15,16,17,18,19,20,21,22,23,24,25,26,27,28,29,30,31,32,65,35,36,37,38,39,40,41,42,43,44,45,46,47,48,49,51,52,53,54,55,56,57,58,59,60,61,62,63,64,7.522879
2,3,4,5,7,9,10,11,12,13,14,15,66,16,17,67,19,68,20,69,21,22,23,70,24,25,71,72,26,27,28,29,73,31,32,35,36,74,75,76,37,38,39,77,40,41,42,43,78,44,79,45,46,47,48,49,80,51,53,54,55,56,81,57,58,60,61,62,63,64,5.846185
82,2,3,4,5,6,7,9,10,11,12,13,14,15,66,16,17,67,18,19,68,20,69,83,21,22,23,70,24,25,71,72,84,26,27,28,29,85,73,31,32,35,86,36,87,74,75,76,37,38,88,39,77,40,41,42,43,78,44,79,45,46,47,48,49,80,51,53,54,55,56,81,57,58,60,61,62,63,64,6.869666
2,3,4,5,6,7,9,10,11,12,13,14,15,89,66,16,17,67,19,68,20,69,21,22,23,70,24,25,71,26,27,28,29,73,31,32,34,35,36,74,75,37,38,39,77,40,41,42,43,78,44,79,45,46,47,48,49,50,80,51,53,54,55,56,57,58,59,60,61,62,63,64,6.920819
2,3,4,5,6,7,90,9,10,11,12,13,14,15,66,16,17,67,18,19,68,20,69,83,21,22,23,70,24,25,71,72,84,26,27,28,29,85,73,31,32,35,86,36,87,74,75,37,38,39,77,40,41,42,43,78,44,91,79,45,46,47,48,49,80,51,53,54,55,56,81,57,58,60,61,62,63,64,6.677781
1,2,3,4,5,6,7,8,9,10,11,12,13,14,15,16,17,18,19,20,21,22,23,24,25,26,27,28,29,30,31,32,33,35,36,37,38,39,77,40,41,42,43,44,45,46,47,48,49,51,52,53,54,55,56,57,58,59,60,61,62,63,64,7.853872
2,3,4,5,6,7,9,10,11,12,13,14,15,66,16,17,67,18,19,68,20,69,83,21,22,23,70,24,25,71,72,84,26,27,28,29,73,31,32,35,86,36,87,74,75,37,38,39,77,40,41,42,43,78,44,79,45,46,47,48,49,80,51,53,54,55,56,57,58,60,61,62,63,64,6.694649
2,3,4,5,6,7,9,10,11,12,13,14,15,66,16,17,67,19,68,20,69,21,22,23,70,24,25,71,26,27,28,29,73,31,32,35,86,36,74,75,37,38,39,77,40,41,42,43,78,44,79,45,46,47,48,49,80,51,53,54,55,56,57,58,60,61,62,63,64,7.200659
2,3,4,5,6,7,9,10,11,12,13,14,15,89,66,16,17,67,19,68,20,69,21,22,23,70,24,25,71,26,27,28,29,73,31,32,35,36,74,75,37,38,39,77,40,41,42,43,78,44,79,45,46,47,48,49,50,80,51,53,54,55,56,57,58,59,60,61,62,63,64,7.119186
1,2,3,4,5,6,7,9,10,11,12,92,93,13,14,15,66,16,17,67,18,19,68,20,69,83,21,22,23,70,24,25,71,72,84,26,27,28,29,73,31,32,35,86,36,87,74,75,37,38,39,77,40,41,42,94,95,43,78,44,79,45,46,47,48,49,80,51,53,54,55,56,57,58,60,61,62,63,64,7.366532
2,3,4,5,6,7,9,10,11,12,13,14,15,66,16,17,67,19,68,20,69,83,21,22,23,70,24,25,71,84,26,27,28,29,73,31,32,35,86,36,87,74,75,37,38,39,77,40,41,42,43,78,44,79,45,46,47,48,49,80,51,53,54,55,56,57,58,60,61,62,63,64,7.167491
2,3,4,5,6,7,9,10,11,12,13,14,15,66,16,17,67,18,19,68,20,69,83,21,22,23,70,24,25,71,72,84,26,27,28,29,73,31,32,35,86,36,87,74,75,37,38,39,77,40,41,42,43,78,44,79,45,46,47,48,49,80,51,53,54,55,56,57,58,60,61,62,63,64,6.801343
2,3,4,5,6,7,9,96,10,11,12,13,14,15,66,16,17,67,18,19,68,20,69,83,21,22,23,70,24,25,71,72,84,26,27,28,29,85,73,31,32,35,86,36,87,74,75,37,38,39,77,40,41,42,43,78,44,79,45,46,47,48,49,80,51,53,54,55,56,81,57,58,60,61,62,63,64,6.737549
2,3,4,97,5,6,7,9,10,11,12,13,14,15,66,16,17,67,19,68,20,69,21,22,23,70,24,25,71,26,27,28,29,73,31,32,35,36,74,75,37,38,39,77,40,41,42,43,78,44,79,45,46,47,48,49,80,51,53,54,55,56,57,58,60,61,62,63,64,6.507240
2,3,4,5,6,7,8,90,9,10,11,12,13,14,15,16,17,67,19,20,21,98,22,23,70,24,25,72,26,27,28,29,85,73,31,32,35,36,37,38,39,40,41,42,43,44,91,79,45,46,47,49,51,53,54,55,56,81,57,58,60,61,62,63,64,7.107905
1,2,3,4,5,6,7,8,90,9,10,11,12,13,14,15,16,17,18,19,20,21,98,22,23,24,25,26,27,28,29,85,31,32,35,36,37,38,39,77,40,41,42,43,44,91,79,45,46,47,48,49,51,52,53,54,55,56,81,57,58,60,61,62,63,64,7.468521
2,3,4,5,6,7,9,10,11,12,92,13,14,15,66,16,17,67,18,19,68,20,69,83,21,22,23,70,24,25,71,72,84,26,27,28,29,30,73,31,32,35,86,36,87,74,75,37,38,39,77,40,41,42,94,95,43,78,44,79,45,99,46,47,48,49,50,80,51,53,54,55,56,57,58,59,60,61,62,63,64,7.136677
1,2,3,4,5,6,7,9,10,11,12,13,14,15,66,16,17,67,19,68,20,69,21,22,23,70,24,25,71,26,27,28,29,73,31,32,35,86,36,74,75,37,38,39,77,40,41,42,43,78,44,79,45,46,47,48,49,80,51,53,54,55,56,57,58,60,61,62,63,64,7.721246
2,3,4,5,6,7,9,10,11,12,13,14,15,66,16,17,67,19,68,20,69,21,22,23,70,24,25,71,26,27,28,29,73,31,32,35,86,36,74,75,37,38,39,77,40,41,42,43,78,44,79,45,46,47,48,49,80,51,53,54,55,56,57,58,60,61,62,63,64,6.966576
2,3,4,5,6,7,9,10,11,12,13,14,15,66,16,17,67,19,68,20,69,21,22,23,70,24,25,71,26,27,28,29,73,31,32,35,86,36,74,75,37,38,39,77,40,41,42,43,78,44,79,45,46,47,48,49,80,51,53,54,55,56,57,58,60,61,62,63,64,7.397940
1,2,3,4,5,6,7,8,9,10,11,12,13,14,15,16,17,18,19,20,21,22,23,24,25,26,27,28,29,31,32,33,34,35,86,36,37,38,39,77,40,41,42,43,44,45,46,47,48,49,51,52,53,54,55,56,57,58,59,60,61,62,63,64,7.823909
2,3,4,5,6,7,9,10,11,12,13,14,15,89,66,16,17,67,18,19,68,20,69,83,21,22,23,70,24,25,71,72,84,26,27,28,29,30,73,31,32,65,35,86,36,87,74,75,37,38,39,77,40,41,42,43,78,44,79,45,46,47,48,49,50,80,51,53,54,55,56,57,58,59,60,61,62,63,64,6.655608
2,3,4,5,6,7,9,10,11,12,13,14,15,66,16,17,67,19,68,20,69,21,22,23,70,24,25,71,26,27,28,29,73,31,32,35,36,74,75,37,38,39,77,40,41,42,43,78,44,79,45,46,47,48,49,80,51,53,54,55,56,57,58,60,61,62,63,64,7.008774
82,2,3,4,5,6,7,9,10,11,12,13,14,15,66,16,17,67,19,68,20,69,21,22,23,70,24,25,71,26,27,28,29,85,73,31,32,35,86,36,74,75,76,37,38,88,39,77,40,41,42,43,78,44,79,45,46,47,48,49,80,51,53,54,55,56,81,57,58,60,61,62,63,64,7.275724
1,2,3,4,5,6,7,8,9,10,11,12,13,14,15,89,16,17,18,19,20,21,22,23,24,25,26,27,28,29,31,32,34,35,36,37,38,39,77,40,41,42,43,44,45,46,47,48,49,50,51,52,53,54,55,56,57,58,59,60,61,62,63,64,7.327902
1,2,3,4,5,6,7,90,9,10,11,12,13,14,15,16,17,67,19,20,21,22,23,70,24,25,26,27,28,29,73,31,32,35,36,37,38,39,77,40,41,42,43,44,79,45,46,47,48,49,51,53,54,55,56,57,58,60,61,62,63,64,6.366532
1,2,3,4,5,6,7,8,9,10,11,12,13,14,15,16,17,18,19,20,21,22,23,24,25,26,27,28,29,31,32,35,36,37,38,39,77,40,41,42,43,44,45,46,47,48,49,51,52,53,54,55,56,57,58,60,61,62,63,64,7.244125
1,2,3,4,5,6,7,8,9,10,11,12,13,14,15,16,17,18,19,20,21,22,23,24,25,72,26,27,28,29,31,32,35,36,76,37,38,39,77,40,41,42,43,44,79,45,46,47,48,49,51,52,53,54,55,56,81,57,58,60,61,62,63,64,6.374688
2,3,4,5,6,7,8,9,10,11,12,13,14,15,89,66,16,17,67,18,19,68,20,69,83,21,22,23,70,100,24,25,71,72,84,26,27,28,29,30,73,31,32,34,65,35,86,36,87,74,75,37,38,39,77,40,41,42,43,78,44,79,45,46,47,48,49,50,80,51,53,54,55,56,57,58,59,60,61,62,63,64,6.826814
1,2,3,4,5,6,7,8,9,10,11,12,13,14,15,16,17,18,19,20,21,22,23,24,25,26,27,28,29,31,32,35,86,36,37,38,39,77,40,41,42,43,44,45,46,47,48,49,51,52,53,54,55,56,57,58,60,61,62,63,64,6.340084
1,2,3,4,5,6,7,8,9,10,11,12,101,13,14,15,89,16,17,18,19,20,21,22,23,24,25,72,26,27,28,29,30,31,32,35,36,76,37,38,88,39,77,40,41,42,43,44,79,102,45,46,47,48,49,50,51,52,53,54,55,56,81,57,58,59,60,61,62,63,64,6.290730
1,2,3,4,5,6,7,8,9,10,11,12,13,14,15,89,16,17,18,19,20,21,22,23,24,25,26,27,28,29,30,31,32,35,36,37,38,39,40,41,42,43,44,45,46,47,48,49,50,51,52,53,54,55,56,57,58,59,60,61,62,63,64,7.657577
1,2,3,4,5,6,7,9,10,11,12,92,93,13,14,15,66,16,17,67,18,19,68,20,69,83,21,22,23,70,24,25,71,84,26,27,28,29,73,31,32,35,86,36,87,74,75,37,38,39,77,40,41,42,94,95,43,78,44,79,45,46,47,48,49,80,51,53,54,55,56,57,58,60,61,62,63,64,7.769551
82,2,3,4,5,6,7,9,10,11,12,13,14,15,66,16,17,67,19,68,20,69,83,21,22,23,70,24,25,71,84,26,27,28,29,85,73,31,32,35,86,36,87,74,75,76,37,38,88,39,77,40,41,42,43,78,44,79,45,46,47,48,49,80,51,53,54,55,56,81,57,58,60,61,62,63,64,7.420216
82,2,3,4,5,6,7,8,90,9,10,11,12,13,14,15,16,17,67,19,20,21,98,22,23,70,24,25,72,26,27,28,29,85,73,31,32,35,86,36,76,37,38,88,39,77,40,41,42,43,44,91,79,45,46,47,48,49,51,53,54,55,56,81,57,58,60,61,62,63,64,7.292430
1,2,3,4,5,6,7,9,10,11,12,13,14,15,66,16,17,67,19,68,20,69,21,22,23,70,24,25,71,26,27,28,29,73,31,32,35,86,36,74,75,37,38,39,77,40,41,42,43,78,44,79,45,46,47,48,49,80,51,53,54,55,56,57,58,60,61,62,63,64,7.886057
2,3,4,5,6,7,9,10,11,12,101,13,14,15,89,66,16,17,67,19,68,20,69,21,22,23,70,24,25,71,26,27,28,29,30,73,31,32,35,86,36,74,75,76,37,38,88,39,77,40,41,42,43,78,44,79,102,45,46,47,48,49,50,80,51,52,53,54,55,56,81,57,58,59,60,61,62,63,64,7.443697
2,3,4,5,6,7,9,10,11,12,101,13,14,15,89,66,16,17,67,19,68,20,69,21,22,23,70,24,25,71,72,26,27,28,29,30,73,31,32,35,36,74,75,76,37,38,88,39,77,40,41,42,43,78,44,79,102,45,46,47,48,49,50,80,51,52,53,54,55,56,81,57,58,59,60,61,62,63,64,7.420216
82,1,2,3,4,5,6,7,8,9,10,11,12,13,14,15,16,17,18,19,20,21,22,23,24,25,26,27,28,29,85,73,31,32,35,86,36,76,37,38,88,39,77,40,41,42,43,44,79,45,46,47,48,49,51,52,53,54,55,56,81,57,58,60,61,62,63,64,7.468521
2,3,4,5,6,7,9,10,11,12,13,14,15,66,16,17,67,19,68,20,69,21,22,23,70,24,25,71,26,27,28,29,73,31,32,35,36,74,75,37,38,39,77,40,41,42,43,78,44,79,45,46,47,48,49,80,51,53,54,55,56,57,58,60,61,62,63,64,6.774691
