feature 1, ..., feature 125, activity
1,2,3,4,5,6,7,8,9,10,11,12,13,14,15,16,17,18,19,20,21,22,23,24,25,26,27,28,29,30,31,32,33,34,35,36,37,38,39,40,5.366532
1,2,3,4,5,6,7,8,9,41,10,11,12,13,14,42,15,16,17,18,43,44,19,45,20,21,23,24,25,26,46,27,28,29,30,31,32,33,34,35,36,37,38,39,40,5.477556
3,47,48,49,50,7,51,52,53,9,54,41,55,56,12,57,14,42,58,59,43,44,19,20,60,61,62,23,25,46,63,64,28,65,30,66,31,33,34,36,38,39,40,5.301030
1,2,3,4,5,6,49,7,53,9,67,55,56,11,12,57,68,14,15,58,16,43,44,19,20,21,61,23,69,25,46,27,28,65,30,66,31,33,35,36,37,38,39,40,5.869666
70,71,1,2,72,3,73,74,75,76,77,78,79,80,81,82,83,5,6,48,84,49,7,85,53,9,86,54,55,87,56,88,89,12,57,90,91,14,15,92,93,16,17,43,94,19,45,60,62,95,23,25,26,63,28,65,30,66,31,32,33,34,35,36,37,38,39,40,4.537602
1,2,3,4,5,6,7,9,10,11,12,13,14,15,16,17,19,20,21,23,24,25,27,28,29,30,31,32,33,34,35,36,37,38,39,40,5.863279
70,71,1,2,3,73,74,75,76,77,78,79,80,81,82,83,5,6,48,84,49,7,85,9,86,54,55,87,56,88,12,57,90,14,15,92,93,16,43,94,19,45,60,95,23,25,26,63,28,65,30,66,31,32,33,34,36,37,38,39,40,4.721246
96,97,98,2,3,74,99,4,5,6,48,7,52,53,9,54,100,56,11,88,101,12,57,90,14,15,92,16,17,43,19,45,20,102,21,60,95,23,24,25,26,27,28,29,30,66,31,32,33,34,35,36,37,38,39,40,8.301030
1,2,3,103,104,105,5,6,48,50,7,41,10,11,13,15,106,58,92,16,18,19,45,60,61,107,95,23,24,69,25,26,64,28,29,30,66,31,32,33,34,36,37,38,39,40,8.522879
96,97,98,2,3,74,99,4,5,6,48,7,52,53,9,54,100,56,11,88,101,12,57,90,14,15,92,16,17,43,19,45,20,102,21,60,95,22,23,24,25,26,27,28,29,30,66,31,32,33,34,35,36,37,38,39,40,8.698970
1,2,3,104,5,6,49,7,52,53,9,41,67,55,56,11,12,57,14,42,15,58,16,43,44,19,20,21,61,23,69,25,46,28,65,30,31,33,36,37,38,39,40,6.397940
1,2,3,5,6,7,9,11,12,14,15,16,19,20,21,23,25,28,30,31,33,36,37,38,39,40,5.602060
70,71,1,2,3,73,74,75,76,77,78,79,80,81,82,83,5,6,48,84,49,7,85,53,9,86,54,55,87,56,88,89,12,57,90,91,14,15,92,93,16,17,43,94,19,45,60,62,95,23,25,26,63,28,65,30,66,31,32,33,34,35,36,37,38,39,40,5.065502
70,71,1,2,72,3,73,74,75,76,77,78,79,80,81,82,83,5,6,48,84,49,7,85,53,9,86,54,55,87,56,88,89,12,57,90,91,14,15,92,93,16,17,43,94,19,45,60,62,95,23,25,26,63,28,65,30,66,31,32,33,34,35,36,37,38,39,40,4.920819
1,2,3,5,6,49,7,108,53,9,67,55,56,11,12,57,14,15,58,16,43,44,19,20,21,61,62,23,69,25,46,28,65,30,31,33,36,37,38,39,40,6.950782
3,105,47,48,49,50,7,51,52,53,9,54,41,67,55,56,12,57,14,42,106,58,59,16,43,44,19,45,20,60,61,62,23,25,46,63,64,28,65,30,66,31,33,34,36,37,38,39,40,3.322393
97,109,98,2,3,74,110,99,4,47,5,6,48,7,51,108,52,53,9,54,67,55,56,88,101,89,12,57,90,14,42,15,106,58,59,16,43,44,19,45,20,102,21,60,61,62,95,22,23,25,26,46,63,27,28,29,65,30,66,31,32,33,34,35,36,37,38,39,40,7.552842
70,71,1,2,3,73,75,76,77,78,79,80,81,82,83,47,5,6,48,84,7,51,108,85,53,9,86,54,67,55,87,56,11,88,12,57,90,14,42,15,106,58,59,93,16,43,44,94,19,60,61,62,95,23,25,26,46,63,28,65,30,66,31,33,34,36,37,38,39,40,5.481486
1,2,3,5,6,49,7,108,52,9,67,55,11,12,91,111,14,15,58,16,43,19,20,21,61,62,23,69,25,28,65,30,66,31,33,35,36,37,38,39,40,6.838632
96,70,71,1,2,3,73,75,76,77,78,79,80,81,82,83,4,47,5,6,48,84,7,51,108,85,53,9,86,54,67,55,87,56,88,89,12,57,90,91,14,42,15,106,58,59,92,93,16,17,43,44,94,19,60,61,62,95,22,23,69,25,26,46,63,27,64,28,65,30,66,31,32,33,34,35,36,37,38,39,40,5.142668
1,2,3,103,104,105,5,6,48,50,7,41,10,11,13,15,106,58,92,16,18,19,45,60,61,107,95,23,24,69,25,26,64,28,29,30,66,31,32,33,34,36,37,38,39,40,7.886057
1,2,3,5,6,7,9,11,12,14,15,16,19,20,21,60,23,25,28,30,31,33,34,36,37,38,39,40,5.614394
70,71,1,112,2,3,73,74,75,76,77,78,79,80,81,82,83,5,6,48,84,49,7,85,53,9,86,54,55,87,56,88,89,12,57,90,91,14,15,92,93,16,17,43,94,19,45,60,62,95,23,25,26,63,28,65,30,66,31,32,33,34,35,36,37,38,39,40,4.744727
1,2,3,104,5,6,7,9,41,67,55,11,12,57,14,42,15,58,16,43,44,19,20,21,61,23,69,25,46,28,65,30,31,33,36,37,38,39,40,6.071092
1,2,3,103,104,105,5,6,48,50,7,41,10,11,13,15,106,58,92,16,19,45,60,61,107,95,23,24,69,25,26,64,28,29,30,66,31,32,33,34,35,36,37,38,39,40,8.221849
1,2,3,5,6,7,9,41,10,11,12,13,14,42,15,16,17,43,44,19,45,20,21,23,24,25,46,28,29,30,31,32,33,34,36,37,38,39,40,5.565431
1,2,3,103,104,105,5,6,48,50,7,41,10,11,13,15,106,58,92,16,19,45,60,61,107,95,23,24,69,25,26,64,28,29,30,66,31,32,33,34,35,36,37,38,39,40,8.221849
1,2,3,103,104,105,5,6,48,50,7,113,41,10,11,13,15,106,58,92,16,17,18,19,45,60,61,107,95,23,24,69,25,26,64,28,29,30,66,31,32,33,34,35,36,37,38,39,40,8.221849
1,2,3,4,5,6,49,7,53,9,67,55,56,11,114,12,57,14,15,58,16,19,20,21,61,23,69,25,46,27,28,65,30,31,33,35,36,37,38,39,40,6.638272
3,115,47,48,49,50,7,51,116,52,53,9,54,41,10,55,117,56,101,89,12,57,13,14,42,58,59,17,43,44,19,45,102,60,61,62,95,23,24,69,25,26,46,63,64,28,29,65,30,66,31,32,33,34,36,37,38,39,40,3.088310
70,71,1,2,3,73,74,75,76,77,78,79,80,81,82,83,5,6,48,84,49,7,85,53,9,86,54,55,87,56,88,89,12,57,90,91,14,15,92,93,16,17,43,94,19,45,60,62,95,23,25,26,63,28,65,30,66,31,32,33,34,35,36,37,38,39,40,5.119186
118,3,47,48,49,50,7,51,52,53,9,54,41,119,55,56,11,12,57,14,42,58,59,16,43,44,19,45,20,60,61,62,23,69,25,46,63,64,28,65,30,66,31,33,34,36,37,38,39,40,3.110698
1,2,3,103,104,105,5,6,48,50,7,116,41,10,117,11,101,13,15,106,58,92,16,19,45,102,60,61,107,95,23,24,69,25,26,64,28,29,30,66,31,32,33,34,36,37,38,39,40,7.431798
70,71,1,2,3,73,75,76,77,78,79,80,81,82,83,47,5,6,48,84,49,7,51,108,85,53,9,113,86,54,67,55,87,56,11,88,12,57,90,68,111,14,42,15,106,58,59,93,16,43,44,94,19,60,61,62,23,25,26,46,63,28,65,30,66,31,33,34,35,36,37,38,39,40,4.455932
3,47,48,49,50,7,51,108,116,52,53,9,54,41,55,117,101,114,12,57,91,111,14,42,58,59,43,44,19,45,102,60,61,62,23,69,25,26,46,63,27,64,28,65,30,66,31,33,34,35,36,37,38,39,40,3.399027
70,71,1,2,3,73,74,75,76,77,78,79,80,81,82,83,47,5,6,48,84,49,7,51,108,85,53,9,86,54,67,55,87,56,11,88,89,12,57,90,14,42,15,106,58,59,93,16,43,44,94,19,45,60,61,62,107,95,23,25,26,46,63,28,65,30,66,31,32,33,34,36,37,38,39,40,4.568636
120,3,110,105,115,47,48,49,50,7,51,52,53,9,54,41,67,55,56,11,89,12,57,13,14,42,106,58,59,92,16,43,44,19,45,20,60,61,62,95,23,69,25,26,46,63,64,28,29,65,30,66,31,32,33,34,36,37,38,39,40,3.000000
70,71,1,112,2,3,73,74,75,76,77,78,79,80,81,82,83,5,6,48,84,49,7,85,53,9,86,54,55,87,56,88,89,12,57,90,91,14,15,92,93,16,17,43,94,19,45,60,62,95,23,25,26,63,28,65,30,66,31,32,33,34,35,36,37,38,39,40,4.853872
70,71,98,3,73,121,75,76,77,78,79,104,80,105,81,82,83,47,48,122,84,49,50,7,116,85,9,86,54,41,10,55,87,88,101,12,90,14,106,58,59,93,16,94,19,20,102,21,60,61,23,69,25,26,63,64,28,65,30,66,31,33,34,36,37,38,39,40,7.236572
3,105,47,48,49,50,7,51,52,53,9,54,41,67,55,56,12,57,14,42,106,58,59,16,43,44,19,45,20,60,61,62,23,25,46,63,64,28,65,30,66,31,33,34,36,37,38,39,40,3.115205
97,109,98,2,3,74,110,99,4,47,5,6,48,49,7,51,108,52,53,9,54,67,55,56,88,101,89,12,57,90,14,42,15,106,58,59,43,44,19,45,20,102,21,60,61,62,95,22,23,25,26,46,63,27,28,29,65,30,66,31,32,33,34,35,36,37,38,39,40,4.809668
96,97,98,2,3,74,99,5,6,48,7,52,53,9,54,100,56,11,88,101,12,57,90,14,15,92,16,17,43,19,45,20,102,21,60,95,23,24,25,26,46,28,29,30,66,31,32,33,34,36,37,38,39,40,8.397940
96,97,98,2,3,74,99,4,5,6,48,7,53,9,54,100,56,11,88,101,12,57,90,14,15,92,16,17,43,19,45,20,102,21,60,95,22,23,24,25,26,27,28,29,30,66,31,32,33,34,35,36,37,38,39,40,6.301030
97,70,71,1,2,3,73,75,76,78,79,81,82,83,47,5,6,48,49,50,7,51,85,52,53,9,86,54,41,55,87,56,88,12,57,90,14,42,15,58,59,93,16,43,44,94,19,45,60,61,62,95,23,25,26,46,63,64,28,65,30,66,31,33,34,36,37,38,39,40,8.080922
1,98,2,3,103,104,105,5,6,48,50,7,116,41,10,11,101,13,15,106,58,92,16,19,45,102,60,61,107,95,23,24,69,25,26,64,28,29,30,66,31,32,33,34,36,37,38,39,40,7.920819
70,71,1,2,3,73,75,76,77,78,79,80,81,82,83,47,5,6,48,84,7,51,108,85,53,9,113,86,54,67,55,87,56,11,88,114,12,57,90,111,14,42,15,106,58,59,93,16,43,44,94,19,60,61,62,95,23,25,26,46,63,28,65,30,66,31,33,34,35,36,37,38,39,40,4.236572
3,47,48,49,50,7,51,52,53,9,54,41,55,56,12,57,14,42,58,59,43,44,19,45,20,60,61,62,23,25,46,63,64,28,65,30,66,31,33,34,36,38,39,40,3.769551
98,123,121,104,105,47,48,122,50,7,51,116,9,113,86,54,41,10,67,119,101,12,13,14,106,58,59,93,16,17,18,45,20,102,21,60,61,95,23,24,69,25,26,63,64,28,29,30,66,31,32,33,34,35,36,37,38,39,40,5.050610
1,2,3,103,104,105,5,6,48,50,7,113,41,10,11,13,15,106,58,92,16,17,18,19,45,60,61,107,95,23,24,69,25,26,64,28,29,30,66,31,32,33,34,35,36,37,38,39,40,7.568636
70,71,109,1,2,3,73,75,76,77,78,79,80,81,82,83,4,47,5,6,48,84,7,51,108,85,53,9,113,86,54,67,55,87,56,11,88,114,12,57,90,14,42,15,106,58,59,93,16,43,44,94,19,60,61,62,95,23,25,26,46,63,27,28,65,30,66,31,33,34,35,36,37,38,39,40,5.136677
1,2,3,4,5,6,7,9,67,55,11,114,12,57,14,15,58,16,19,20,21,61,23,69,25,46,27,28,65,30,31,33,35,36,37,38,39,40,6.360514
1,112,2,3,103,104,105,5,6,48,50,7,41,10,11,13,15,106,58,92,16,19,45,60,61,107,95,23,24,69,25,26,64,28,29,30,66,31,32,33,34,36,37,38,39,40,8.000000
1,2,3,103,104,105,5,6,48,50,7,41,10,11,13,15,106,58,92,16,19,45,60,61,107,95,23,24,69,25,26,64,28,29,30,66,31,32,33,34,36,37,38,39,40,8.096910
97,1,2,3,74,5,6,48,49,50,7,52,53,41,55,56,11,88,57,13,15,106,58,92,16,17,43,19,20,21,61,62,23,24,25,46,28,29,65,30,31,32,33,34,36,37,38,39,40,6.244125
1,2,3,103,104,105,5,6,48,50,7,41,10,11,13,15,106,58,92,16,19,45,60,61,107,95,23,24,69,25,26,64,28,29,30,66,31,32,33,34,35,36,37,38,39,40,7.744727
1,2,3,5,6,49,7,9,55,11,12,14,15,16,19,20,21,23,25,28,65,30,66,31,33,36,37,38,39,40,5.144481
1,2,3,103,104,105,5,6,48,50,7,9,41,10,11,12,13,14,15,106,58,92,16,19,45,60,61,107,95,23,24,69,25,26,64,28,29,30,66,31,32,33,34,36,37,38,39,40,9.301030
124,3,115,47,48,49,50,7,51,116,52,53,9,54,41,10,55,117,56,101,89,12,57,13,14,42,58,59,17,43,44,19,45,20,102,60,61,62,95,23,24,69,25,26,46,63,64,28,29,65,30,66,31,32,33,34,36,37,38,39,40,4.102373
123,74,104,105,47,48,50,51,116,52,53,9,41,67,119,117,56,11,101,12,57,14,42,106,58,59,16,43,44,19,20,102,21,60,61,23,24,25,26,46,63,64,28,30,31,33,34,36,37,38,39,40,5.072732
96,1,3,110,105,125,5,48,122,49,50,7,8,52,53,9,86,54,41,10,55,87,56,88,89,12,57,13,91,14,42,106,58,92,93,16,17,44,19,45,60,61,62,95,23,24,25,26,46,28,29,65,30,66,31,32,33,34,35,36,37,38,39,40,4.366532
1,2,3,5,6,7,11,15,16,19,23,25,28,31,33,36,37,38,40,4.647817
96,97,98,2,3,74,99,4,5,6,48,7,52,9,54,56,11,88,101,12,57,90,14,15,92,16,17,19,20,102,21,60,95,22,23,25,26,27,28,29,30,66,31,32,33,34,35,36,37,38,39,40,7.050610
98,3,73,121,75,76,77,78,79,104,80,105,81,83,47,48,122,84,49,50,7,116,85,9,113,86,54,41,10,55,87,88,101,12,90,14,106,58,59,93,16,94,19,20,102,21,60,61,23,69,25,26,63,64,28,65,30,66,31,33,34,35,36,37,38,39,40,7.214670
1,2,3,5,6,49,7,9,11,89,12,14,15,16,19,20,21,107,23,25,28,65,30,66,31,32,33,34,36,37,38,39,40,5.590067
70,71,1,2,3,73,75,76,78,79,80,99,81,82,83,4,47,5,6,48,84,7,51,108,85,52,53,9,113,86,54,41,67,55,87,56,11,88,114,12,57,90,111,14,42,15,106,58,59,93,43,44,94,19,45,60,61,62,95,22,23,24,25,26,46,63,27,64,28,29,65,30,66,31,33,34,35,36,37,38,39,40,4.657577
70,71,1,98,2,73,103,75,76,77,78,79,80,81,83,5,6,48,84,7,116,85,8,9,86,54,10,87,88,101,89,12,90,13,91,14,15,93,16,17,18,94,19,20,102,21,60,62,107,95,23,24,69,25,26,63,27,64,28,29,65,30,66,31,32,33,34,35,36,37,38,39,40,6.943095
1,2,3,103,104,105,5,6,48,50,7,41,10,11,13,15,106,58,92,16,19,45,60,61,107,95,23,24,69,25,26,64,28,29,30,66,31,32,33,34,35,36,37,38,39,40,8.397940
1,2,3,103,104,105,5,6,48,50,7,113,41,10,11,13,15,106,58,92,16,17,18,19,45,60,61,107,95,23,24,69,25,26,64,28,29,30,66,31,32,33,34,35,36,37,38,39,40,8.301030
3,47,48,49,50,7,51,116,52,53,9,54,41,55,117,101,12,57,14,42,58,59,43,44,19,102,60,61,62,23,69,25,46,63,64,28,65,30,66,31,33,34,36,37,38,39,40,3.232102
70,71,1,2,3,73,75,76,77,78,79,80,81,82,83,47,5,6,48,84,7,51,108,85,53,9,86,54,67,55,87,56,11,88,114,12,57,90,111,14,42,15,106,58,59,93,16,43,44,94,19,60,61,62,95,23,25,26,46,63,28,65,30,66,31,33,34,35,36,37,38,39,40,4.823909
70,71,1,2,3,73,75,110,76,77,78,79,80,99,81,82,83,4,47,5,6,48,84,7,51,108,85,53,9,113,86,54,67,55,87,56,11,88,114,12,57,90,13,68,111,14,42,15,106,58,59,93,16,43,44,94,19,45,60,61,62,95,22,23,69,25,26,46,63,27,64,28,29,65,30,66,31,32,33,34,35,36,37,38,39,40,4.013228
70,71,1,2,3,73,74,75,76,77,78,79,80,81,82,83,5,6,48,84,49,7,85,9,86,54,55,87,56,88,12,57,90,14,15,92,93,16,43,94,19,45,60,95,23,25,26,63,28,65,30,66,31,32,33,34,36,37,38,39,40,4.443697
1,2,3,103,104,105,5,6,48,50,7,116,41,10,117,11,101,13,15,106,58,92,16,19,45,102,60,61,107,95,23,24,69,25,26,64,28,29,30,66,31,32,33,34,36,37,38,39,40,8.522879
1,2,3,5,6,7,9,11,12,91,14,15,16,19,20,21,23,25,28,30,66,31,33,35,36,37,38,39,40,4.742321
112,9,11,12,14,16,20,21,23,25,28,30,31,33,36,37,38,39,40,5.096910
1,2,3,103,104,105,5,6,48,50,7,41,10,11,13,15,106,58,92,16,18,19,45,60,61,107,95,23,24,69,25,26,64,28,29,30,66,31,32,33,34,36,37,38,39,40,7.187087
