feature 1, ..., feature 121, activity
1,2,3,4,5,6,7,8,9,10,11,12,13,14,15,16,17,18,19,20,21,22,23,24,25,26,27,28,29,30,31,32,33,34,35,36,37,38,39,40,41,42,43,44,45,46,47,48,49,50,51,52,53,54,55,9.154902
1,3,4,5,6,7,8,9,11,12,13,14,15,16,17,18,20,21,22,56,23,24,25,26,27,28,31,32,34,57,35,37,38,58,39,41,42,43,44,45,46,47,48,49,50,51,52,53,54,55,9.698970
1,3,4,5,6,7,8,9,11,12,13,14,15,16,17,18,20,21,22,56,23,24,25,26,27,28,29,31,32,33,34,57,35,37,38,39,41,42,43,44,45,46,47,48,49,50,51,52,53,54,55,8.958607
12,13,14,17,21,22,24,26,31,36,37,58,40,41,44,45,46,48,49,51,52,53,54,55,6.552842
59,60,1,61,6,62,7,8,63,12,13,14,15,17,18,20,21,22,64,56,23,24,65,66,25,26,27,67,28,31,68,32,34,57,35,37,38,69,39,40,41,42,43,44,45,46,47,48,49,50,51,52,53,54,55,4.721246
70,71,72,73,3,4,74,75,76,77,78,79,80,81,82,83,5,84,6,7,8,85,9,86,87,11,12,13,88,14,89,15,90,16,91,17,18,21,22,64,23,92,24,93,94,65,95,26,67,96,28,29,31,68,32,34,35,37,38,58,69,39,41,42,43,44,45,46,48,49,50,51,52,53,54,55,7.677781
1,4,61,6,7,9,11,12,13,14,16,17,18,21,22,64,56,23,24,25,27,67,28,31,34,57,35,38,58,39,41,42,43,44,45,46,47,48,49,50,51,52,53,54,55,7.031517
3,4,97,5,6,7,8,9,86,11,12,13,14,89,15,16,17,21,22,56,23,24,28,31,68,34,57,35,38,39,41,42,43,44,45,46,48,49,50,51,52,54,55,9.070581
98,13,14,15,17,21,22,99,24,26,27,31,100,36,37,38,40,41,42,44,45,46,47,48,49,51,52,53,54,55,7.301030
1,101,3,4,5,6,7,8,11,12,13,14,15,17,18,20,21,22,23,24,25,26,27,28,31,34,57,35,37,38,39,41,42,43,44,45,46,47,48,49,50,51,52,53,54,55,6.143876
1,3,4,5,6,7,8,9,11,12,13,14,15,16,17,18,20,21,22,23,24,25,26,27,28,31,32,34,35,37,38,58,39,41,42,43,44,45,46,47,48,49,50,51,52,53,54,55,10.283997
1,3,4,81,5,6,7,8,9,86,11,12,13,14,89,15,16,17,102,18,20,21,22,56,23,24,65,25,26,27,28,31,68,32,34,57,35,37,38,58,39,41,42,43,44,45,46,47,48,49,50,51,52,53,54,55,9.522879
70,71,73,4,74,75,77,78,82,83,84,7,103,87,98,11,12,13,104,88,14,15,91,17,18,105,20,21,22,64,56,24,95,27,96,28,31,32,34,35,38,69,39,41,43,44,45,46,47,48,49,50,51,52,53,54,55,7.443697
4,7,106,11,13,14,107,17,102,21,22,24,26,28,31,35,36,37,40,41,44,45,46,48,49,51,52,53,54,55,8.075721
1,3,4,5,6,7,8,9,11,12,13,14,15,16,17,18,20,21,22,99,56,23,24,25,26,27,28,31,32,33,34,57,35,100,37,38,58,39,41,42,43,44,45,46,47,48,49,50,51,52,53,54,55,9.420216
98,13,14,15,17,102,20,21,22,99,24,26,27,31,100,36,37,38,40,41,42,43,44,45,46,47,48,49,51,52,53,54,55,7.301030
1,3,4,5,6,7,8,9,11,12,13,104,14,15,16,17,18,105,20,21,22,99,56,23,24,25,26,27,28,31,32,34,57,35,100,36,37,38,58,39,40,41,42,43,44,45,46,47,48,49,50,51,52,53,54,55,9.886057
70,71,72,101,73,3,4,74,97,75,76,77,78,79,80,82,83,5,84,62,7,8,85,9,86,63,103,10,87,12,13,88,14,89,15,90,16,91,108,17,18,19,20,21,22,64,24,93,94,65,66,95,26,67,109,96,28,29,30,31,68,32,34,35,36,37,38,58,69,40,41,42,43,44,45,46,47,48,49,51,52,53,54,55,7.677781
1,3,4,5,6,7,8,9,11,12,13,14,15,16,17,18,20,21,22,56,23,24,93,25,27,67,109,28,31,32,34,57,35,37,38,58,39,41,42,43,44,45,46,47,48,49,50,51,52,53,54,55,9.167491
1,4,6,7,11,12,13,14,17,18,20,21,22,56,23,92,24,25,27,28,31,34,57,35,38,58,39,41,43,44,45,46,47,48,49,50,51,52,53,54,55,8.154902
70,71,73,4,74,75,77,78,81,82,83,84,7,86,87,11,12,13,104,88,14,89,91,17,102,18,105,21,22,64,24,65,95,26,96,28,31,68,34,35,37,38,69,41,44,45,46,48,49,50,51,52,53,54,55,8.000000
1,3,4,81,5,6,7,8,9,11,12,13,14,15,90,16,17,102,18,20,21,22,56,23,24,65,25,26,27,28,31,68,32,34,57,35,37,38,39,41,42,43,44,45,46,47,48,49,50,51,52,53,54,55,9.886057
101,4,6,7,9,106,11,12,13,14,16,17,21,22,56,23,24,67,28,31,57,35,38,58,39,41,43,44,45,46,48,49,50,51,52,53,54,55,6.612610
1,97,6,62,7,63,11,12,13,14,90,16,18,20,21,22,24,94,65,66,25,26,27,67,109,28,29,31,68,32,33,34,35,100,37,38,58,69,39,40,41,43,44,45,46,47,48,49,50,51,52,53,54,55,4.251812
72,3,5,62,8,85,86,106,63,103,87,11,12,13,14,89,15,90,16,17,102,21,22,24,93,94,65,66,26,67,109,28,31,68,32,34,35,37,38,58,69,41,42,43,44,45,46,48,49,51,52,53,54,55,8.045757
70,71,72,73,3,4,74,75,76,77,78,79,80,82,83,5,84,7,8,85,9,86,10,87,12,13,88,14,89,15,16,91,108,17,18,19,21,22,64,24,95,26,96,28,30,31,68,32,34,35,36,37,38,58,69,40,41,42,43,44,45,46,48,49,51,52,53,54,55,7.823909
1,72,110,111,3,4,5,6,112,7,8,85,9,86,87,11,12,13,14,89,15,16,113,17,102,18,20,21,22,23,24,93,94,65,25,26,27,67,109,28,29,31,68,32,34,35,100,37,38,58,39,41,42,43,44,45,46,47,48,49,50,51,52,53,54,55,9.657577
1,3,4,61,5,6,7,8,9,11,12,13,14,15,16,17,18,105,20,21,22,64,56,23,24,25,27,67,28,29,31,32,33,34,57,35,100,37,38,39,41,42,43,44,45,46,47,48,49,50,51,52,53,54,55,9.376751
1,3,4,5,6,7,8,9,11,12,13,104,14,15,16,17,18,20,21,22,56,23,92,24,25,27,28,29,31,32,34,57,35,38,39,41,42,43,44,45,46,47,48,49,50,51,52,53,54,55,9.301030
1,3,4,5,6,7,8,9,11,12,13,14,15,16,17,18,20,21,22,99,23,24,25,26,27,114,28,29,31,32,33,34,35,100,36,37,38,39,40,41,42,43,44,45,46,47,48,49,50,51,52,53,54,55,9.318759
70,71,72,73,3,4,74,75,76,77,78,79,80,81,82,83,5,84,6,7,8,85,9,86,87,12,13,88,14,89,15,90,16,91,17,18,21,22,64,24,94,65,95,26,96,28,31,68,32,34,35,37,38,58,69,39,41,42,43,44,45,46,48,49,50,51,52,53,54,55,5.958607
1,3,4,97,5,6,7,8,9,86,11,12,13,14,89,15,16,17,18,20,21,22,56,23,24,25,26,27,28,29,31,68,32,34,57,35,38,39,41,42,43,44,45,46,47,48,49,50,51,52,53,54,55,9.096910
3,5,62,8,106,63,103,11,12,13,14,15,90,16,17,21,22,24,93,65,66,26,67,109,28,31,68,32,34,35,37,38,58,69,41,42,43,44,45,46,48,49,51,52,53,54,55,6.251812
101,4,7,9,106,63,103,11,13,14,107,16,17,21,22,56,92,24,66,26,28,31,32,35,36,37,69,39,40,41,43,44,45,46,48,49,50,51,52,53,54,55,7.568636
3,81,5,62,8,106,63,103,11,12,13,14,15,90,107,16,17,21,22,24,93,94,65,66,26,67,109,28,31,68,32,34,35,37,38,58,69,41,42,43,44,45,46,48,49,51,52,53,54,55,4.869666
1,101,3,4,97,5,6,62,7,8,9,63,103,11,12,13,14,15,90,16,17,18,20,21,22,56,23,24,93,94,65,66,25,27,67,109,28,29,31,68,32,34,57,35,37,38,58,69,39,41,42,43,44,45,46,47,48,49,50,51,52,53,54,55,9.853872
70,71,72,73,3,4,74,75,76,77,78,79,80,81,82,83,5,84,6,7,8,85,9,86,87,12,13,88,14,89,15,90,16,91,17,18,21,22,64,23,24,94,65,95,26,67,96,28,29,31,68,32,34,35,37,38,58,69,39,41,42,43,44,45,46,48,49,50,51,52,53,54,55,6.376751
1,3,4,81,5,6,62,7,8,9,86,63,11,12,13,104,14,89,15,16,17,18,105,20,21,22,56,23,92,24,65,66,25,26,27,28,31,68,32,34,57,35,36,38,58,69,39,40,41,42,43,44,45,46,47,48,49,50,51,52,53,54,55,9.795880
1,2,3,4,5,6,7,8,9,10,11,12,13,14,15,16,17,18,19,20,21,22,56,23,24,25,26,27,28,29,30,31,32,33,34,57,35,36,37,38,39,40,41,42,43,44,45,46,47,48,49,50,51,52,53,54,55,10.301030
1,2,3,4,5,6,7,8,9,11,12,13,14,15,16,17,18,19,20,21,22,64,56,23,24,25,26,27,28,29,30,31,32,33,34,57,35,37,38,39,41,42,43,44,45,46,47,48,49,50,51,52,53,54,55,9.455932
1,3,4,5,6,7,8,9,11,12,13,14,15,16,17,18,20,21,22,56,23,24,25,26,27,28,29,31,32,33,34,57,35,37,38,58,39,41,42,43,44,45,46,47,48,49,50,51,52,53,54,55,8.107905
1,3,4,5,6,7,8,9,11,12,13,14,15,16,17,18,20,21,22,56,23,24,25,26,27,28,31,32,34,57,35,37,38,58,39,41,42,43,44,45,46,47,48,49,50,51,52,53,54,55,9.455932
3,4,81,5,6,7,8,9,11,12,13,14,15,90,16,17,21,22,56,23,24,65,28,31,68,34,57,35,38,39,41,42,43,44,45,46,48,49,50,51,52,53,54,55,8.886057
70,71,73,4,74,75,77,78,82,83,84,7,87,13,104,88,14,91,17,18,21,22,64,24,95,26,96,28,31,34,35,37,38,69,41,44,45,46,48,49,50,51,52,53,54,55,8.045757
12,13,14,17,21,22,24,26,31,36,37,40,41,44,45,46,48,49,51,52,53,54,55,6.431798
1,3,4,81,5,6,7,8,9,11,12,13,14,15,90,16,17,18,20,21,22,23,24,65,25,26,27,28,31,68,32,34,35,37,38,39,41,42,43,44,45,46,47,48,49,50,51,52,53,54,55,9.187087
1,3,4,81,5,6,7,8,9,11,12,13,14,15,90,16,17,18,20,21,22,56,23,24,65,25,26,27,28,31,68,32,34,57,35,37,38,58,39,41,42,43,44,45,46,47,48,49,50,51,52,53,54,55,9.387216
101,3,97,5,62,8,9,63,103,11,12,13,14,15,90,16,17,102,20,21,22,24,93,94,65,66,26,67,109,28,29,31,68,32,34,35,37,38,58,69,41,42,43,44,45,46,47,48,49,51,52,53,54,55,6.017729
1,3,4,5,6,7,8,9,63,103,11,12,13,104,14,15,16,17,18,20,21,22,56,23,24,66,25,26,27,28,29,115,116,31,32,33,34,57,35,37,38,69,39,41,42,43,44,45,46,47,48,49,50,51,52,53,54,55,9.481486
1,110,117,3,4,81,5,6,62,112,7,8,9,86,63,98,11,12,13,104,14,89,15,90,16,17,102,18,20,21,22,56,23,92,24,94,65,66,25,26,27,114,28,116,31,68,32,34,57,35,100,36,37,38,69,39,40,41,42,43,44,45,46,47,48,49,50,51,52,53,54,55,7.494850
3,4,5,6,7,8,9,11,12,13,14,15,16,17,21,22,56,23,24,67,28,29,31,34,57,35,38,58,39,41,42,43,44,45,46,48,49,50,51,52,53,54,55,8.721246
1,3,4,81,5,6,7,8,9,11,12,13,14,15,90,16,17,18,20,21,22,56,23,24,65,25,26,27,28,31,68,32,34,57,35,37,38,58,39,41,42,43,44,45,46,47,48,49,50,51,52,53,54,55,10.721246
101,3,4,97,5,6,62,7,8,9,63,103,11,12,13,14,15,90,16,17,20,21,22,23,24,93,94,65,66,26,67,109,28,29,31,68,32,34,35,37,38,58,69,39,41,42,43,44,45,46,47,48,49,50,51,52,53,54,55,9.119186
1,3,4,5,6,7,8,9,10,11,12,13,14,15,16,108,17,18,19,20,21,22,99,56,23,24,25,26,27,28,29,30,31,32,33,34,57,35,100,36,37,38,39,40,41,42,43,44,45,46,47,48,49,50,51,52,53,54,55,9.568636
1,4,6,7,9,11,12,13,14,16,17,18,20,21,22,56,23,24,25,26,27,67,28,31,32,34,57,35,37,38,39,41,43,44,45,46,47,48,49,50,51,52,53,54,55,7.443697
1,101,3,4,5,6,62,7,8,9,63,103,11,12,13,14,15,90,107,16,17,102,18,20,21,22,23,24,93,65,66,25,26,27,67,109,28,31,68,32,34,35,37,38,58,69,39,41,42,43,44,45,46,47,48,49,50,51,52,53,54,55,9.657577
1,3,4,5,6,7,8,9,11,12,13,14,15,16,17,18,20,21,22,56,23,24,25,27,28,29,31,32,33,34,57,35,38,58,39,41,42,43,44,45,46,47,48,49,50,51,52,53,54,55,9.096910
1,4,5,6,7,8,63,103,11,13,14,15,16,17,18,20,21,22,56,23,92,24,66,25,26,27,28,31,32,34,57,35,37,38,69,39,41,42,43,44,45,46,47,48,49,50,51,52,53,54,55,4.119186
5,13,104,14,107,17,21,22,99,24,26,27,114,31,34,100,36,37,38,39,40,41,42,44,45,46,47,48,49,50,51,52,53,54,55,7.397940
1,101,3,4,5,6,62,7,8,9,63,103,11,12,13,14,15,90,107,16,17,102,18,20,21,22,56,23,24,93,65,66,25,27,67,109,28,31,68,32,34,57,35,37,38,58,69,39,41,42,43,44,45,46,47,48,49,50,51,52,53,54,55,9.508638
118,1,97,7,86,63,98,11,12,13,14,89,15,17,102,18,20,21,22,24,94,65,66,25,26,27,114,67,28,29,115,31,68,33,34,35,100,37,38,58,69,40,41,43,44,45,46,47,48,49,51,52,53,54,55,5.823909
118,97,79,62,7,86,63,98,11,12,13,14,89,15,102,21,22,24,94,65,66,25,26,114,67,29,115,31,68,33,34,35,100,36,37,38,58,69,40,44,45,46,47,48,49,51,52,53,54,55,5.494850
1,101,3,4,5,6,62,7,8,9,63,103,11,12,13,14,15,90,107,16,17,102,18,20,21,22,56,23,24,93,65,66,25,27,67,109,28,31,68,32,34,57,35,37,38,58,69,39,41,42,43,44,45,46,47,48,49,50,51,52,53,54,55,9.431798
70,71,73,4,74,75,77,78,82,83,84,7,103,87,11,12,13,104,88,14,91,17,18,105,21,22,64,24,95,26,96,28,31,32,34,35,37,38,69,41,43,44,45,46,48,49,50,51,52,53,54,55,8.221849
1,6,7,63,11,13,104,14,18,20,21,22,92,24,66,25,26,27,31,34,57,35,37,38,69,39,41,43,44,45,46,47,48,49,50,51,52,53,54,55,6.397940
1,3,4,5,6,7,8,11,12,13,104,14,15,17,18,20,21,22,56,23,24,25,27,28,31,34,57,35,38,39,41,42,43,44,45,46,47,48,49,50,51,52,53,54,55,9.552842
1,3,4,5,6,7,8,9,11,12,13,14,15,16,17,18,20,21,22,99,56,23,24,25,26,27,28,29,31,32,33,34,57,35,100,37,38,39,41,42,43,44,45,46,47,48,49,50,51,52,53,54,55,10.096910
70,71,73,4,74,75,77,78,82,83,84,6,7,87,11,13,104,88,14,91,17,18,105,21,22,64,23,24,95,96,28,31,34,57,35,38,69,39,41,44,45,46,48,49,50,51,52,53,54,55,7.537602
1,3,4,5,6,7,8,9,63,103,11,12,13,104,14,15,16,17,18,20,21,22,23,24,66,25,26,27,28,29,115,116,31,32,33,34,57,35,37,38,69,39,41,42,43,44,45,46,47,48,49,50,51,52,53,54,55,9.207608
1,3,4,5,6,7,8,11,12,13,104,14,15,17,18,20,21,22,23,24,25,26,27,28,31,34,57,35,37,38,39,41,42,43,44,45,46,47,48,49,50,51,52,53,54,55,7.036212
3,81,5,62,8,106,63,103,11,12,13,14,15,90,16,17,102,21,22,24,93,94,65,66,26,67,109,28,31,68,32,34,35,37,38,58,69,41,42,43,44,45,46,48,49,51,52,53,54,55,6.173925
70,71,72,73,3,4,74,75,76,77,78,79,80,81,82,83,5,84,7,8,85,9,86,103,87,98,11,12,13,104,88,14,89,15,90,16,91,17,18,105,20,21,22,64,24,94,65,95,26,27,96,28,31,68,32,34,35,37,38,58,69,41,42,43,44,45,46,47,48,49,50,51,52,53,54,55,8.000000
13,14,107,17,102,21,22,24,26,31,36,37,40,41,44,45,46,48,49,51,52,53,54,55,7.823909
70,71,72,73,3,4,74,75,76,77,78,79,80,81,82,83,5,84,7,8,85,9,86,87,11,12,13,88,14,89,15,90,16,91,17,18,21,22,64,23,92,24,93,94,65,95,26,67,96,28,29,31,68,32,34,35,37,38,58,69,41,42,43,44,45,46,48,49,50,51,52,53,54,55,7.207608
70,71,73,3,4,74,75,77,78,82,83,5,84,7,8,9,103,87,98,11,12,13,104,88,14,15,16,91,17,18,105,20,21,22,64,56,24,95,26,27,96,28,31,32,34,35,37,38,69,39,41,42,43,44,45,46,47,48,49,50,51,52,53,54,55,6.886057
101,4,6,7,11,12,13,14,17,105,21,22,56,23,92,24,25,28,31,34,57,35,38,58,39,41,44,45,46,47,48,49,50,51,54,8.468521
101,4,6,7,9,106,63,103,11,12,13,104,14,107,16,17,21,22,56,23,92,24,66,26,28,31,57,35,36,37,58,69,39,40,41,43,44,45,46,48,49,50,51,52,53,54,55,7.876148
1,101,3,4,97,5,6,62,7,8,9,63,103,11,12,13,14,15,90,16,17,18,20,21,22,56,23,24,93,94,65,66,25,27,67,109,28,29,31,68,32,34,57,35,37,38,58,69,39,41,42,43,44,45,46,47,48,49,50,51,52,53,54,55,9.000000
3,4,81,5,6,7,8,9,11,12,13,14,15,90,16,17,21,22,56,23,24,94,65,28,31,68,34,57,35,38,39,41,42,43,44,45,46,48,49,50,51,52,53,54,55,8.853872
13,14,17,21,22,24,26,31,36,37,38,40,41,42,44,45,46,48,49,51,52,53,54,55,6.638272
70,71,72,73,3,4,74,75,76,77,78,79,80,81,82,83,5,84,7,8,85,9,86,87,11,12,13,88,14,89,15,90,16,91,17,18,21,22,64,24,93,94,65,95,26,67,96,28,29,31,68,32,34,35,37,38,58,69,41,42,43,44,45,46,48,49,51,52,53,54,55,5.958607
70,71,72,2,73,3,4,74,75,76,77,78,79,80,81,82,83,5,84,7,8,85,9,86,87,12,13,88,14,89,15,90,16,91,17,18,19,21,22,64,24,94,65,95,26,96,28,30,31,68,32,34,35,37,38,58,69,41,42,43,44,45,46,48,49,51,52,53,54,55,6.366532
70,71,72,73,3,4,74,75,76,77,78,79,80,82,83,5,84,7,8,85,9,86,10,87,12,13,88,14,89,15,16,91,108,17,18,19,21,22,64,92,24,95,26,96,28,30,31,68,32,34,35,36,37,38,58,69,40,41,42,43,44,45,46,48,49,50,51,52,53,54,55,7.853872
3,4,5,6,7,8,9,11,12,13,14,15,16,17,21,22,23,24,26,28,29,31,33,34,35,37,38,39,41,42,43,44,45,46,47,48,49,50,51,52,53,54,55,8.000000
70,71,72,73,3,4,74,75,76,77,78,79,80,81,82,83,5,84,7,8,85,9,86,87,12,13,88,14,89,15,90,16,91,17,18,21,22,64,24,94,65,95,26,96,28,31,68,32,34,35,37,38,58,69,41,42,43,44,45,46,48,49,51,52,53,54,55,6.244125
1,2,3,4,5,6,7,8,9,11,12,13,14,15,16,17,18,19,20,21,22,64,23,24,25,26,27,28,29,30,31,32,33,34,35,37,38,39,41,42,43,44,45,46,47,48,49,50,51,52,53,54,55,9.337242
1,3,4,5,6,7,8,11,12,13,104,14,15,17,18,20,21,22,23,24,25,26,27,28,31,34,57,35,37,38,39,41,42,43,44,45,46,47,48,49,50,51,52,53,54,55,9.455932
3,4,81,5,6,7,8,9,11,12,13,14,15,90,16,17,21,22,56,23,24,65,26,28,31,68,34,57,35,37,38,39,41,42,43,44,45,46,48,49,50,51,52,53,54,55,9.301030
70,71,73,3,74,75,76,77,78,80,82,5,84,62,8,85,106,103,87,11,12,13,88,14,15,90,16,91,17,102,18,21,22,64,24,93,65,66,95,26,67,109,96,28,31,68,32,34,35,37,38,58,69,41,42,43,44,45,46,48,49,51,52,53,54,55,6.346787
1,101,3,4,5,6,62,7,8,9,86,63,103,11,12,13,14,89,15,16,17,18,20,21,22,56,23,24,93,65,66,25,27,67,109,28,31,68,32,34,57,35,38,58,69,39,41,42,43,44,45,46,47,48,49,50,51,52,53,54,55,8.920819
1,3,4,5,6,7,8,9,11,12,13,104,14,15,16,17,18,20,21,22,99,56,23,24,25,26,27,28,29,31,32,33,34,57,35,100,37,38,39,41,42,43,44,45,46,47,48,49,50,51,52,53,54,55,9.619789
101,4,81,6,7,8,9,106,63,103,11,13,104,14,15,90,107,16,17,21,22,23,24,65,66,26,28,31,68,35,36,37,69,39,40,41,43,44,45,46,48,49,50,51,52,53,54,55,7.737549
3,4,5,6,7,8,9,11,12,13,14,15,16,17,21,22,56,23,24,26,28,31,34,57,35,37,38,39,41,42,43,44,45,46,48,49,50,51,52,53,54,55,8.301030
3,5,62,8,106,63,103,11,12,13,14,15,90,107,16,17,21,22,24,93,65,66,26,67,109,28,31,68,32,34,35,37,38,58,69,41,42,43,44,45,46,48,49,51,52,53,54,55,6.337242
1,3,4,5,6,7,8,9,11,12,13,14,15,16,17,102,18,20,21,22,56,23,24,25,26,27,28,29,31,32,33,34,57,35,37,38,39,41,42,43,44,45,46,47,48,49,50,51,52,53,54,55,9.455932
70,71,73,4,74,75,77,78,82,83,84,7,103,87,11,12,13,104,88,14,15,91,17,18,105,21,22,64,24,95,26,96,28,29,31,32,34,35,37,38,69,41,43,44,45,46,48,49,50,51,52,53,54,55,7.958607
1,3,4,5,6,7,8,9,11,12,13,14,15,16,17,102,18,20,21,22,56,23,24,25,26,27,28,29,31,32,33,34,57,35,37,38,39,41,42,43,44,45,46,47,48,49,50,51,52,53,54,55,9.920819
70,71,72,119,73,3,4,74,75,76,77,78,79,80,82,83,5,84,7,8,85,9,86,10,87,12,13,88,14,89,15,16,91,108,17,18,19,21,22,64,24,95,26,96,28,30,31,68,32,34,35,36,37,38,58,69,40,41,42,43,44,45,46,48,49,51,52,53,54,55,8.096910
1,3,4,97,5,6,7,8,9,86,11,12,13,14,89,15,16,17,18,20,21,22,56,23,24,25,27,67,109,28,29,31,68,32,34,57,35,38,58,39,41,42,43,44,45,46,47,48,49,50,51,52,53,54,55,9.481486
70,71,101,73,3,4,74,75,76,77,78,80,82,83,5,84,62,7,8,85,9,63,103,10,87,12,13,88,14,15,90,16,91,108,17,18,19,105,21,22,64,92,24,93,94,65,66,95,26,67,109,96,28,30,31,68,32,34,35,36,37,38,58,69,40,41,42,43,44,45,46,48,49,50,51,52,53,54,55,7.148742
70,71,73,3,74,75,76,77,78,80,82,5,84,62,8,85,9,103,87,11,12,13,88,14,15,90,16,91,17,102,18,21,22,64,56,24,93,65,66,95,26,67,109,96,28,31,68,32,34,35,37,38,58,69,41,42,43,44,45,46,48,49,50,51,52,53,54,55,3.096910
1,3,4,5,6,7,8,9,11,12,13,14,15,16,17,18,20,21,22,99,56,23,24,25,26,27,28,29,31,32,33,34,57,35,100,37,38,39,41,42,43,44,45,46,47,48,49,50,51,52,53,54,55,9.045757
70,71,101,73,3,74,97,75,76,77,78,80,82,5,84,62,8,85,9,63,103,87,11,12,13,88,14,15,90,16,91,17,102,18,20,21,22,64,24,93,94,65,66,95,26,67,109,96,28,29,31,68,32,34,35,37,38,58,69,41,42,43,44,45,46,47,48,49,51,52,53,54,55,6.091515
70,71,72,73,3,4,74,75,76,77,78,79,80,81,82,83,5,84,7,8,85,9,86,10,87,12,13,104,88,14,89,15,90,16,91,108,17,18,19,21,22,64,99,24,94,65,95,26,27,96,28,30,31,68,32,34,35,100,36,37,38,58,69,40,41,42,43,44,45,46,47,48,49,50,51,52,53,54,55,7.337242
3,4,81,5,6,7,8,9,11,12,13,14,15,90,16,17,102,21,22,56,23,24,65,26,28,31,68,34,57,35,37,38,39,41,42,43,44,45,46,48,49,50,51,52,53,54,55,9.301030
110,4,97,6,62,112,7,9,63,103,11,12,13,14,90,16,17,18,105,20,21,22,56,23,24,93,94,65,66,67,109,28,29,31,68,32,34,57,35,38,58,69,39,41,43,44,45,46,47,48,49,50,51,53,54,55,6.924453
1,3,4,81,5,6,7,8,9,11,12,13,14,15,90,16,17,18,20,21,22,56,23,24,65,25,26,27,28,31,68,32,34,57,35,37,38,39,41,42,43,44,45,46,47,48,49,50,51,52,53,54,55,9.193820
1,4,6,7,9,11,12,13,14,16,17,18,20,21,22,56,23,24,25,27,67,28,31,32,34,57,35,38,58,39,41,43,44,45,46,47,48,49,50,51,52,53,54,55,7.494850
1,101,3,4,5,6,62,7,8,9,63,103,11,12,13,14,15,90,107,16,17,102,18,20,21,22,23,24,93,65,66,25,26,27,67,109,28,31,68,32,34,35,37,38,58,69,39,41,42,43,44,45,46,47,48,49,50,51,52,53,54,55,9.420216
70,71,73,4,74,75,77,78,82,83,84,7,103,87,98,11,12,13,88,14,15,91,17,18,20,21,22,64,56,24,95,26,27,67,96,28,29,31,32,34,35,37,38,69,41,43,44,45,46,47,48,49,50,51,52,53,54,55,8.045757
70,71,73,4,74,75,77,78,82,83,84,7,103,87,98,11,12,13,104,88,14,15,91,17,18,105,20,21,22,64,24,95,26,27,96,28,31,32,34,35,37,38,69,41,43,44,45,46,47,48,49,50,51,52,53,54,55,7.742063
70,71,73,4,74,75,76,77,78,80,82,83,84,7,85,9,103,87,98,11,12,13,104,88,14,15,16,91,17,18,105,20,21,22,64,24,93,95,26,27,109,96,28,31,32,34,35,37,38,58,69,41,43,44,45,46,47,48,49,50,51,52,53,54,55,8.698970
1,4,6,7,11,13,14,17,18,20,21,22,24,25,26,27,28,31,34,35,37,38,39,41,43,44,45,46,47,48,49,50,51,52,53,54,55,8.096910
101,3,4,97,5,6,62,7,8,9,63,103,11,12,13,14,15,90,16,17,20,21,22,56,23,24,93,94,65,66,26,67,109,28,29,31,68,32,34,57,35,37,38,58,69,39,41,42,43,44,45,46,47,48,49,50,51,52,53,54,55,9.096910
110,4,6,112,7,9,63,103,11,12,13,104,14,16,17,18,105,21,22,56,23,24,66,67,109,28,29,31,32,57,35,38,58,69,39,41,43,44,45,46,48,49,50,51,54,6.477556
1,120,97,6,62,7,86,63,98,11,12,13,14,89,15,16,18,20,21,22,24,94,65,66,25,26,27,67,109,31,68,32,34,57,35,100,37,38,69,39,40,41,43,44,45,46,47,48,49,50,51,52,53,54,55,5.698970
70,71,73,4,74,75,77,78,82,83,84,7,87,11,12,13,104,88,14,91,17,18,105,21,22,64,24,95,26,96,28,31,34,35,37,38,58,69,41,44,45,46,48,49,50,51,52,53,54,55,7.552842
3,81,5,62,8,106,63,103,11,12,13,14,15,90,16,17,102,21,22,24,93,94,65,66,26,67,109,28,31,68,32,34,35,37,38,58,69,41,42,43,44,45,46,48,49,51,52,53,54,55,6.795880
3,4,81,5,6,7,8,9,11,12,13,14,15,90,16,17,21,22,23,24,65,26,28,31,68,34,35,37,38,39,41,42,43,44,45,46,48,49,50,51,52,53,54,55,8.958607
1,101,3,4,97,5,6,62,7,8,9,63,103,11,12,13,14,15,90,16,17,18,20,21,22,56,23,24,93,94,65,66,25,27,67,109,28,29,31,68,32,34,57,35,37,38,58,69,39,41,42,43,44,45,46,47,48,49,50,51,52,53,54,55,9.602060
1,3,4,5,6,7,8,9,11,12,13,14,15,16,17,18,20,21,22,56,23,24,25,26,27,28,31,32,34,57,35,37,38,58,39,41,42,43,44,45,46,47,48,49,50,51,52,53,54,55,9.096910
121,13,14,17,21,22,24,26,31,36,37,40,41,44,45,46,48,49,51,52,53,54,55,6.346787
13,14,17,21,22,24,26,31,37,41,44,45,46,48,49,51,52,53,54,55,5.966576
1,3,4,5,6,7,8,9,11,12,13,14,15,16,17,18,20,21,22,99,56,23,24,25,26,27,114,28,29,31,32,33,34,57,35,100,36,37,38,39,40,41,42,43,44,45,46,47,48,49,50,51,52,53,54,55,9.638272
1,3,4,5,6,7,8,9,11,12,13,14,15,16,17,18,20,21,22,99,56,23,24,25,26,27,28,29,31,32,33,34,57,35,100,37,38,39,41,42,43,44,45,46,47,48,49,50,51,52,53,54,55,10.000000
70,71,73,74,75,77,78,82,84,7,85,103,87,98,11,13,104,88,14,15,91,17,18,105,20,21,22,64,92,24,66,95,26,27,96,31,32,34,35,37,38,69,39,41,43,44,45,46,47,48,49,50,51,52,53,54,55,6.431798
1,2,3,4,5,6,7,8,9,11,12,13,14,15,16,17,18,19,20,21,22,64,99,56,23,24,25,26,27,28,29,30,31,32,33,34,57,35,100,37,38,39,41,42,43,44,45,46,47,48,49,50,51,52,53,54,55,10.154902
1,3,4,5,6,7,8,9,11,12,13,14,15,16,17,18,20,21,22,23,24,25,26,27,28,29,31,32,33,34,35,37,38,39,41,42,43,44,45,46,47,48,49,50,51,52,53,54,55,8.886057
1,4,61,6,7,9,11,12,13,14,16,17,18,21,22,64,56,23,24,25,27,67,28,31,34,57,35,38,58,39,41,42,43,44,45,46,47,48,49,50,51,52,53,54,55,7.214670
1,4,6,7,11,13,14,17,18,20,21,22,24,25,26,27,28,31,34,35,37,38,39,41,43,44,45,46,47,48,49,50,51,52,53,54,55,7.864371
79,13,14,17,21,22,24,26,31,36,37,40,41,44,45,46,48,49,51,52,53,54,55,7.045757
3,4,5,6,7,8,9,11,12,13,14,15,16,17,102,21,22,56,23,24,26,67,28,29,31,34,57,35,37,38,39,41,42,43,44,45,46,48,49,50,51,52,53,54,55,9.522879
110,3,4,97,5,6,62,112,7,8,9,63,103,11,12,13,14,15,90,16,17,18,20,21,22,56,23,24,93,94,65,66,67,109,28,29,31,68,32,34,57,35,38,58,69,39,41,42,43,44,45,46,47,48,49,50,51,53,54,55,8.102373
1,3,4,5,6,7,8,9,98,11,12,13,104,14,15,16,17,18,20,21,22,99,56,23,24,25,26,27,114,28,29,31,32,33,34,57,35,100,36,37,38,39,40,41,42,43,44,45,46,47,48,49,50,51,52,53,54,55,9.420216
70,71,72,73,4,74,75,77,78,82,83,84,7,85,86,87,11,13,104,88,14,89,91,17,18,105,21,22,64,24,95,26,96,28,31,68,34,35,38,69,41,44,45,46,48,49,50,51,52,53,54,55,7.958607
1,3,4,5,6,7,8,9,11,12,13,14,15,16,17,18,20,21,22,99,23,24,25,26,27,28,29,31,32,33,34,35,100,37,38,39,41,42,43,44,45,46,47,48,49,50,51,52,53,54,55,9.698970
1,3,4,5,6,7,8,9,103,11,12,13,14,15,16,17,18,20,21,22,56,23,24,93,25,27,67,109,28,29,31,32,33,34,57,35,38,58,39,41,42,43,44,45,46,47,48,49,50,51,52,53,54,55,9.187087
101,3,5,62,8,9,106,63,103,11,12,13,14,15,90,16,17,102,21,22,24,93,65,66,26,67,109,28,31,68,32,35,37,38,58,69,41,42,43,44,45,46,48,49,51,52,53,54,55,4.866461
1,4,6,7,9,11,12,13,14,16,17,18,20,21,22,56,23,24,25,27,67,28,31,32,34,57,35,38,58,39,41,43,44,45,46,47,48,49,50,51,52,53,54,55,7.144181
70,71,73,4,74,75,77,78,82,83,84,7,87,11,13,104,88,14,91,17,18,105,21,22,64,24,95,26,96,28,31,34,35,37,38,69,41,44,45,46,48,49,50,51,52,53,54,55,7.958607
13,14,107,17,21,22,24,26,31,36,37,40,41,44,45,46,48,49,51,52,53,54,55,6.853872
1,101,3,4,97,5,6,62,7,8,9,63,103,11,12,13,14,15,90,16,17,18,20,21,22,23,24,93,94,65,66,25,26,27,67,109,28,29,31,68,32,34,35,37,38,58,69,39,41,42,43,44,45,46,47,48,49,50,51,52,53,54,55,9.920819
1,3,4,81,5,6,7,8,9,11,12,13,14,15,90,16,17,102,18,20,21,22,56,23,24,65,25,26,27,28,31,68,32,34,57,35,37,38,39,41,42,43,44,45,46,47,48,49,50,51,52,53,54,55,9.602060
3,5,8,106,12,13,14,15,107,17,102,21,22,24,26,28,31,35,36,37,38,40,41,42,44,45,46,48,49,51,52,53,54,55,8.221849
3,5,8,106,12,13,104,14,15,107,17,21,22,99,24,26,27,114,28,31,34,35,100,36,37,38,39,40,41,42,44,45,46,47,48,49,50,51,52,53,54,55,7.096910
1,3,4,5,6,7,8,9,11,12,13,14,15,16,17,18,20,21,22,56,23,24,93,25,27,67,109,28,29,31,32,33,34,57,35,38,58,39,41,42,43,44,45,46,47,48,49,50,51,52,53,54,55,9.301030
70,71,72,73,4,74,75,76,77,78,80,82,83,84,7,85,86,103,87,98,11,12,13,88,14,89,15,91,17,18,20,21,22,64,24,95,26,27,96,28,31,68,32,34,35,37,38,69,41,43,44,45,46,47,48,49,51,52,53,54,55,8.045757
70,71,73,4,74,75,77,78,82,83,84,7,87,98,12,13,104,88,14,15,91,17,18,20,21,22,64,92,24,95,26,27,96,28,31,34,35,37,38,69,39,41,42,43,44,45,46,47,48,49,50,51,52,53,54,55,8.045757
1,3,4,5,6,7,8,9,98,11,12,13,104,14,15,16,17,18,20,21,22,99,56,23,24,25,26,27,114,28,31,32,34,57,35,100,37,38,39,41,42,43,44,45,46,47,48,49,50,51,52,53,54,55,8.638272
70,71,72,73,3,4,74,75,76,77,78,79,80,81,82,83,5,84,7,8,85,9,86,10,87,12,13,88,14,89,15,90,16,91,108,17,18,19,21,22,64,24,94,65,95,26,96,28,30,31,68,32,34,35,36,37,38,58,69,40,41,42,43,44,45,46,48,49,51,52,53,54,55,7.309804
1,3,4,81,5,6,7,8,9,11,12,13,14,15,90,16,17,18,20,21,22,56,23,24,65,25,26,27,28,31,68,32,34,57,35,37,38,39,41,42,43,44,45,46,47,48,49,50,51,52,53,54,55,8.958607
70,71,73,4,74,75,77,78,82,83,84,7,103,87,98,11,12,13,104,88,14,15,91,17,18,105,20,21,22,64,99,24,95,26,27,96,28,31,32,34,35,100,37,38,69,41,42,43,44,45,46,47,48,49,50,51,52,53,54,55,8.397940
1,3,4,81,5,6,62,112,7,8,9,86,63,11,12,13,14,89,15,16,17,18,20,21,22,56,23,24,94,65,66,25,26,27,28,31,68,32,34,57,35,38,58,69,39,41,42,43,44,45,46,47,48,49,50,51,52,53,54,55,9.537602
101,4,6,7,9,106,11,12,13,14,16,17,21,22,56,23,24,67,28,31,57,35,38,58,39,41,43,44,45,46,48,49,50,51,52,53,54,55,6.935542
1,3,4,5,6,7,8,9,11,12,13,104,14,15,16,17,18,20,21,22,99,56,23,24,25,26,27,28,31,32,34,57,35,100,37,38,58,39,41,42,43,44,45,46,47,48,49,50,51,52,53,54,55,9.958607
12,13,14,17,20,21,22,99,24,26,27,31,100,36,37,38,40,41,42,43,44,45,46,47,48,49,51,52,53,54,55,6.346787
1,3,4,5,6,7,8,9,11,12,13,14,15,16,17,18,105,20,21,22,56,23,24,25,27,67,109,28,29,31,32,34,57,35,38,39,41,42,43,44,45,46,47,48,49,50,51,52,53,54,55,9.698970
13,14,107,17,102,21,22,24,26,31,36,37,40,41,44,45,46,48,49,51,52,53,54,55,7.823909
3,4,5,6,7,8,9,11,12,13,14,15,16,17,21,22,56,23,24,26,28,29,31,33,34,57,35,37,38,39,41,42,43,44,45,46,47,48,49,50,51,52,53,54,55,9.124939
1,3,4,5,6,7,8,9,11,12,13,14,15,16,17,18,20,21,22,56,23,24,25,26,27,28,31,32,34,57,35,37,38,39,41,42,43,44,45,46,47,48,49,50,51,52,53,54,55,9.698970
70,71,72,2,73,3,4,74,75,76,77,78,79,80,81,82,83,5,84,7,8,85,9,86,10,87,12,13,88,14,89,15,90,16,91,17,18,19,21,22,64,24,94,65,95,26,96,28,30,31,68,32,34,35,36,37,38,58,69,40,41,42,43,44,45,46,48,49,51,52,53,54,55,7.853872
1,3,4,5,6,7,8,9,11,12,13,14,15,16,17,18,20,21,22,56,23,24,25,26,27,28,31,32,34,57,35,37,38,39,41,42,43,44,45,46,47,48,49,50,51,52,53,54,55,9.698970
1,72,110,111,3,4,5,6,112,7,8,85,9,86,87,11,12,13,14,89,15,16,113,17,102,18,20,21,22,56,23,24,93,94,65,25,27,67,109,28,29,31,68,32,34,57,35,100,38,58,39,41,42,43,44,45,46,47,48,49,50,51,52,53,54,55,9.187087
1,3,4,5,6,7,8,9,11,12,13,14,15,16,17,18,20,21,22,56,23,24,25,27,28,31,32,34,57,35,38,39,41,42,43,44,45,46,47,48,49,50,51,52,53,54,55,9.602060
3,4,81,5,6,7,8,9,11,12,13,14,15,90,16,17,102,21,22,56,23,24,65,26,28,31,68,34,57,35,37,38,39,41,42,43,44,45,46,48,49,50,51,52,53,54,55,9.455932
70,71,117,101,73,3,4,74,75,76,77,78,79,80,81,82,83,5,84,62,112,7,8,85,9,63,103,10,87,12,13,88,14,15,90,16,91,108,17,18,19,21,22,64,24,93,94,65,66,95,26,67,109,96,28,115,30,116,31,68,32,34,35,36,37,38,58,69,40,41,42,43,44,45,46,48,49,51,52,53,54,55,7.229148
3,5,62,8,106,63,103,11,12,13,14,15,90,107,16,17,21,22,56,24,93,65,66,67,109,28,31,68,32,34,35,37,38,58,69,41,42,43,44,45,46,48,49,50,51,52,53,54,55,4.481486
70,71,72,73,3,4,74,75,76,77,78,79,80,81,82,83,5,84,7,8,85,9,86,10,87,12,13,88,14,89,15,90,16,91,108,17,18,19,21,22,64,24,94,65,95,26,96,28,30,31,68,32,34,35,36,37,38,58,69,40,41,42,43,44,45,46,48,49,51,52,53,54,55,7.585027
1,3,4,5,6,7,8,9,11,12,13,14,15,16,17,18,20,21,22,99,23,24,25,26,27,28,29,31,32,33,34,35,100,37,38,39,41,42,43,44,45,46,47,48,49,50,51,52,53,54,55,9.698970
70,71,73,4,74,75,76,77,78,80,82,83,84,7,85,103,87,98,11,12,13,88,14,15,91,17,18,20,21,22,64,24,95,26,27,96,28,31,32,34,35,37,38,69,41,43,44,45,46,47,48,49,51,52,53,54,55,7.657577
12,13,14,17,102,21,22,24,26,31,36,37,40,41,44,45,46,48,49,51,52,53,54,55,6.698970
1,4,61,6,7,9,11,12,13,14,16,17,18,105,21,22,64,56,23,24,25,27,67,109,28,29,31,32,34,57,35,38,58,39,41,42,43,44,45,46,47,48,49,50,51,54,6.769551
70,71,72,73,3,4,74,75,76,77,78,79,80,81,82,83,5,84,7,8,85,9,86,10,87,12,13,88,14,89,15,90,16,91,108,17,18,19,21,22,64,24,94,65,95,26,67,96,28,29,30,31,68,32,34,35,36,37,38,58,69,40,41,42,43,44,45,46,48,49,51,52,53,54,55,7.244125
1,120,97,6,62,7,86,63,98,11,12,13,14,89,15,16,18,20,21,22,24,94,65,66,25,26,27,67,109,28,31,68,32,33,34,35,100,37,38,69,39,40,41,43,44,45,46,47,48,49,50,51,52,53,54,55,7.481486
3,79,5,8,106,12,13,14,15,17,21,22,24,26,28,31,35,36,37,38,40,41,42,44,45,46,48,49,51,52,53,54,55,7.397940
1,101,3,4,97,5,6,62,7,8,9,63,103,11,12,13,14,15,90,16,17,18,20,21,22,56,23,24,93,94,65,66,25,27,67,109,28,29,31,68,32,34,57,35,37,38,58,69,39,41,42,43,44,45,46,47,48,49,50,51,52,53,54,55,4.387216
3,5,62,8,106,63,103,11,12,13,14,15,90,16,17,102,21,22,24,93,65,66,26,67,109,28,31,68,32,34,35,37,38,58,69,41,42,43,44,45,46,48,49,51,52,53,54,55,7.522879
1,3,4,5,6,7,8,9,11,12,13,104,14,15,16,17,18,20,21,22,99,56,23,24,25,26,27,28,31,32,34,57,35,100,37,38,58,39,41,42,43,44,45,46,47,48,49,50,51,52,53,54,55,9.920819
1,73,3,4,74,75,77,78,82,5,84,6,7,8,9,103,87,11,12,13,14,15,16,91,17,18,105,20,21,22,64,56,23,92,24,25,95,26,27,109,96,28,29,31,32,34,57,35,37,38,58,69,39,41,42,43,44,45,46,47,48,49,50,51,52,53,54,55,6.889410
1,120,6,7,9,63,98,11,12,13,14,16,18,20,21,22,24,66,25,26,27,109,28,31,32,33,34,35,37,38,69,39,41,43,44,45,46,47,48,49,50,51,52,53,54,55,6.397940
3,5,6,62,8,106,63,103,11,12,13,14,15,90,107,16,17,21,22,23,24,93,65,66,67,109,28,31,68,32,34,35,37,38,58,69,39,41,42,43,44,45,46,48,49,50,51,52,53,54,55,5.869666
1,4,6,7,9,11,12,13,14,16,17,18,105,20,21,22,56,23,24,25,27,67,109,28,29,31,32,34,57,35,38,58,39,41,43,44,45,46,47,48,49,50,51,52,53,54,55,6.917954
1,3,4,5,6,7,8,9,11,12,13,14,15,16,17,18,20,21,22,99,23,24,25,26,27,28,29,31,32,33,34,35,100,37,38,39,41,42,43,44,45,46,47,48,49,50,51,52,53,54,55,9.221849
1,3,4,81,5,6,7,8,9,11,12,13,14,15,90,16,17,102,18,20,21,22,23,24,65,25,26,27,28,31,68,32,34,35,37,38,39,41,42,43,44,45,46,47,48,49,50,51,52,53,54,55,9.958607
1,4,6,7,9,11,12,13,14,16,17,18,20,21,22,56,23,24,25,26,27,67,28,31,32,34,57,35,37,38,39,41,43,44,45,46,47,48,49,50,51,52,53,54,55,7.090689
1,3,4,5,6,7,8,9,10,11,12,13,14,15,16,108,17,18,19,20,21,22,99,23,24,25,26,27,28,29,30,31,32,33,34,35,100,36,37,38,39,40,41,42,43,44,45,46,47,48,49,50,51,52,53,54,55,9.229148
70,71,72,73,3,4,74,75,76,77,78,79,80,81,82,83,5,84,7,8,85,9,86,87,12,13,88,14,89,15,90,16,91,17,18,21,22,64,24,94,65,95,26,96,28,31,68,32,34,35,36,37,38,58,69,39,40,41,42,43,44,45,46,48,49,50,51,52,53,54,55,6.886057
1,2,3,4,5,6,7,8,9,11,12,13,14,15,16,17,18,19,20,21,22,64,99,23,24,25,26,27,28,29,30,31,32,33,34,35,100,37,38,39,41,42,43,44,45,46,47,48,49,50,51,52,53,54,55,9.744727
70,71,73,4,74,75,77,78,82,83,84,6,7,103,87,98,11,12,13,104,88,14,15,91,17,18,105,20,21,22,64,23,24,95,27,96,28,31,32,34,57,35,38,69,39,41,43,44,45,46,47,48,49,50,51,52,53,54,55,7.180456
