feature 1, ..., feature 305, activity
1,2,3,4,5,6,7,8,9,10,11,12,13,14,15,16,17,18,19,20,21,22,23,24,25,26,27,28,29,30,31,32,33,34,35,36,37,38,39,40,41,42,43,44,45,46,47,48,49,50,51,52,53,54,55,56,57,58,59,60,61,62,63,64,65,66,67,68,69,70,71,7.638272
1,2,3,4,5,6,7,8,9,12,11,13,10,14,16,17,19,20,21,22,23,24,25,26,27,72,29,31,32,33,34,35,36,37,38,39,40,73,43,45,46,47,48,49,50,51,52,53,74,55,56,75,58,60,61,62,63,64,65,66,67,68,76,70,71,7.522879
1,2,7,8,9,77,78,79,6,5,4,3,11,12,14,17,80,81,23,24,82,83,84,85,86,26,87,29,31,32,88,33,34,35,36,89,38,39,90,40,43,91,92,49,50,51,52,53,93,94,95,96,97,55,98,99,60,100,62,101,63,65,67,102,103,104,105,106,71,107,5.846185
1,2,7,8,9,77,78,79,6,5,4,3,11,12,108,14,17,80,81,109,23,24,82,83,84,110,86,26,87,111,29,31,32,88,33,34,35,36,112,89,38,39,113,40,43,114,92,115,49,50,51,52,53,93,94,95,116,117,97,55,98,118,99,60,100,119,62,101,63,65,67,102,120,121,103,122,105,106,123,71,124,6.869666
1,2,7,8,9,77,78,79,6,5,4,3,11,12,13,14,16,17,125,81,23,24,82,83,84,86,26,87,126,29,31,32,88,33,34,35,36,89,38,39,40,127,43,128,92,49,50,51,52,53,93,94,95,97,55,98,129,130,60,100,62,101,63,65,67,102,103,105,106,71,6.920819
1,2,7,8,9,77,78,79,6,5,4,3,11,12,131,132,14,17,133,134,80,81,23,24,82,83,84,135,110,86,26,87,29,31,32,88,33,34,35,36,112,89,136,38,39,137,40,43,138,139,114,92,49,50,51,52,53,93,94,95,140,141,117,97,55,98,99,60,100,62,101,63,65,67,102,120,103,142,122,105,106,71,143,6.677781
1,2,3,4,5,6,7,8,9,12,11,10,13,14,15,17,18,19,20,21,22,23,24,25,26,27,29,144,31,32,33,34,35,36,37,38,39,40,41,43,145,45,46,47,48,49,50,51,52,53,146,55,56,147,58,60,61,62,63,64,65,66,67,68,148,70,71,7.853872
1,2,7,8,9,77,78,79,6,5,4,3,11,12,149,14,17,80,81,23,24,82,83,150,84,110,86,26,87,29,31,32,88,33,34,35,36,151,112,89,38,39,40,43,114,92,49,50,51,52,53,93,94,95,152,153,117,97,55,98,99,60,100,62,101,63,65,67,102,154,120,103,122,105,106,71,6.694649
1,2,3,4,5,6,7,8,9,77,78,79,11,12,14,17,20,155,81,23,24,82,83,84,86,26,87,29,31,32,88,33,34,35,36,89,38,39,40,43,156,157,92,49,50,51,52,53,93,94,95,97,55,98,158,60,159,100,62,101,63,65,67,102,103,105,106,71,7.200659
1,2,3,4,5,6,7,8,9,77,78,79,11,12,13,14,16,17,81,23,24,82,83,84,86,26,87,160,161,31,32,88,33,34,35,36,89,38,39,40,162,43,92,49,50,51,52,53,93,94,95,163,55,98,164,165,60,100,62,101,63,65,166,102,103,105,106,71,7.119186
1,2,7,8,9,77,78,79,6,5,4,3,11,12,167,14,17,80,81,23,24,168,82,83,84,110,86,26,87,29,31,32,169,88,33,34,35,36,170,112,171,89,38,39,40,43,114,92,49,50,51,172,52,53,173,93,94,95,116,174,117,97,55,98,99,60,100,62,175,101,63,65,67,102,176,120,177,103,122,105,106,71,7.366532
1,2,3,4,5,6,7,8,9,77,78,79,11,12,149,14,17,178,20,81,23,24,82,83,150,84,110,86,26,87,29,31,32,88,33,34,35,36,151,112,89,38,39,40,43,179,180,92,49,50,51,52,53,93,94,95,152,153,181,97,55,98,158,60,100,62,101,63,65,67,102,154,120,103,122,105,106,71,7.167491
1,2,7,8,9,77,78,79,6,5,4,3,11,12,131,14,17,80,81,182,23,24,82,83,84,135,110,86,26,87,29,31,32,88,33,34,35,36,112,89,136,38,39,40,43,114,92,183,49,50,51,52,53,93,94,95,140,141,117,97,55,98,99,60,100,184,62,101,63,65,67,102,120,103,185,122,105,106,71,6.801343
1,2,7,8,9,77,78,79,6,5,4,3,11,12,186,14,17,80,81,23,24,82,83,84,187,110,86,26,87,29,31,32,88,33,34,35,36,112,89,38,39,188,40,43,114,92,49,50,51,52,53,93,94,95,189,190,117,97,55,98,99,60,100,62,101,63,65,67,102,120,103,122,105,106,71,191,6.737549
1,2,7,8,9,77,78,79,6,5,4,3,11,12,192,193,14,194,17,195,81,23,24,82,83,84,86,26,87,29,196,31,32,88,197,33,34,35,36,89,38,39,40,198,43,199,92,49,50,51,200,52,53,93,94,95,97,55,98,201,202,60,203,100,62,101,204,63,65,67,102,103,105,106,71,6.507240
132,5,7,6,8,2,4,3,1,9,12,11,14,17,205,81,23,24,206,26,29,31,32,33,34,35,36,207,38,39,137,40,43,208,92,49,50,51,52,53,209,210,55,211,212,60,100,62,63,65,67,213,214,215,71,216,7.107905
1,2,3,4,5,6,7,8,9,12,11,10,132,14,17,19,20,21,205,22,23,24,25,26,27,29,144,31,32,33,34,35,36,37,38,39,137,40,43,45,46,47,217,48,49,50,51,52,53,146,55,56,58,218,60,61,62,63,64,65,66,67,68,148,70,71,216,7.468521
1,2,7,8,9,77,78,79,6,5,4,3,11,12,13,14,219,17,80,81,23,24,220,82,83,84,110,86,26,87,29,221,222,31,32,223,88,33,34,35,36,112,171,89,38,39,40,224,225,43,114,92,49,50,51,226,227,52,53,228,93,94,95,116,174,117,97,55,98,99,229,230,60,100,62,231,101,63,65,67,102,120,232,103,122,105,106,71,7.136677
2,77,8,7,6,79,1,12,4,9,5,3,11,78,14,17,19,20,21,81,23,24,82,83,84,86,26,87,27,29,31,32,88,33,34,35,36,89,38,39,40,43,45,46,47,92,49,50,51,52,53,93,94,95,97,55,98,56,158,60,100,62,101,63,64,65,66,67,68,102,103,105,106,71,7.721246
2,77,8,7,6,79,1,5,4,12,9,3,11,78,14,17,233,81,23,24,82,83,84,86,26,87,29,31,32,234,88,33,34,35,36,89,38,39,40,43,235,92,49,50,51,52,53,236,237,238,93,94,95,97,55,98,239,60,100,62,240,101,63,65,67,102,103,105,106,71,6.966576
1,2,3,4,5,6,7,8,9,77,78,79,11,12,241,14,17,19,20,242,81,23,24,82,83,84,86,26,87,29,31,32,88,33,34,243,35,36,89,38,39,40,43,244,245,45,246,92,49,50,51,52,53,93,94,95,97,55,98,158,60,100,62,101,63,65,247,67,102,103,105,106,71,7.397940
1,2,3,4,5,6,7,8,9,12,11,10,13,14,15,17,248,19,20,21,22,23,24,25,26,27,29,144,31,32,33,34,35,36,37,38,39,40,249,43,250,251,45,46,47,48,49,50,51,52,53,146,55,56,58,252,60,61,62,63,64,65,66,67,68,148,70,71,7.823909
1,2,7,8,9,77,78,79,6,5,4,3,11,12,131,13,14,16,17,80,81,23,24,82,83,84,135,110,86,26,87,253,29,31,32,88,33,34,35,36,112,89,254,38,39,40,255,43,114,92,49,50,51,52,53,93,94,95,256,141,117,97,55,98,257,99,60,100,62,101,63,65,67,102,120,103,258,122,105,106,71,6.655608
1,2,7,8,9,77,78,79,6,5,4,3,11,12,14,17,195,81,23,24,82,83,84,86,26,87,29,31,32,88,33,34,35,36,89,38,39,40,43,199,92,49,50,51,52,53,93,94,95,97,55,98,201,60,203,100,62,101,63,65,67,102,103,105,106,71,7.008774
1,2,3,4,5,6,7,8,9,77,78,79,11,12,108,14,17,19,20,21,81,109,23,24,82,83,84,86,26,87,259,29,31,32,88,33,34,35,36,89,38,39,113,40,43,244,260,45,46,92,115,49,50,51,52,53,93,94,95,97,55,98,261,158,60,100,119,62,101,63,65,67,262,102,103,105,106,263,71,264,7.275724
1,2,3,4,5,6,7,8,9,12,11,10,13,14,16,17,19,20,21,125,22,23,24,25,26,27,126,29,144,31,32,33,34,35,36,37,38,39,40,127,43,45,46,47,265,48,49,50,51,52,53,146,55,56,129,58,266,60,61,62,63,64,65,66,67,68,148,70,71,7.327902
1,2,3,4,5,6,7,8,9,11,12,14,17,19,20,21,267,81,23,24,268,206,26,27,29,31,32,33,34,35,36,38,39,40,43,45,46,47,269,92,49,50,51,52,53,270,209,55,56,271,60,100,62,63,64,65,66,67,68,272,273,274,215,71,6.366532
1,2,3,4,5,6,7,8,9,12,11,10,14,17,19,20,21,195,22,23,24,25,26,27,29,144,31,32,33,34,35,36,37,38,39,40,43,45,46,47,275,48,49,50,51,52,53,146,55,56,58,276,60,203,61,62,63,64,65,66,67,68,148,70,71,7.244125
1,2,3,4,5,6,7,8,9,12,11,10,14,17,19,20,21,80,22,23,24,85,25,26,27,29,144,31,32,33,34,35,36,37,38,39,90,40,43,45,46,47,277,48,49,50,51,52,53,96,146,55,56,58,278,60,61,62,63,64,65,66,67,68,148,104,70,71,107,6.374688
1,2,7,8,9,77,78,79,6,5,4,3,11,12,131,279,13,14,280,17,19,281,133,80,81,23,24,82,83,84,135,110,86,26,87,29,31,32,88,33,34,35,36,282,112,89,136,38,39,40,283,43,284,285,286,114,92,49,50,51,52,53,93,94,95,140,141,117,97,55,98,99,60,100,62,101,63,65,67,102,287,120,103,142,122,105,106,71,6.826814
1,2,3,4,5,6,7,8,9,12,11,10,14,17,19,20,21,22,23,24,25,26,27,29,144,31,32,33,34,35,36,37,38,39,40,43,45,288,46,47,48,49,50,51,52,53,146,55,56,58,252,60,61,62,63,64,65,66,67,68,148,70,71,6.340084
1,2,3,4,5,6,7,8,9,12,11,10,108,289,13,14,290,17,19,20,21,80,22,23,24,291,25,26,27,29,144,31,32,292,33,34,35,36,37,38,39,293,40,294,43,45,46,47,295,48,49,50,51,52,53,296,146,55,56,58,278,60,61,62,297,63,64,65,66,67,68,148,298,70,71,299,6.290730
1,2,3,4,5,6,7,8,9,10,11,12,13,14,16,17,19,20,21,22,23,24,25,26,27,160,29,30,31,32,33,34,35,36,37,38,39,40,162,43,45,46,47,48,49,50,51,52,53,54,55,56,300,58,301,60,61,62,63,64,65,66,67,68,69,70,71,7.657577
1,2,3,4,5,6,7,8,9,77,78,79,11,12,167,14,17,178,20,81,23,24,168,82,83,84,110,86,26,87,29,31,32,169,88,33,34,35,36,170,112,171,89,38,39,40,43,179,180,92,49,50,51,172,52,53,173,93,94,95,116,174,181,97,55,98,158,60,100,62,175,101,63,65,67,102,176,120,177,103,122,105,106,71,7.769551
1,2,3,4,5,6,7,8,9,77,78,79,11,12,108,14,17,178,20,81,109,23,24,82,83,84,110,86,26,87,111,29,31,32,88,33,34,35,36,112,89,38,39,113,40,43,179,180,92,115,49,50,51,52,53,93,94,95,116,181,97,55,98,118,158,60,100,119,62,101,63,65,67,102,120,121,103,122,105,106,123,71,124,7.420216
1,2,3,4,5,6,7,8,9,132,11,12,108,14,17,19,20,21,205,81,109,23,24,206,26,259,29,31,32,33,34,35,36,207,38,39,137,113,40,43,244,260,45,46,208,92,115,49,50,51,52,53,209,210,55,261,302,211,60,100,119,62,63,65,67,262,213,214,215,263,71,216,264,7.292430
1,2,3,4,5,6,7,8,9,77,11,12,78,79,14,17,19,20,21,81,23,24,82,83,84,86,26,87,27,29,31,32,88,33,34,35,36,89,38,39,40,43,244,260,45,46,92,49,50,51,52,53,93,94,95,97,55,98,56,158,60,100,62,101,63,64,65,66,67,68,102,103,105,106,71,7.886057
1,2,3,4,5,6,7,8,9,77,78,79,11,12,108,289,13,14,290,17,178,20,81,23,24,82,83,84,291,86,26,87,29,31,32,88,292,33,34,35,36,89,38,39,293,40,294,43,179,303,92,49,50,51,52,53,93,94,95,304,97,55,98,158,60,100,62,101,297,63,65,67,102,103,298,105,106,71,299,7.443697
1,2,7,8,9,77,78,79,6,5,4,3,11,12,108,289,13,14,290,17,80,81,23,24,82,83,84,291,86,26,87,29,31,32,88,292,33,34,35,36,89,38,39,293,40,294,43,305,92,49,50,51,52,53,93,94,95,296,97,55,98,99,60,100,62,101,297,63,65,67,102,103,298,105,106,71,299,7.420216
1,2,3,4,5,6,7,8,9,12,11,10,108,14,17,19,20,21,22,109,23,24,25,26,27,259,29,144,31,32,33,34,35,36,37,38,39,113,40,43,244,260,45,288,46,47,48,115,49,50,51,52,53,146,55,56,261,58,252,60,61,119,62,63,64,65,66,67,68,262,148,70,263,71,264,7.468521
1,2,7,8,9,77,78,79,6,5,4,3,11,12,14,17,195,81,23,24,82,83,84,86,26,87,29,31,32,88,33,34,35,36,89,38,39,40,43,199,92,49,50,51,52,53,93,94,95,97,55,98,201,60,203,100,62,101,63,65,67,102,103,105,106,71,6.774691
