feature 1, ..., feature 881, activity
1,2,3,4,5,6,7,8,9,10,11,12,13,14,15,16,17,18,19,20,21,22,23,24,25,26,27,28,29,30,31,32,33,34,35,36,37,38,39,40,41,42,43,44,45,46,47,5.366532
1,2,3,4,5,6,7,8,9,48,10,49,11,12,13,14,15,16,50,51,17,18,19,20,21,22,52,23,24,25,26,27,28,53,29,30,31,32,33,34,54,55,35,36,37,38,39,40,41,56,57,42,43,44,45,46,47,58,5.477556
59,1,10,48,2,7,60,49,61,62,50,51,63,64,65,66,67,68,69,70,71,72,73,74,75,27,76,77,54,78,79,80,81,82,83,84,85,86,87,88,89,90,91,92,93,94,95,96,97,5.301030
1,5,48,2,3,98,4,6,7,61,9,49,10,11,12,99,13,14,16,100,101,17,18,102,20,21,103,104,105,23,24,25,26,106,27,107,108,109,30,31,110,32,111,112,113,35,36,114,38,39,115,116,117,118,42,43,44,45,119,46,5.869666
120,2,10,1,3,61,121,6,122,7,4,9,123,8,11,124,125,126,127,128,129,13,130,131,132,17,133,134,135,20,136,24,25,137,138,27,139,140,141,142,143,144,145,146,147,148,149,150,151,152,35,153,154,155,156,157,158,43,44,159,160,161,162,163,164,4.537602
1,2,3,4,5,6,7,8,9,10,11,12,165,13,14,15,16,17,18,19,20,21,22,23,24,25,26,27,28,29,166,167,168,30,31,32,33,35,36,37,38,39,169,170,42,43,44,45,46,47,5.863279
120,2,10,1,3,61,121,6,7,4,9,125,128,129,13,131,171,17,133,134,135,20,24,25,137,138,27,139,172,142,145,146,147,148,149,151,173,35,174,154,155,157,43,44,159,160,161,175,163,176,4.721246
1,177,10,178,2,6,8,179,7,61,49,180,9,3,4,11,12,129,165,13,181,182,183,184,185,186,187,133,188,135,21,189,190,191,24,25,138,26,27,192,193,194,146,195,196,197,148,198,199,200,201,202,203,204,205,206,207,208,209,155,210,211,212,213,214,215,216,217,218,219,220,221,222,223,8.301030
3,4,5,224,225,10,1,61,121,7,226,6,9,227,165,13,14,15,16,228,171,17,229,20,230,231,232,233,234,235,236,237,24,25,238,239,27,172,240,241,242,243,168,244,31,245,246,247,248,249,35,250,38,251,252,253,254,255,256,257,258,259,43,44,260,261,262,175,263,176,264,265,8.522879
1,177,10,178,2,6,8,179,7,61,49,180,9,3,4,11,266,129,165,13,181,182,183,184,185,186,133,267,135,21,189,268,190,191,24,25,138,26,27,192,193,269,146,195,196,197,148,198,199,200,201,202,270,204,205,207,208,271,155,210,211,272,212,213,214,215,216,217,273,219,220,221,222,223,8.698970
5,1,48,2,3,98,4,6,7,9,49,13,14,16,50,51,100,101,17,18,20,21,274,275,104,105,23,24,25,26,106,27,109,30,31,110,32,111,54,276,112,113,35,36,38,39,115,277,278,117,279,42,43,44,45,280,46,6.397940
6,1,9,3,4,5,7,2,165,13,14,16,17,18,20,21,23,24,25,26,27,195,196,166,30,31,32,35,36,38,39,210,42,43,44,45,46,5.602060
120,2,10,1,3,61,121,6,7,4,9,8,11,125,126,127,128,129,13,131,132,17,133,134,135,20,24,25,137,138,27,139,140,142,143,144,145,146,147,148,149,151,152,35,153,154,155,157,43,44,159,160,161,162,163,164,5.065502
120,2,1,10,3,61,121,6,122,4,7,9,123,8,11,124,125,126,127,128,129,165,13,15,130,131,132,17,133,134,135,20,136,24,25,137,138,27,139,140,141,142,143,144,145,146,197,281,168,147,149,282,150,151,152,35,153,154,283,156,284,158,43,44,159,160,161,162,163,164,4.920819
1,2,3,4,5,6,7,98,9,49,13,14,16,100,101,285,17,18,20,21,104,23,24,25,26,286,27,109,30,31,110,32,287,288,113,289,35,36,38,39,115,290,291,42,43,44,45,292,46,6.950782
59,1,48,61,10,2,7,225,3,49,60,4,227,62,165,13,293,294,50,51,63,295,65,296,230,68,70,71,73,74,297,75,27,298,76,195,196,299,300,301,302,79,80,81,82,83,303,85,304,305,306,88,90,91,93,94,307,308,309,97,3.322393
1,177,2,10,59,6,7,61,180,310,9,3,4,49,11,266,129,165,13,63,311,183,184,185,312,133,267,135,21,268,190,24,25,138,26,313,27,314,193,269,146,195,196,197,148,198,315,316,201,202,270,204,317,207,208,271,155,210,272,212,214,215,216,217,318,319,219,220,320,321,223,7.552842
120,10,2,1,59,3,121,4,61,322,6,5,7,49,9,125,323,129,165,13,14,15,16,63,64,17,133,134,135,20,23,24,25,324,325,313,326,27,139,327,328,146,329,197,281,330,168,30,331,332,282,333,334,335,35,336,337,283,284,338,42,43,44,339,340,341,342,96,163,5.481486
1,5,2,3,4,98,6,7,48,9,49,61,11,126,343,13,14,16,344,285,17,18,20,21,345,104,105,23,24,25,26,286,27,346,347,109,30,31,110,32,111,348,289,35,36,38,39,115,349,350,351,42,43,44,45,352,46,6.838632
120,3,10,2,1,59,4,121,61,6,49,7,9,8,11,125,126,12,127,129,165,13,15,63,64,17,353,354,133,355,135,20,230,356,24,25,324,313,27,139,140,357,143,358,144,146,197,281,168,282,359,334,335,35,360,361,362,336,363,283,284,364,365,43,44,339,341,366,96,367,163,368,5.142668
3,4,5,224,225,10,1,61,121,7,226,6,9,227,165,13,14,15,16,228,171,17,229,20,230,232,233,369,235,236,237,24,25,238,239,27,172,240,241,196,370,371,244,31,245,246,248,249,35,250,38,251,372,373,254,255,374,257,258,259,43,44,260,261,262,175,263,176,375,265,7.886057
1,3,2,4,5,6,7,9,13,14,16,17,376,18,20,21,23,24,25,26,27,149,198,30,31,32,35,377,36,38,378,39,210,42,43,379,44,45,380,46,5.614394
120,2,10,1,3,381,61,121,382,6,7,4,9,8,11,125,126,383,127,128,129,13,131,132,17,133,134,384,135,20,385,24,25,137,138,27,139,140,142,143,386,144,145,146,147,387,148,149,151,152,35,153,154,388,155,157,389,43,44,159,160,161,162,163,164,4.744727
3,5,1,225,2,4,6,7,48,9,49,13,14,16,50,51,100,390,17,18,20,391,21,392,104,393,23,24,25,26,394,27,109,30,31,110,32,395,54,396,397,398,35,36,38,39,399,115,400,401,402,42,43,44,45,403,46,6.071092
3,4,5,224,225,10,1,61,121,7,226,6,9,11,404,227,165,13,14,15,16,228,171,17,229,405,20,230,232,233,235,236,237,24,25,238,239,27,172,240,406,241,196,407,370,244,31,245,246,248,249,35,250,408,38,251,409,373,254,255,257,258,259,43,44,260,261,262,175,263,176,265,8.221849
6,1,9,3,4,5,7,2,8,48,49,165,13,14,15,16,50,51,17,18,20,21,22,52,23,24,25,26,27,53,166,167,168,30,31,32,33,54,55,35,36,38,39,169,410,57,42,43,44,45,46,58,5.565431
3,4,5,224,225,10,1,61,121,7,226,6,9,11,411,227,165,13,14,15,16,412,228,171,17,229,20,230,231,232,233,235,236,237,24,25,238,239,27,172,240,413,241,281,242,168,244,31,414,245,246,415,248,249,35,250,416,38,251,252,253,254,255,257,258,259,43,44,260,261,417,262,175,263,176,265,8.221849
3,4,5,224,225,10,1,61,121,7,226,6,9,8,11,418,227,165,13,14,15,16,228,171,17,229,20,230,232,233,235,419,236,237,24,25,238,239,27,172,240,420,421,241,196,370,422,244,31,245,246,248,249,35,250,38,251,423,373,254,255,257,424,258,259,43,44,260,261,262,175,263,176,265,425,8.221849
5,1,48,2,3,98,4,6,7,9,10,49,11,12,13,14,16,100,101,17,18,426,20,21,427,104,105,23,24,25,26,106,27,428,109,30,31,110,32,111,112,113,35,36,429,38,39,115,430,117,431,42,43,44,45,432,46,6.638272
59,1,48,10,3,2,7,61,4,8,49,60,9,433,434,435,436,13,15,50,51,63,437,64,65,438,439,440,419,69,71,24,72,74,75,27,441,442,443,444,445,446,447,77,54,78,79,80,81,448,449,85,450,451,452,453,454,91,455,456,457,95,458,96,97,459,3.088310
120,2,1,10,3,61,121,6,4,7,9,8,11,125,126,127,128,129,165,13,15,131,132,17,133,134,135,20,24,25,137,138,27,139,140,142,143,144,145,146,197,281,168,147,149,282,151,152,35,153,154,283,157,284,43,44,159,160,161,162,163,164,5.119186
59,48,1,61,5,4,2,7,49,60,460,62,461,165,14,50,51,63,295,65,68,462,70,71,463,105,73,74,75,27,464,76,465,329,466,467,79,80,81,82,83,468,85,469,88,90,91,470,471,93,94,308,309,97,3.110698
3,4,5,224,225,10,1,61,121,7,226,6,9,433,434,227,13,14,15,16,228,171,17,229,439,20,230,231,232,233,235,236,237,24,25,238,239,27,172,240,442,241,445,472,244,31,245,246,248,249,35,250,473,38,251,252,474,254,255,257,258,259,43,44,260,261,262,175,263,176,265,7.431798
120,10,2,1,59,3,121,475,4,61,6,5,7,49,9,11,125,476,129,165,13,14,15,16,63,477,64,17,133,134,135,20,23,24,25,324,313,478,27,139,327,479,146,329,197,281,330,168,30,331,332,282,480,481,335,35,336,337,283,284,338,42,43,44,339,341,482,96,163,4.455932
59,1,48,10,483,3,2,7,61,484,4,49,433,11,434,126,485,486,436,13,15,50,51,63,487,64,65,488,439,489,440,69,71,74,490,491,75,27,442,492,493,494,495,444,445,496,447,77,54,78,79,80,81,497,498,85,499,451,500,501,502,91,457,503,504,95,505,96,97,3.399027
120,10,2,1,59,3,121,475,4,61,6,5,7,49,9,226,125,506,507,129,165,13,14,15,16,63,477,64,17,133,134,135,20,23,24,25,324,313,508,27,139,509,327,510,511,146,329,197,281,330,168,30,331,332,282,512,481,335,35,336,337,283,284,338,42,43,44,339,341,513,96,163,514,4.568636
59,1,48,61,10,3,5,4,2,310,7,49,225,60,227,62,165,13,14,293,16,294,50,51,63,515,295,65,296,230,68,70,71,516,73,74,297,75,27,517,298,76,299,300,301,518,519,520,302,79,80,81,82,83,521,303,85,304,522,306,88,90,91,523,524,93,94,307,308,309,97,525,3.000000
120,2,1,10,3,381,61,121,382,6,4,7,9,8,11,125,126,383,127,128,129,165,13,15,131,132,17,133,134,384,135,20,385,24,25,137,138,27,139,140,142,143,386,144,145,146,197,281,168,147,387,282,151,152,35,153,154,388,283,284,389,43,44,159,160,161,162,163,164,4.853872
4,180,59,120,9,60,7,3,121,2,225,1,61,177,526,527,165,13,15,18,528,440,529,231,232,530,531,532,533,534,535,536,26,537,538,27,139,539,193,540,541,196,542,543,370,544,472,545,546,547,548,549,550,551,552,253,553,554,555,556,557,558,559,560,561,562,46,563,564,565,7.236572
59,1,48,61,10,2,7,3,225,49,60,4,227,62,165,13,293,50,51,63,295,65,296,230,566,68,70,71,73,74,567,75,27,298,76,195,196,568,299,569,570,79,80,81,82,83,303,85,571,305,572,88,90,91,93,94,573,308,309,97,3.115205
1,177,2,10,59,6,7,61,180,310,9,3,4,49,11,266,128,129,13,63,311,131,183,184,185,312,133,267,135,21,268,190,24,25,74,138,26,313,27,314,193,269,574,146,148,198,315,316,151,201,575,204,317,207,271,155,210,272,212,214,215,576,160,217,318,319,161,219,220,320,321,223,4.809668
1,177,10,178,2,6,8,179,7,61,49,180,9,3,4,577,578,129,165,13,181,182,183,184,185,186,133,135,21,189,190,191,24,25,138,26,27,192,193,579,580,146,195,196,197,148,198,199,200,201,202,204,205,581,207,208,582,155,210,211,212,213,214,215,216,217,583,219,220,221,222,223,8.397940
1,177,2,10,178,3,6,8,4,179,7,61,5,49,180,9,11,266,129,165,13,14,16,181,182,183,184,185,186,133,584,267,135,230,21,23,189,268,190,191,24,25,138,26,27,192,193,269,146,329,330,148,198,30,519,585,199,200,201,586,270,204,205,207,587,271,155,588,210,338,42,211,272,212,213,214,215,216,589,217,273,219,220,221,222,223,6.301030
120,59,1,10,2,48,121,6,3,7,61,4,9,49,590,591,592,577,593,436,165,13,50,51,63,64,17,65,185,133,135,20,71,24,25,324,74,75,27,139,594,595,596,597,598,599,195,196,197,148,149,79,80,81,600,35,85,601,602,603,604,157,91,43,214,44,215,605,606,457,95,96,97,607,8.080922
3,4,5,224,225,10,1,61,121,7,226,6,9,180,227,165,13,14,15,16,228,171,17,229,20,230,232,233,235,533,236,237,24,25,238,239,27,172,240,539,241,196,370,608,244,31,245,246,248,249,35,250,38,251,609,373,254,255,257,610,258,259,43,44,260,261,262,175,263,176,265,564,7.920819
120,10,59,2,1,3,49,121,4,61,6,5,7,9,11,611,125,612,129,165,13,14,15,16,63,64,17,133,134,135,20,23,24,25,324,613,313,27,139,614,327,615,146,329,197,281,330,168,30,331,332,282,616,334,335,35,336,337,283,284,338,42,43,44,339,617,341,96,618,163,4.236572
59,1,48,61,10,2,7,49,60,227,62,50,51,63,295,65,619,68,69,70,71,73,74,75,27,620,76,77,54,78,79,80,81,82,83,303,85,621,88,622,90,91,93,94,308,309,97,3.769551
225,59,3,4,1,7,61,180,9,8,11,418,623,624,625,626,13,15,627,376,440,628,629,529,630,22,533,24,537,631,538,27,632,420,539,421,633,634,635,636,637,638,639,640,641,642,643,644,645,646,647,648,649,650,651,652,379,653,654,655,656,380,657,658,564,5.050610
3,4,5,224,225,10,1,61,121,7,226,6,9,8,11,418,227,13,14,15,16,228,171,17,229,20,230,231,232,233,235,22,236,237,24,25,238,239,27,172,240,420,421,241,472,640,244,31,245,246,248,249,35,250,38,251,252,474,254,255,257,651,258,259,43,44,260,261,262,175,263,176,265,658,7.568636
120,10,1,2,59,3,121,4,484,61,6,7,49,5,9,11,125,659,129,165,13,14,15,16,63,64,17,660,133,134,135,20,23,24,25,324,661,313,27,139,327,662,146,329,197,281,330,168,30,331,332,282,334,335,35,663,336,337,283,284,338,42,43,44,339,664,341,665,96,666,163,5.136677
6,1,9,3,4,5,7,2,49,225,10,11,12,13,14,16,100,390,17,18,354,20,667,21,104,393,23,24,25,26,394,27,358,109,30,31,110,32,395,397,398,35,36,668,38,39,669,115,401,670,42,43,44,45,671,46,6.360514
3,4,5,224,225,10,1,61,121,7,226,6,9,382,381,383,227,165,13,14,15,16,228,171,17,229,384,20,230,231,232,233,235,236,237,385,24,25,238,239,27,172,240,386,241,672,242,168,244,31,673,245,246,248,249,35,250,674,38,251,252,253,254,255,257,258,259,389,43,44,260,261,262,175,263,176,265,8.000000
3,4,5,224,225,10,1,61,121,7,226,6,9,227,165,13,14,15,16,228,171,17,229,20,230,231,232,233,235,236,237,24,25,238,239,27,172,240,241,195,196,242,244,31,245,246,248,249,35,250,38,251,252,474,254,255,257,258,259,43,44,260,261,262,175,263,176,265,8.096910
3,1,675,8,224,4,2,5,6,7,9,49,13,14,16,676,677,17,678,20,679,21,22,23,24,25,680,681,682,27,683,149,198,30,31,684,32,685,686,687,35,688,38,689,690,691,692,42,43,44,693,694,695,696,697,6.244125
3,4,5,224,225,10,1,61,121,7,226,6,9,11,404,227,13,14,15,16,228,171,17,229,698,20,230,231,232,233,235,236,237,24,25,238,239,27,172,240,699,241,700,472,244,31,245,246,248,249,35,250,701,38,251,252,474,254,255,257,258,259,43,44,260,261,262,175,263,176,265,7.744727
6,1,9,3,4,5,7,2,61,60,527,13,14,16,17,18,135,20,21,23,24,25,536,26,27,702,148,198,30,31,32,35,36,703,38,39,210,42,43,44,559,45,46,5.144481
3,4,225,5,224,226,10,1,121,7,61,6,9,227,165,13,14,15,16,228,171,17,376,229,20,230,231,232,233,235,236,237,24,25,238,239,27,172,240,241,281,242,168,244,31,414,245,246,248,249,35,377,250,38,704,251,252,253,254,255,257,258,259,43,379,44,260,261,262,175,380,263,176,265,9.301030
59,1,48,10,3,2,7,49,61,4,8,60,433,434,435,436,13,15,50,51,63,131,64,65,438,439,440,419,69,705,71,72,74,706,75,27,441,442,707,444,445,446,447,77,54,78,79,80,81,708,709,449,85,450,451,452,453,454,710,91,456,457,711,95,161,96,97,459,4.102373
48,49,1,3,4,5,59,2,7,224,433,434,624,625,626,13,14,16,712,50,51,18,713,628,20,630,714,715,237,706,716,631,27,632,717,634,635,636,637,149,639,718,31,719,720,54,721,722,723,646,724,39,725,726,727,728,729,730,654,46,657,5.072732
11,61,8,1,2,10,3,225,310,4,7,60,126,127,592,577,578,731,732,733,165,13,734,186,133,135,735,736,22,536,138,737,738,27,140,441,739,143,144,740,741,596,742,743,744,745,195,196,197,148,640,746,747,748,582,749,750,751,752,753,583,754,755,756,221,757,758,759,4.366532
1,3,4,6,5,9,165,13,14,16,17,20,23,24,25,329,330,30,31,32,35,38,338,42,43,44,4.647817
1,177,2,10,3,6,4,8,7,61,5,180,9,11,266,129,165,13,14,16,183,184,185,186,133,584,135,230,21,23,760,190,24,25,138,26,27,761,193,762,146,195,196,329,197,330,148,198,30,519,585,201,202,586,204,763,207,208,587,155,588,210,338,42,764,212,214,215,216,589,217,583,219,220,221,765,223,7.050610
4,180,59,120,60,7,3,121,2,225,1,11,177,61,766,612,527,165,13,15,18,528,135,529,231,232,530,531,630,533,534,536,26,537,538,27,139,539,193,767,768,702,196,542,197,370,769,168,472,545,770,546,547,548,771,772,551,552,253,553,554,773,556,557,559,560,561,655,46,774,564,565,7.214670
1,3,2,4,5,6,7,9,226,61,775,13,14,16,17,18,135,20,21,23,24,25,26,27,509,776,148,198,30,31,32,35,36,777,38,39,210,42,43,44,45,46,778,5.590067
120,178,10,59,1,779,3,2,179,49,61,121,6,7,4,9,11,611,590,612,780,781,782,129,165,13,15,783,784,63,785,64,17,133,135,786,20,787,788,789,24,25,324,613,313,27,632,139,614,790,615,791,792,793,146,197,281,168,282,794,795,616,334,796,335,35,336,283,797,284,798,799,800,43,44,605,617,341,96,801,618,607,4.657577
4,3,9,120,121,802,1,2,7,10,180,8,61,11,226,6,803,126,127,165,13,15,804,17,584,134,805,356,806,21,369,22,419,807,24,808,25,809,810,27,139,240,441,539,811,143,812,813,814,168,815,198,816,817,818,819,820,821,822,823,824,825,826,827,828,829,830,831,43,832,44,833,834,835,836,375,837,838,839,6.943095
3,4,5,224,225,10,1,61,121,7,226,6,9,11,404,227,165,13,14,15,16,228,171,17,229,698,20,230,231,232,233,235,236,237,24,25,238,239,27,172,240,699,241,840,242,168,244,31,841,245,246,248,249,35,250,842,38,251,252,253,254,255,257,258,259,43,44,260,261,262,175,263,176,265,8.397940
3,4,225,5,224,226,10,1,121,7,61,6,9,8,11,418,227,165,13,14,15,16,228,171,17,229,20,230,231,232,233,235,22,236,237,24,25,238,239,27,172,240,420,421,241,242,167,168,244,31,245,246,843,248,249,35,250,38,251,252,253,254,255,257,844,258,259,43,44,260,261,262,175,263,176,265,658,8.301030
59,1,48,10,3,2,7,61,4,49,60,433,434,436,13,15,50,51,63,64,65,438,439,489,440,69,71,72,74,75,27,442,492,444,445,496,447,77,54,78,79,80,81,449,85,450,451,500,501,454,91,456,457,95,96,97,3.232102
120,10,2,1,59,3,121,4,61,6,5,49,7,9,11,125,411,129,165,13,14,15,16,63,845,64,17,133,134,135,20,23,24,25,324,313,27,139,327,846,146,329,197,281,330,168,30,331,332,282,334,847,335,35,336,337,283,284,338,42,43,44,339,848,341,849,96,163,4.823909
120,3,5,10,2,59,1,310,121,49,61,779,6,7,4,9,11,611,125,612,404,780,129,165,13,15,100,850,63,64,17,133,355,851,852,135,20,853,854,855,24,25,324,613,313,27,139,856,614,357,615,857,858,859,146,197,281,168,282,860,861,616,334,335,35,336,862,863,864,865,283,284,866,867,868,43,44,339,617,341,96,618,163,869,4.013228
120,2,1,10,3,61,121,6,4,7,9,125,128,129,165,13,15,131,171,17,133,134,135,20,24,25,137,138,27,139,172,142,145,146,197,281,168,147,149,282,151,173,35,174,154,283,157,284,43,44,159,160,161,175,163,176,4.443697
3,4,5,224,225,10,1,61,121,7,226,6,9,433,434,227,165,13,14,15,16,228,171,17,229,439,20,230,231,232,233,235,236,237,24,25,238,239,27,172,240,442,241,870,242,168,244,31,871,245,246,248,249,35,250,451,38,251,252,253,254,255,257,258,259,43,44,260,261,262,175,263,176,265,8.522879
1,3,2,4,5,6,7,9,61,11,126,872,13,14,16,17,18,135,20,21,23,24,25,26,27,873,874,148,198,30,31,32,35,36,875,38,39,210,42,43,44,45,46,4.742321
1,2,381,382,5,3,7,4,383,165,13,14,16,18,384,20,21,23,385,26,27,386,195,196,281,30,876,110,877,878,36,879,724,115,42,389,45,46,5.096910
3,4,5,224,225,10,1,61,121,7,226,6,9,227,13,14,15,16,228,171,17,229,20,230,231,232,233,234,235,236,237,24,25,238,239,27,172,240,241,472,880,244,31,245,246,248,249,35,250,38,251,252,474,254,255,881,257,258,259,43,44,260,261,262,175,263,176,264,265,7.187087
