feature 1, ..., feature 543, activity
1,2,3,4,5,6,7,8,9,10,11,12,13,14,15,16,17,18,19,20,21,22,23,24,25,26,27,28,29,30,31,32,33,34,35,36,37,38,39,40,41,42,43,44,45,46,47,48,49,50,51,52,53,54,55,56,57,58,59,60,61,62,63,64,65,66,67,68,69,70,71,72,73,74,75,76,77,78,79,80,81,82,83,84,85,86,87,88,89,90,8.427128
5,6,10,9,8,12,13,11,14,16,15,17,91,92,93,25,27,28,29,30,31,94,95,96,97,33,34,98,37,99,38,39,45,46,47,100,101,102,103,104,59,61,62,63,64,65,66,105,106,107,108,109,70,110,111,112,74,76,113,114,84,115,116,117,118,85,86,119,120,5.958607
16,13,17,6,14,12,121,122,15,92,123,124,125,26,27,28,126,127,38,128,129,130,47,131,132,133,134,135,136,137,138,139,140,61,62,63,141,142,143,144,145,146,147,75,148,149,150,151,152,153,154,155,156,157,158,5.823909
159,6,5,8,10,9,12,16,160,13,17,11,15,91,25,27,28,29,30,31,161,33,162,34,98,37,99,38,163,39,164,165,166,45,46,47,167,101,59,61,62,63,168,64,65,66,169,170,109,171,70,110,172,173,112,74,174,76,175,176,177,178,114,179,84,180,85,181,86,182,183,184,5.657577
1,2,3,5,6,4,10,7,8,9,11,12,13,14,16,15,17,18,20,21,25,26,27,28,29,30,31,32,33,34,35,36,99,185,38,186,39,40,41,42,43,44,45,46,47,48,49,50,51,53,54,187,60,61,62,63,188,64,65,66,67,68,109,70,71,189,190,191,74,75,192,76,77,78,79,80,81,82,193,84,85,86,87,88,89,90,9.759451
1,2,3,4,5,6,7,10,8,9,11,12,13,14,15,16,17,18,20,21,25,26,27,28,29,30,31,32,33,34,35,36,37,38,39,40,41,42,43,44,45,46,47,48,49,50,51,53,54,187,59,60,61,62,63,64,65,66,67,68,69,70,71,189,73,74,75,76,77,78,79,80,81,82,83,84,85,86,87,88,89,90,9.728158
17,194,16,6,10,12,195,196,121,15,9,11,5,197,198,27,28,199,200,30,31,201,202,203,204,163,205,206,207,208,209,210,211,47,212,213,214,215,216,217,218,219,220,221,222,223,224,225,226,227,228,229,230,231,232,233,234,235,236,237,238,239,240,241,242,243,244,7.420216
1,2,3,5,6,4,10,7,8,9,11,12,14,16,15,13,17,18,19,20,21,22,23,24,26,27,28,29,30,31,32,33,34,35,36,99,185,38,186,39,40,41,42,43,44,45,46,47,48,49,50,51,52,53,54,55,56,57,58,60,61,62,63,188,64,65,66,67,68,109,70,71,72,190,191,75,192,76,77,78,79,80,81,82,193,84,85,86,87,88,89,90,7.844664
2,1,3,4,5,10,6,8,7,9,11,159,12,13,14,15,16,17,18,19,245,20,21,246,25,26,27,28,29,30,31,32,33,34,35,247,37,38,39,40,41,42,248,43,44,45,46,47,48,49,50,249,250,251,53,54,252,59,60,61,62,63,64,65,66,67,68,69,70,71,253,73,74,75,76,77,78,79,254,80,81,255,83,84,85,86,87,88,89,90,9.038105
5,159,16,6,256,10,17,13,8,12,160,257,258,259,260,25,261,262,27,28,126,94,161,263,37,264,38,265,266,267,268,269,270,271,45,272,273,47,274,167,275,276,59,277,278,61,62,279,63,280,281,282,283,284,285,172,286,74,287,288,289,290,291,292,293,294,295,296,297,115,180,298,299,300,5.856985
5,16,256,6,3,194,10,17,13,8,12,257,14,160,15,92,260,25,262,27,28,199,200,94,201,301,37,38,163,302,265,266,267,268,303,304,305,270,45,272,306,273,47,274,100,307,308,102,276,59,278,61,62,63,309,310,311,221,312,283,313,314,315,74,316,317,288,318,290,291,319,320,321,293,295,296,322,297,115,241,323,299,324,325,326,6.142668
5,6,159,8,10,9,16,12,160,17,11,14,15,91,92,28,29,30,31,161,33,162,34,98,99,163,327,39,165,45,46,47,134,167,101,136,168,328,64,65,66,329,109,171,70,110,173,112,174,330,76,176,178,179,84,180,85,181,86,331,183,6.602060
17,194,16,8,6,10,12,196,121,332,258,197,333,259,334,27,28,199,200,335,204,264,206,336,337,208,209,338,47,212,213,339,275,340,215,217,341,220,342,343,344,345,346,347,348,349,350,351,235,237,352,353,354,244,5.022276
11,16,12,355,9,13,8,6,257,356,4,10,15,122,357,17,121,332,358,359,19,91,360,23,361,362,363,364,365,366,27,28,367,29,368,369,370,127,371,372,373,38,374,375,376,377,378,379,380,381,382,383,384,385,271,386,387,388,389,47,274,131,132,390,391,392,393,394,395,396,397,398,399,400,401,402,403,404,61,62,63,405,406,407,408,409,410,411,412,413,414,415,416,417,418,419,420,421,422,423,424,425,426,427,428,429,430,431,432,433,434,435,436,437,438,439,440,441,442,443,444,445,446,447,448,152,449,450,451,452,453,153,454,455,9.823909
1,2,3,4,5,6,7,8,9,10,11,12,13,14,15,16,17,18,20,21,92,23,24,456,25,26,27,28,29,30,31,32,33,34,35,36,37,38,39,40,41,42,43,44,45,46,47,457,48,49,50,51,53,54,458,58,459,460,59,60,61,62,63,64,65,66,67,68,69,70,71,72,73,74,75,76,77,78,79,80,81,82,83,84,85,86,87,461,88,89,90,8.408935
1,2,3,4,5,6,7,8,9,10,11,12,13,462,14,463,15,257,16,17,464,18,20,21,23,93,24,25,26,27,28,29,30,31,32,465,33,34,35,36,37,38,39,40,41,42,43,44,466,467,45,46,47,48,49,50,468,51,53,54,469,58,470,59,60,61,62,63,64,65,66,67,68,471,69,70,71,72,73,74,75,76,77,78,79,80,81,472,473,82,83,84,85,86,87,88,89,90,9.359519
5,6,159,10,9,8,12,14,13,160,11,16,15,17,91,245,25,27,28,29,30,31,161,33,34,35,98,37,99,38,39,474,165,45,46,47,475,167,101,476,59,61,62,63,64,65,66,169,109,70,477,110,172,112,74,76,478,176,114,193,84,180,85,86,87,479,183,5.769551
5,16,256,6,3,194,10,17,13,8,12,257,14,15,92,260,25,262,27,28,199,126,200,94,201,301,37,38,163,302,265,266,267,268,327,304,305,270,45,272,306,273,47,274,100,134,307,102,136,276,59,278,61,62,63,280,480,281,311,221,312,481,283,313,314,315,74,316,317,288,289,290,291,482,320,321,293,295,296,322,297,115,241,323,299,324,331,325,6.421361
1,2,3,5,6,4,10,7,8,9,11,12,14,16,15,13,17,18,20,21,92,23,24,456,26,27,28,29,30,31,32,33,34,35,36,99,185,38,186,39,40,41,42,43,44,45,46,47,457,48,49,50,51,53,54,458,58,459,460,60,61,62,63,188,64,65,66,67,68,109,70,71,72,190,191,75,192,76,77,78,79,80,81,82,193,84,85,86,87,461,88,89,90,7.596879
256,16,17,6,12,8,10,13,15,483,122,484,91,485,25,27,28,486,487,335,162,488,489,37,38,490,45,491,492,47,493,494,495,496,59,61,62,63,497,498,499,500,501,502,503,504,74,505,506,507,508,509,354,181,510,6.200659
2,1,3,5,6,4,10,8,7,9,11,159,12,14,16,15,13,17,18,19,245,20,21,246,26,27,28,29,30,31,32,33,34,35,247,99,185,38,186,39,40,41,42,248,43,44,45,46,47,48,49,50,249,250,251,53,54,252,60,61,62,63,188,64,65,66,67,68,109,70,71,253,190,191,75,192,76,77,78,79,254,80,81,255,193,84,85,86,87,88,89,90,7.355561
194,256,16,5,6,159,17,10,8,13,12,122,160,121,15,91,260,511,512,513,514,94,161,515,98,99,516,517,518,519,520,165,45,521,522,47,131,133,167,101,523,524,525,526,527,528,283,329,529,110,173,530,531,532,533,534,535,176,113,536,537,115,180,538,539,540,183,3.886057
2,1,3,4,5,10,6,8,7,9,11,159,13,12,194,16,17,14,15,18,19,245,20,21,246,25,26,27,28,199,200,29,30,31,32,33,34,35,247,37,38,39,208,40,41,42,248,43,44,45,46,47,48,49,50,249,250,251,53,54,252,59,60,61,62,215,63,217,220,541,542,64,65,66,67,68,69,70,71,253,73,543,75,76,235,237,77,78,79,254,80,81,255,83,84,85,86,87,88,89,90,8.414539
