feature 1, ..., feature 969, activity
1,2,3,4,5,6,7,8,9,10,11,12,13,14,15,16,17,18,19,20,21,22,23,24,25,26,27,28,29,30,31,32,33,34,35,36,37,38,39,40,41,42,43,44,45,46,47,48,49,50,51,52,53,54,55,56,57,58,59,60,61,62,63,5.769551
1,3,5,64,2,4,7,8,9,10,11,65,66,14,16,17,67,18,20,21,68,23,69,25,26,70,71,72,29,30,32,33,34,35,73,74,37,39,75,40,76,77,78,79,80,48,81,82,50,52,83,84,85,86,55,87,58,88,59,89,62,63,90,91,5.397940
1,3,6,2,5,4,92,10,7,8,9,93,94,65,95,14,96,97,98,17,18,19,20,21,99,23,24,69,100,26,101,102,103,71,104,72,29,30,105,33,34,35,73,106,107,37,108,109,110,111,112,113,114,115,77,79,80,116,117,48,82,118,119,52,120,121,122,123,85,86,55,124,125,126,59,60,89,62,63,90,91,127,7.221849
3,128,6,5,129,7,9,1,8,130,131,132,12,133,134,135,136,19,20,137,138,22,139,140,141,26,142,143,144,145,146,147,148,149,150,151,152,153,154,34,155,156,157,158,159,160,161,113,162,163,164,165,166,167,168,169,170,171,172,173,174,175,176,177,178,179,180,181,182,183,184,185,186,7.978811
3,5,129,128,9,1,130,131,8,7,132,12,187,133,188,189,134,190,191,192,135,136,20,137,138,139,140,141,26,193,142,144,145,146,147,148,151,152,154,34,155,156,194,195,157,196,197,198,199,160,200,201,163,164,165,167,168,169,170,202,171,173,174,175,176,177,180,181,183,184,185,186,7.899629
1,3,2,64,5,4,7,10,8,9,65,66,14,192,203,204,17,18,19,20,21,99,23,24,69,100,26,70,142,205,71,72,29,30,33,34,35,73,206,37,207,208,209,111,76,161,113,162,77,78,210,79,80,211,48,212,82,119,52,213,84,214,85,86,55,124,126,59,60,89,62,63,90,91,6.619789
1,3,5,2,4,7,8,10,9,11,65,14,16,192,215,216,17,217,19,20,21,23,218,69,25,219,26,142,71,72,29,30,32,33,34,35,73,37,39,220,221,222,223,40,224,161,113,162,77,79,80,48,225,82,50,226,52,227,85,86,228,229,58,59,230,89,62,63,90,91,5.356547
128,3,129,231,5,7,8,9,135,19,20,137,138,142,144,145,232,147,148,233,152,154,234,235,199,161,113,162,163,236,237,171,173,174,238,176,177,239,181,183,184,240,241,6.886057
3,2,5,4,7,10,9,11,8,65,16,192,215,216,17,19,20,21,23,218,24,69,25,242,28,71,243,72,244,30,32,33,35,73,39,220,221,245,246,40,161,113,247,45,79,248,48,249,250,82,50,251,252,85,253,86,254,229,58,59,230,60,89,63,90,91,6.397940
3,5,129,255,9,1,128,8,130,131,7,132,133,136,19,20,137,138,139,140,141,26,144,256,257,146,147,258,259,151,154,34,260,156,261,161,113,262,263,164,165,167,168,169,170,264,265,266,175,267,268,269,180,183,270,185,271,7.952415
3,5,129,128,9,1,130,131,8,7,132,12,133,272,273,274,135,136,19,20,137,138,139,140,141,26,275,142,144,145,257,146,147,148,151,152,154,34,276,260,156,277,278,279,280,199,261,161,113,262,77,281,201,282,163,164,165,167,168,169,170,283,284,171,173,174,266,175,176,177,180,181,183,184,185,285,286,287,271,8.065502
1,3,2,5,4,6,7,8,9,10,11,65,14,16,17,18,20,21,22,23,24,69,25,26,288,28,71,72,29,30,31,32,33,34,35,73,37,39,40,289,77,79,80,47,48,49,82,50,52,290,291,85,86,55,56,292,58,59,60,89,62,63,90,91,7.698970
5,3,7,132,2,4,9,10,8,12,231,273,192,203,215,216,17,293,294,19,20,21,99,23,218,295,296,100,297,142,298,299,232,300,301,30,233,33,234,35,235,302,303,220,221,304,305,306,307,308,111,309,161,113,310,162,43,311,312,313,314,48,315,316,317,318,319,119,320,321,322,323,324,325,326,327,328,239,329,126,59,230,330,331,240,63,241,332,333,6.000000
3,5,129,9,334,131,335,6,12,1,128,8,130,7,132,133,336,134,136,20,137,138,139,140,141,337,338,26,339,146,340,147,341,342,343,151,344,154,34,155,156,345,157,160,346,164,165,167,168,169,347,348,170,349,175,350,351,352,353,354,180,355,356,185,186,6.576754
128,3,6,5,2,10,92,4,7,357,358,9,8,12,189,273,359,360,191,361,192,362,17,363,18,364,99,23,218,100,365,366,367,368,145,369,370,301,30,371,105,372,373,33,154,35,374,195,375,376,377,378,197,379,380,381,382,383,111,384,385,48,386,387,388,119,389,390,391,392,393,394,395,327,396,397,398,399,400,126,59,230,184,63,401,11.853872
3,5,129,128,9,1,130,131,8,7,132,12,133,272,273,134,274,135,136,20,137,138,139,140,141,26,275,142,144,145,257,146,147,148,151,152,154,34,276,155,260,156,277,278,157,279,280,199,160,77,281,201,282,163,164,165,167,168,169,170,283,284,171,173,174,266,175,176,177,180,181,183,184,185,285,286,186,287,9.096910
2,4,10,7,129,9,3,132,5,8,12,402,17,293,19,20,137,99,68,23,218,403,100,404,405,257,406,407,408,30,33,35,260,409,410,411,111,161,113,412,413,414,415,416,417,418,282,48,315,419,420,421,119,422,423,266,424,425,426,427,327,126,88,59,230,63,428,429,7.000000
1,3,5,2,4,7,8,9,10,11,65,14,16,17,18,20,21,23,24,69,25,26,142,28,71,72,29,30,32,33,34,35,73,37,39,40,430,77,201,45,79,80,48,49,82,50,52,431,432,85,86,55,56,58,59,60,89,62,63,90,91,6.698970
3,5,129,128,9,1,130,131,8,7,132,433,357,12,434,133,435,359,135,136,19,20,137,138,139,140,141,26,142,144,145,257,146,147,148,436,151,152,154,34,437,260,438,156,439,440,199,261,161,113,262,201,282,163,164,165,167,168,169,170,171,173,174,441,266,175,176,177,442,180,181,183,184,185,443,271,8.008774
1,3,5,10,2,4,8,9,11,65,7,14,16,192,203,216,20,21,68,444,69,445,26,71,72,29,30,32,33,34,35,73,37,446,447,448,221,449,223,77,79,80,450,451,82,452,52,85,86,228,453,58,88,454,89,62,455,90,91,5.552842
3,5,129,128,9,1,130,131,8,7,132,12,133,134,135,136,20,137,138,139,140,141,26,142,144,145,257,146,147,148,151,152,154,34,155,456,156,157,457,199,160,201,282,163,164,165,167,168,169,170,171,173,174,458,175,176,177,180,181,183,184,185,186,459,8.045757
1,3,2,5,4,10,7,8,9,11,65,460,14,16,192,215,216,17,19,20,21,23,218,69,25,242,26,71,243,72,461,29,30,32,33,34,35,73,462,37,39,220,221,245,223,40,247,463,43,77,79,80,464,48,249,82,50,251,52,85,465,86,466,228,229,58,59,230,89,62,63,90,91,467,6.698970
5,3,7,132,2,4,9,10,8,12,130,131,64,468,255,469,273,192,203,215,470,216,17,293,294,19,20,471,99,68,23,218,295,296,100,297,142,298,472,473,474,475,244,30,476,33,154,35,302,477,303,447,448,220,478,221,449,304,479,246,306,307,308,111,309,161,113,310,162,43,480,481,314,48,315,316,317,318,319,119,320,321,322,482,483,484,485,486,327,328,487,488,126,88,59,230,330,331,489,63,332,333,5.958607
8,1,4,11,10,7,2,9,3,5,6,490,92,14,16,17,18,19,20,21,22,23,24,25,26,27,28,491,405,492,29,30,493,31,494,32,33,154,34,35,495,37,39,40,41,42,413,43,44,45,496,47,48,49,50,52,53,54,497,498,499,55,56,500,57,501,58,59,60,502,62,63,503,6.397940
1,3,6,5,2,92,4,7,8,9,10,11,65,14,16,17,18,20,21,23,24,69,25,26,103,71,104,72,29,30,105,32,33,34,35,73,106,37,39,40,112,77,79,80,116,48,82,118,50,52,122,123,85,86,55,56,125,58,59,60,89,62,63,90,91,127,6.795880
3,1,6,92,2,129,10,64,4,5,7,8,9,65,132,12,66,14,134,17,18,19,20,137,21,23,504,24,69,100,26,70,205,71,505,72,406,506,507,29,30,508,33,34,35,73,456,509,206,37,457,111,76,414,510,417,77,78,210,79,80,48,511,212,82,512,52,84,513,214,85,86,514,515,516,55,124,517,59,518,60,89,62,63,90,91,519,520,6.537602
3,5,129,128,7,9,1,8,130,131,132,6,12,92,133,134,135,136,20,137,138,521,139,140,141,522,26,27,144,145,523,146,147,148,524,525,150,151,152,526,154,34,155,527,156,157,528,160,163,529,164,530,165,531,532,167,168,169,533,170,534,173,174,535,175,176,177,536,537,538,539,180,181,540,183,184,185,186,541,7.838632
1,3,2,5,4,64,7,8,9,10,11,65,542,14,16,17,18,543,20,21,23,24,69,25,26,70,28,71,72,29,30,32,33,34,35,73,544,37,39,40,76,545,77,79,80,546,48,49,82,50,52,547,548,85,86,55,56,58,59,60,89,62,63,90,91,5.602060
3,2,64,4,10,7,5,9,358,93,8,94,65,12,95,66,96,360,97,98,17,549,19,20,21,99,23,24,69,100,101,70,142,102,205,71,72,30,372,33,35,73,107,206,108,378,109,110,111,550,551,113,114,115,78,201,210,79,552,117,48,212,82,119,120,121,553,554,214,85,86,124,555,126,59,60,89,63,90,91,7.045757
1,3,2,10,5,4,64,7,8,9,11,65,542,14,16,192,215,216,17,556,19,20,21,23,218,69,25,242,26,71,557,72,29,30,32,33,34,35,73,558,37,39,220,221,245,223,40,559,560,561,77,79,80,48,249,82,50,562,52,85,563,86,228,229,58,59,230,89,62,63,90,91,7.154902
1,3,2,92,6,10,5,4,7,8,9,94,65,14,96,17,18,19,20,21,22,23,504,24,69,100,26,101,27,28,71,505,564,565,72,29,30,31,33,34,35,73,566,37,108,111,41,114,43,77,44,45,79,80,47,567,48,511,49,82,512,52,568,53,569,54,85,570,571,86,55,124,57,572,59,518,60,89,62,63,90,91,573,6.346787
1,3,2,64,4,10,7,5,8,9,93,94,95,66,14,96,97,98,17,18,19,20,99,23,24,100,26,101,70,102,205,29,30,33,34,35,107,206,37,108,109,110,111,76,161,113,42,114,115,78,210,117,48,212,119,574,120,121,84,214,55,124,126,59,60,62,63,5.677781
5,3,2,9,8,1,7,6,4,10,93,94,65,95,14,96,97,98,17,18,19,20,21,22,99,23,24,69,100,26,101,102,27,28,71,72,29,30,31,33,34,35,73,107,37,108,109,110,111,41,113,114,115,77,44,45,79,80,47,117,48,49,82,119,52,120,121,53,54,85,86,55,124,57,126,59,60,89,62,63,90,91,7.522879
1,129,3,255,128,5,8,9,131,133,20,137,138,139,141,26,144,256,147,258,259,575,154,34,576,263,164,165,577,578,170,264,265,267,268,269,579,183,270,185,5.853872
5,3,94,7,93,2,9,10,8,4,64,1,6,92,490,95,66,14,96,97,98,17,18,19,20,21,99,23,24,100,26,101,70,102,205,491,405,492,29,30,493,494,33,154,34,35,495,107,206,37,108,109,110,111,76,113,42,114,115,413,43,78,210,496,117,48,212,119,52,120,121,84,214,497,498,499,55,124,500,501,126,59,60,502,62,63,503,6.508638
8,1,4,11,10,7,2,9,3,5,6,490,14,16,17,18,19,20,21,22,23,24,25,26,27,28,405,580,29,30,31,525,581,582,583,32,33,34,35,37,39,40,41,42,413,43,44,45,496,47,48,49,50,52,53,54,584,585,55,56,57,586,587,588,589,58,59,60,62,63,6.356547
1,3,2,5,4,10,7,8,64,9,11,65,590,14,16,192,215,216,17,556,543,20,21,23,218,69,25,242,26,71,243,72,29,30,32,33,34,35,73,591,37,39,220,221,245,223,40,592,593,594,77,79,80,48,249,82,50,251,52,85,595,86,228,229,58,59,230,89,62,63,90,91,7.000000
5,3,7,132,2,4,9,10,8,12,130,131,64,468,255,596,469,273,192,203,215,470,216,17,293,294,19,20,471,597,99,23,598,218,295,296,100,297,142,298,472,473,474,475,599,244,30,476,33,154,35,302,477,303,220,221,600,304,479,246,601,306,307,308,111,309,161,113,310,162,43,480,602,314,48,315,603,316,317,318,319,119,320,321,322,482,483,484,485,604,605,327,328,487,488,126,59,606,230,330,331,489,63,332,333,5.823909
3,5,129,128,9,1,130,131,8,7,132,607,133,608,609,274,135,136,19,20,137,138,139,140,141,26,142,144,145,257,146,147,148,151,152,154,34,260,156,610,611,612,199,261,161,113,262,201,282,163,164,165,167,168,169,170,171,173,174,266,175,176,177,180,181,183,184,185,287,271,7.899629
1,2,4,7,8,10,3,9,11,5,14,16,192,215,216,17,19,20,23,218,25,242,26,243,29,30,32,33,34,35,37,39,220,221,245,223,40,161,113,42,247,48,249,50,251,574,253,228,229,58,59,230,62,63,5.236572
3,5,129,255,9,1,128,8,130,131,7,132,12,133,134,136,20,137,138,139,140,141,26,144,256,146,147,258,259,151,154,34,155,156,157,160,263,164,165,167,168,169,170,264,265,175,267,268,269,180,183,270,185,186,7.300336
2,4,12,9,10,7,8,11,613,402,16,17,614,23,218,403,25,100,404,30,32,33,35,615,409,39,40,111,616,48,316,420,421,50,617,422,618,229,327,619,58,620,59,230,63,8.494850
1,3,2,64,4,10,7,5,8,9,93,94,95,66,14,96,97,98,17,18,19,20,21,99,23,24,69,100,26,101,70,102,205,28,29,30,33,34,35,107,206,37,108,109,110,111,76,113,42,114,115,621,43,78,210,622,117,48,212,623,119,52,120,121,84,214,624,55,124,126,59,60,89,62,63,90,6.397940
1,3,2,5,4,10,7,64,8,9,93,94,65,95,542,14,96,97,98,17,18,543,19,20,21,99,23,24,69,100,26,101,70,102,28,71,72,29,30,33,34,35,73,107,544,37,108,109,110,111,76,545,113,114,115,77,79,80,546,117,48,49,82,119,52,120,121,547,548,85,86,55,124,126,59,60,89,62,63,90,91,6.568636
1,3,2,4,10,5,6,7,8,9,11,65,14,16,18,20,21,22,444,24,69,445,26,288,28,71,72,29,30,31,32,33,34,35,73,37,446,289,77,79,80,47,451,49,82,452,52,290,291,85,86,55,625,292,58,454,60,89,62,455,90,91,7.698970
1,2,3,4,6,7,8,5,9,10,11,12,626,14,15,16,17,18,20,22,23,24,25,26,27,28,627,29,628,30,31,32,33,34,35,629,37,630,39,40,41,77,44,45,631,47,48,49,50,574,53,54,632,633,55,56,57,58,59,60,634,62,63,5.886057
1,3,2,5,4,6,10,7,8,9,93,94,65,95,14,96,97,98,17,18,19,20,21,22,99,23,24,69,100,26,101,102,27,71,104,72,29,30,31,33,34,35,73,107,37,108,109,110,111,41,113,114,115,77,79,80,635,636,117,48,82,118,119,52,120,121,637,638,85,86,55,124,57,639,126,59,60,89,62,63,90,91,7.045757
1,3,2,5,4,10,7,6,8,9,93,94,65,95,14,96,97,98,17,18,19,20,21,22,99,23,24,69,100,26,101,102,288,28,71,72,29,30,31,33,34,35,73,107,37,108,109,110,111,289,113,114,115,77,79,80,47,117,48,49,82,119,52,120,121,290,291,85,86,55,124,292,126,59,60,89,62,63,90,91,7.698970
1,3,2,5,4,10,7,8,9,11,65,12,14,273,16,192,215,216,17,19,20,21,23,218,69,25,242,26,275,71,243,72,29,30,32,33,34,35,73,37,278,39,220,221,245,223,40,640,247,43,77,79,80,641,48,249,82,50,251,52,642,85,465,86,228,229,58,59,230,89,62,63,90,91,7.000000
1,643,2,3,4,5,8,6,7,9,10,11,12,644,14,613,16,17,18,19,20,21,22,645,23,24,25,26,27,28,646,29,30,31,32,33,34,35,647,37,648,39,40,41,42,43,44,45,46,47,649,48,49,50,650,52,53,54,651,55,56,57,58,652,59,60,653,62,63,6.327902
334,130,3,2,129,4,131,10,654,9,11,8,5,12,7,189,613,402,655,16,361,19,137,140,656,657,658,218,444,659,660,445,661,662,663,664,665,666,30,667,668,669,32,33,154,35,375,670,671,672,446,673,674,675,676,677,678,679,451,680,681,682,452,683,684,685,686,687,688,689,690,691,692,693,58,694,230,454,695,696,455,7.148742
3,5,129,255,9,1,128,131,130,7,132,6,8,133,136,19,20,137,697,138,22,139,140,141,26,144,256,257,146,147,258,698,259,151,154,34,260,156,261,262,699,700,263,164,165,701,167,168,169,170,264,265,702,175,267,268,703,269,180,183,270,185,271,7.793174
1,3,64,2,5,4,7,8,9,10,11,65,66,14,16,17,18,20,21,23,24,69,25,26,70,205,71,72,29,30,32,33,34,35,73,206,37,39,40,76,77,78,210,79,80,48,212,82,50,52,84,214,85,86,55,56,58,59,60,89,62,63,90,91,6.920819
3,2,64,4,10,7,5,9,704,93,8,94,65,95,66,96,97,98,17,705,19,20,21,99,23,24,69,100,101,70,142,102,205,71,72,30,706,33,35,73,107,206,108,109,110,111,707,708,113,114,115,78,201,210,79,552,117,48,212,82,119,120,121,709,710,214,85,86,124,711,126,59,60,89,63,90,91,6.096910
5,3,7,132,2,4,9,10,8,12,130,131,64,468,255,469,273,192,203,215,470,216,17,293,294,19,20,471,99,68,23,218,295,296,100,297,142,298,472,473,474,475,244,30,476,33,154,35,302,477,303,448,220,478,221,449,304,479,246,306,307,308,111,309,161,113,310,162,43,480,481,314,48,315,316,317,318,319,119,320,321,322,482,483,484,485,486,327,328,487,488,126,88,59,230,330,331,489,63,332,333,5.853872
5,3,7,132,2,4,9,10,8,12,130,131,64,468,255,469,273,192,203,215,470,216,17,293,294,19,20,471,99,68,23,218,295,296,100,297,142,298,472,473,474,475,244,30,476,33,154,35,302,477,303,447,448,220,478,221,449,304,479,246,306,307,308,111,309,161,113,310,162,43,480,481,314,48,315,316,317,318,319,119,320,321,322,482,483,484,485,486,327,328,487,488,126,88,59,230,330,331,489,63,332,333,6.075721
3,2,64,4,654,10,7,5,9,93,8,94,65,12,95,66,96,613,97,98,17,712,19,20,21,658,99,23,24,69,100,101,70,142,102,205,71,72,30,713,33,35,73,107,206,108,670,109,110,111,714,715,113,114,115,78,201,210,79,552,716,117,48,212,82,119,120,121,717,718,214,85,86,124,719,694,126,59,60,89,63,90,91,6.853872
1,3,2,92,6,10,64,5,4,7,8,9,94,65,66,14,96,17,18,19,20,21,22,23,504,24,69,100,26,101,70,205,71,505,564,565,72,29,30,31,33,34,35,73,566,206,37,108,111,76,114,43,77,78,210,79,80,567,48,511,212,82,512,52,568,84,569,214,85,570,571,86,55,124,572,59,518,60,89,62,63,90,91,573,6.420216
3,1,6,92,2,129,10,4,5,7,8,9,65,132,12,14,134,192,215,216,17,19,20,137,21,23,504,218,69,242,100,26,71,505,243,72,406,506,507,29,30,508,33,34,35,73,456,509,37,457,220,221,245,223,111,161,113,247,414,510,417,77,79,80,48,249,511,82,251,512,52,513,85,253,86,514,515,516,228,327,517,59,518,230,89,62,63,90,91,519,520,6.000000
1,3,2,64,5,4,10,7,8,9,6,93,65,95,66,14,97,98,17,18,19,20,697,21,22,99,23,24,69,100,26,70,142,205,71,72,29,30,698,33,34,35,73,107,206,37,109,720,111,76,162,699,700,77,78,210,79,80,721,117,48,212,82,119,52,722,84,214,85,86,55,124,703,126,59,60,89,62,63,90,91,7.698970
1,3,2,10,64,5,4,7,8,9,11,65,66,14,16,17,18,19,20,21,23,218,69,25,723,26,70,71,557,243,72,29,30,32,33,34,35,73,724,37,39,40,76,161,113,247,77,78,725,79,80,48,726,82,50,727,52,84,85,728,729,86,55,229,58,59,230,89,62,63,90,91,6.522879
128,3,6,5,2,10,92,4,7,357,358,9,8,12,189,273,359,360,191,361,192,362,17,363,18,364,99,23,218,100,365,366,367,368,145,369,370,301,30,371,105,372,373,33,154,35,374,195,375,376,377,378,197,379,380,447,381,382,383,111,384,385,48,386,387,388,119,389,390,391,392,393,394,395,327,396,397,398,399,400,126,59,230,184,63,401,11.301030
5,3,129,128,9,7,132,460,1,8,131,130,133,274,730,135,136,19,20,137,138,139,140,141,26,142,144,145,257,146,147,148,151,152,154,34,260,731,156,732,733,199,261,161,113,262,201,282,163,164,165,167,168,169,170,171,173,174,266,175,176,177,180,181,183,184,185,287,271,734,9.698970
1,3,2,5,4,10,7,6,8,9,65,93,12,735,14,736,97,17,18,20,21,22,99,23,24,69,100,26,27,28,71,72,29,30,31,33,34,35,73,737,37,738,739,111,41,77,44,45,79,80,47,117,48,49,82,119,52,53,54,85,86,55,124,57,126,59,60,89,62,63,90,91,6.721246
3,5,129,128,9,7,1,131,130,132,65,8,133,135,136,19,20,137,138,139,140,141,26,142,144,145,740,257,146,147,148,151,152,154,34,73,260,156,199,261,161,113,262,201,741,163,164,165,167,168,169,170,171,173,174,742,266,175,176,177,180,181,183,184,185,743,271,8.397940
3,5,129,128,9,1,130,131,8,7,132,607,12,133,608,134,609,274,135,136,20,137,138,139,140,141,26,142,144,145,257,146,147,148,151,152,154,34,155,260,156,610,157,611,612,199,160,201,282,163,164,165,167,168,169,170,171,173,174,266,175,176,177,180,181,183,184,185,186,287,8.096910
1,3,2,5,4,7,8,10,9,11,65,14,16,192,215,216,17,19,20,21,23,218,69,25,242,26,71,243,72,29,30,32,33,34,35,73,37,39,220,221,245,223,40,161,113,247,77,79,80,48,249,82,50,251,52,85,253,86,228,229,58,59,230,89,62,63,90,91,7.000000
1,3,2,64,5,4,7,8,9,10,11,65,12,66,14,273,16,17,18,20,21,23,24,69,25,26,297,70,744,71,72,29,30,32,33,34,35,73,745,37,303,39,40,76,77,79,80,746,48,747,82,50,52,748,749,750,85,86,55,56,58,59,60,89,62,63,90,91,6.537602
129,3,128,231,5,8,9,12,751,20,137,138,144,145,232,147,148,233,752,154,234,235,753,163,236,237,754,174,238,176,755,239,756,183,184,240,241,6.301030
1,2,3,4,7,5,8,10,9,11,14,16,192,215,216,17,19,20,21,23,218,69,25,242,26,28,243,29,30,32,33,34,35,37,39,220,221,245,223,40,161,113,42,621,247,43,622,48,249,623,50,251,52,624,253,228,229,58,59,230,89,62,63,90,5.167491
1,3,2,92,5,4,10,7,8,9,93,94,65,95,14,96,97,98,17,18,19,20,21,99,23,24,69,100,26,101,102,103,71,757,72,29,30,33,34,35,73,566,107,37,108,109,110,111,112,113,114,115,77,758,759,79,80,117,48,82,760,119,52,120,121,761,762,85,86,55,124,126,59,60,89,62,63,90,91,763,5.397940
2,4,10,7,129,9,3,132,5,8,12,402,17,293,19,20,137,138,99,68,23,218,403,100,404,257,406,407,408,30,33,35,260,409,410,411,111,412,414,415,416,417,764,765,766,48,315,419,420,421,119,422,767,424,768,425,769,426,427,327,126,88,59,230,63,428,429,7.045757
3,5,129,128,9,1,8,131,130,7,132,12,133,751,134,136,20,137,138,139,140,141,26,144,145,146,147,148,151,752,154,34,155,156,753,157,160,163,164,165,167,168,169,170,754,174,175,176,755,180,756,183,184,185,186,8.920819
1,3,2,64,5,4,10,7,8,9,93,94,65,95,66,14,96,97,98,17,18,19,20,21,99,23,24,69,100,26,101,70,102,205,71,72,29,30,33,34,35,73,107,206,37,108,109,110,111,76,113,114,115,77,78,210,79,80,117,48,212,82,119,52,120,121,84,214,85,86,55,124,126,59,60,89,62,63,90,91,7.698970
1,3,2,5,10,4,7,8,9,11,460,65,14,16,192,215,216,17,19,20,21,23,218,69,25,242,26,71,770,72,771,29,30,32,33,34,35,73,462,37,39,220,221,245,223,40,113,772,773,77,79,80,48,249,82,50,774,52,85,775,86,776,228,229,58,59,230,89,62,63,90,91,777,7.000000
1,3,2,64,5,4,7,8,9,10,11,65,542,14,16,17,18,543,20,21,23,24,69,25,26,142,205,71,72,29,30,32,33,34,35,73,778,37,39,40,430,779,77,79,80,780,48,212,82,50,52,781,782,85,86,55,56,58,59,60,89,62,63,90,91,5.397940
3,5,129,128,9,1,130,131,8,7,132,12,783,133,784,134,135,136,20,137,138,139,140,141,26,785,142,144,145,146,147,148,151,152,154,34,155,156,786,157,199,160,787,201,163,164,165,167,168,169,170,788,171,173,174,175,176,177,180,181,183,184,185,186,8.229148
1,3,2,64,4,10,7,5,8,9,93,94,65,95,66,14,96,97,98,17,18,19,20,99,23,24,100,26,101,70,102,205,740,29,30,33,34,35,73,107,206,37,108,109,110,111,76,113,114,115,77,78,210,741,117,48,212,119,574,120,121,84,214,742,55,124,126,59,60,62,63,743,5.619789
1,3,2,5,4,7,8,10,9,11,65,94,14,96,16,192,215,216,17,20,21,23,218,69,25,242,26,789,71,243,72,29,30,32,33,34,35,73,37,790,39,220,221,245,223,40,77,791,792,79,80,48,249,82,50,251,52,793,85,253,86,228,229,58,59,230,89,62,63,90,91,6.698970
1,2,3,4,6,7,8,5,9,10,11,65,14,16,17,18,20,22,23,24,25,26,27,28,740,29,30,31,32,33,34,35,73,37,39,40,41,77,44,45,741,47,48,49,50,574,53,54,742,55,56,57,58,59,60,62,63,743,5.638272
1,3,2,5,10,4,7,8,9,11,65,12,14,273,16,192,215,216,17,19,20,21,23,218,69,25,242,26,297,71,770,72,29,30,32,33,34,35,73,37,303,39,220,221,245,223,40,113,310,772,77,79,80,48,249,82,50,774,52,794,85,795,86,228,229,58,59,230,89,62,63,90,91,6.698970
3,5,129,128,9,1,130,131,8,7,132,460,12,133,134,274,730,135,136,20,137,138,139,140,141,26,142,144,145,257,146,147,148,151,152,154,34,155,260,731,156,157,732,733,199,160,201,282,163,164,165,167,168,169,170,171,173,174,266,175,176,177,180,181,183,184,185,186,287,734,7.747147
3,5,129,9,334,131,335,6,12,1,128,8,130,7,132,133,336,136,19,20,137,138,139,140,141,337,338,26,339,257,146,340,147,341,342,343,151,344,154,34,260,156,345,261,161,113,262,346,164,165,167,168,169,347,348,170,349,266,175,350,351,352,353,354,180,355,356,185,271,6.320572
1,3,654,64,2,5,4,10,7,8,9,93,94,65,12,95,66,796,96,655,97,98,17,712,19,20,21,99,23,24,69,100,26,101,70,102,205,71,72,30,797,33,34,35,73,107,206,798,108,799,109,110,111,800,113,114,115,77,78,210,79,80,117,48,212,82,119,801,120,121,717,214,85,86,124,802,126,59,60,89,803,63,90,91,6.853872
334,130,3,2,129,10,4,131,654,7,9,132,8,5,12,189,613,402,655,134,361,17,19,137,140,656,657,658,23,804,805,218,659,660,100,661,662,663,664,665,666,30,667,668,669,33,154,35,806,375,670,671,672,807,673,111,674,675,676,677,678,679,48,808,809,680,681,682,810,683,684,685,686,687,688,689,690,811,692,693,694,59,812,813,230,695,696,63,814,6.694649
1,3,2,92,6,10,4,5,7,8,9,94,65,14,96,192,215,216,17,19,20,21,22,23,504,218,69,242,100,26,101,71,505,243,564,565,72,29,30,31,33,34,35,73,566,37,108,220,221,245,223,111,161,113,114,247,43,77,79,80,567,48,249,511,82,251,512,52,568,569,85,253,570,571,86,228,327,572,59,518,230,89,62,63,90,91,573,5.481486
1,3,2,92,5,4,7,8,9,10,11,65,14,16,17,18,20,21,23,24,69,25,26,103,71,757,72,29,30,32,33,34,35,73,566,37,39,40,112,77,758,759,79,80,48,82,760,50,52,761,762,85,86,55,56,58,59,60,89,62,63,90,91,763,4.903090
3,5,132,12,7,129,128,9,1,131,130,8,133,134,135,136,19,20,137,138,139,140,141,26,142,144,145,257,146,147,148,151,152,154,34,456,260,156,457,199,261,161,113,262,201,282,163,164,165,167,168,169,170,171,173,174,458,266,175,176,177,180,181,183,184,185,459,271,8.318759
1,3,64,2,4,5,10,7,8,9,93,94,65,95,66,14,96,97,98,17,18,19,20,21,99,23,24,69,100,815,101,142,102,205,71,72,29,30,33,34,35,73,107,816,817,108,109,110,111,430,113,114,115,818,201,210,79,552,117,48,212,82,119,819,120,121,820,214,85,86,55,124,126,59,60,89,62,63,90,91,5.721246
1,128,132,9,8,3,5,129,130,131,7,12,133,751,136,19,20,137,138,139,140,141,26,144,145,257,146,147,148,151,752,154,34,260,156,753,261,161,113,262,163,164,165,167,168,169,170,754,174,266,175,176,755,180,756,183,184,185,271,7.604822
1,3,2,5,4,6,7,8,9,10,11,65,14,16,17,18,20,21,22,23,24,69,25,26,27,28,71,72,29,30,31,32,33,34,35,73,37,39,40,41,77,44,45,79,80,47,48,49,82,50,52,53,54,85,86,55,56,57,58,59,60,89,62,63,90,91,7.301030
1,3,2,64,4,5,10,7,8,9,93,94,65,12,95,66,14,96,273,97,98,17,18,19,20,21,99,23,24,69,100,26,101,297,70,102,744,71,72,29,30,33,34,35,73,107,745,37,108,303,109,110,111,76,113,114,115,77,79,80,746,117,48,747,82,119,52,120,748,121,749,750,85,86,55,124,126,59,60,89,62,63,90,91,7.397940
5,3,1,8,4,7,10,2,9,11,490,6,14,16,192,215,216,17,19,20,21,23,218,25,242,26,243,405,580,29,30,525,581,582,583,32,33,34,35,37,39,220,221,245,223,40,161,113,42,247,413,43,496,48,249,50,251,52,253,584,585,228,229,586,587,588,589,58,59,230,62,63,5.853872
5,3,1,8,4,7,10,2,9,11,6,64,490,821,14,16,192,215,216,17,19,20,21,23,218,25,242,822,26,243,491,405,29,30,823,494,32,33,154,34,35,824,37,39,220,221,245,223,40,161,113,42,247,413,43,496,48,249,50,251,825,52,253,497,826,228,229,827,828,58,59,230,829,62,63,6.301030
5,3,1,8,4,7,10,2,9,11,6,490,92,14,16,192,215,216,17,19,20,21,23,218,25,242,26,243,491,405,492,29,30,493,494,32,33,154,34,35,495,37,39,220,221,245,223,40,161,113,42,247,413,43,496,48,249,50,251,52,253,497,498,499,228,229,500,501,58,59,230,502,62,63,503,7.000000
1,3,2,64,5,4,10,7,8,9,93,94,65,95,542,14,96,97,98,17,18,543,19,20,21,99,23,24,69,100,26,101,142,102,205,71,72,29,30,33,34,35,73,107,778,37,108,109,110,111,430,779,113,114,115,77,79,80,780,117,48,212,82,119,52,120,121,781,782,85,86,55,124,126,59,60,89,62,63,90,91,6.677781
5,3,129,9,255,1,8,131,128,130,7,4,133,830,19,20,137,138,139,140,141,26,144,256,627,146,147,258,301,259,151,154,34,156,831,161,113,832,263,164,165,167,168,169,170,264,265,833,834,267,268,835,269,180,183,270,185,7.721246
5,3,129,9,255,1,8,131,128,130,7,4,133,830,19,20,137,138,139,140,141,26,144,256,627,146,147,258,301,259,151,154,34,156,831,161,113,832,263,164,165,167,168,169,170,264,265,833,834,267,268,835,269,180,183,270,185,4.920819
3,5,129,128,9,1,131,130,7,132,6,12,8,133,134,135,136,19,20,137,697,138,22,139,140,141,26,142,144,145,257,146,147,148,698,151,152,154,34,456,260,156,457,199,261,262,699,700,201,282,163,164,165,701,167,168,169,170,171,173,174,458,702,175,176,177,703,180,181,183,184,185,459,271,8.356547
128,3,1,6,92,2,4,5,7,8,10,9,12,11,14,751,16,192,215,216,17,19,20,21,23,218,25,242,26,243,836,405,837,29,30,493,838,32,33,154,34,35,495,37,839,39,220,221,245,223,40,161,113,42,247,413,43,496,48,249,50,251,52,253,840,841,842,228,229,843,844,58,59,230,845,62,63,846,5.744727
1,2,4,3,7,8,10,9,5,11,65,14,16,192,215,216,17,19,20,23,218,25,242,26,243,740,29,30,32,33,34,35,73,37,39,220,221,245,223,40,161,113,247,77,741,48,249,50,251,574,253,742,228,229,58,59,230,62,63,743,5.698970
1,2,3,4,6,7,8,5,9,10,11,14,16,17,18,19,20,22,23,24,25,26,27,28,29,30,31,32,33,34,35,37,39,40,41,161,113,42,44,45,47,48,49,50,574,53,54,55,56,57,58,59,60,62,63,5.769551
1,2,3,4,6,7,5,8,9,10,11,12,626,14,15,16,17,18,19,20,21,22,23,24,25,26,27,28,627,29,628,30,31,32,33,34,35,629,37,630,39,40,41,42,832,43,44,45,847,47,48,49,50,52,53,54,848,633,55,56,57,58,59,60,634,62,63,5.721246
1,3,2,64,5,4,10,7,8,9,6,93,65,95,66,14,97,98,17,18,20,697,21,99,23,24,69,100,26,70,142,205,71,72,29,30,698,33,34,35,73,107,206,37,109,720,111,76,77,78,210,79,849,850,80,117,48,212,82,119,52,851,84,214,85,86,55,124,852,126,59,60,89,62,63,90,91,7.522879
1,3,2,5,4,7,8,10,9,11,65,12,14,402,16,192,215,216,17,20,21,23,218,69,403,25,853,26,71,72,29,30,32,33,34,35,73,37,409,39,220,221,854,223,40,77,79,80,48,855,82,856,50,857,52,85,86,228,229,58,59,230,89,62,63,90,91,6.154902
5,3,2,9,8,1,7,6,4,10,65,129,92,132,12,14,134,17,18,19,20,137,21,22,23,504,24,69,100,26,27,28,71,505,72,406,506,507,29,30,31,508,33,34,35,73,456,509,37,457,111,41,414,510,417,77,44,45,79,80,47,48,511,49,82,512,52,53,513,54,85,86,514,515,516,55,124,57,517,59,518,60,89,62,63,90,91,519,520,6.387216
334,3,130,92,6,2,129,10,4,131,654,7,9,8,5,12,189,613,402,655,361,17,19,20,137,140,656,657,658,23,504,218,659,660,100,661,505,405,858,662,663,664,665,666,30,667,525,668,669,33,154,35,566,375,670,671,672,673,111,161,113,413,674,675,676,677,678,679,48,511,680,681,682,512,683,859,860,861,684,685,686,687,688,689,690,811,862,863,692,693,694,59,518,230,695,696,63,864,7.585027
1,3,2,5,4,7,8,10,9,130,11,65,131,14,16,192,215,216,17,20,21,139,140,23,218,69,25,865,26,71,72,866,29,30,32,33,34,35,73,37,39,220,221,867,223,40,77,79,80,868,869,48,870,82,50,871,52,85,86,872,228,229,58,59,230,89,62,63,90,91,5.886057
1,3,2,64,10,5,4,7,8,9,11,65,12,66,14,189,16,191,215,17,18,20,21,23,218,69,25,242,26,70,71,557,72,29,30,32,33,34,35,73,724,37,195,39,873,874,40,76,77,78,725,79,80,48,249,82,50,562,52,84,85,875,86,55,229,58,59,230,89,62,63,90,91,6.522879
1,3,2,4,5,10,7,8,9,65,93,12,735,14,736,97,192,215,216,17,19,20,21,99,23,218,69,242,100,26,71,243,72,29,30,33,34,35,73,737,37,738,739,220,221,245,223,111,161,113,247,77,79,80,117,48,249,82,251,119,52,85,253,86,228,327,126,59,230,89,62,63,90,91,6.221849
1,3,2,64,6,5,4,10,7,8,9,93,94,65,95,66,14,96,97,98,17,18,19,20,21,22,99,23,24,69,100,26,101,876,102,205,71,72,29,30,31,33,34,35,73,107,877,37,108,109,110,111,878,113,114,115,77,79,80,879,117,48,212,82,119,52,120,121,880,881,85,86,55,124,882,126,59,60,89,62,63,90,91,7.522879
1,3,5,2,4,7,8,9,10,11,65,12,14,189,16,361,192,215,216,17,20,21,23,218,69,25,219,26,71,72,29,30,32,33,34,35,73,37,375,39,883,220,221,222,223,40,77,79,80,48,225,82,50,884,52,85,86,228,229,58,59,230,89,62,63,90,91,5.744727
3,5,129,128,9,7,1,8,131,130,132,133,135,136,19,20,137,138,139,140,141,26,142,144,145,257,146,147,148,151,152,154,34,260,156,199,261,161,113,162,262,163,164,165,167,168,169,170,171,173,174,266,175,176,177,180,181,183,184,185,271,8.761439
3,5,129,128,9,1,130,131,8,7,132,12,65,133,134,135,136,20,137,138,139,140,141,26,142,144,145,740,146,147,148,151,152,154,34,73,155,156,157,199,160,201,741,163,164,165,167,168,169,170,171,173,174,742,175,176,177,180,181,183,184,185,743,186,7.628932
1,3,2,5,4,10,7,8,9,11,65,94,14,96,16,192,215,216,17,19,20,21,23,218,69,25,242,26,789,71,243,72,29,30,32,33,34,35,73,37,790,39,220,221,245,223,40,885,247,43,77,79,80,886,48,249,82,50,251,52,887,85,465,86,228,229,58,59,230,89,62,63,90,91,7.154902
1,3,64,2,6,5,4,7,8,9,10,11,65,66,14,16,17,18,20,21,22,23,24,69,25,26,876,205,71,72,29,30,31,32,33,34,35,73,877,37,39,40,878,77,79,80,879,48,212,82,50,52,880,881,85,86,55,56,882,58,59,60,89,62,63,90,91,7.154902
1,3,2,5,4,7,8,10,9,11,65,12,14,273,16,192,215,216,17,20,21,23,218,69,25,242,26,275,71,243,72,29,30,32,33,34,35,73,37,278,39,220,221,245,223,40,77,281,792,79,80,48,249,82,50,251,52,284,85,253,86,228,229,58,59,230,89,62,63,90,91,6.221849
1,3,5,2,7,8,4,9,10,11,65,14,16,192,203,216,17,20,21,68,23,69,25,26,71,72,29,30,32,33,34,35,73,37,39,447,448,221,449,223,40,77,79,80,450,48,82,50,52,85,86,228,87,58,88,59,89,62,63,90,91,5.475391
1,3,2,5,10,4,7,8,9,11,94,65,14,96,16,192,215,216,17,19,20,21,23,218,69,25,242,26,101,71,770,72,29,30,32,33,34,35,73,37,108,39,220,221,245,223,40,113,114,772,77,79,80,48,249,82,50,774,52,888,85,889,86,228,229,58,59,230,89,62,63,90,91,6.698970
1,3,2,4,5,10,7,8,9,93,94,65,95,14,96,97,98,192,215,216,17,19,20,21,99,23,218,69,242,100,26,101,102,71,243,72,29,30,33,34,35,73,107,37,108,109,110,220,221,245,223,111,161,113,114,115,247,77,79,80,117,48,249,82,251,119,52,120,121,85,253,86,228,327,126,59,230,89,62,63,90,91,6.522879
1,3,2,5,4,7,8,10,9,11,65,460,14,16,192,215,216,17,20,21,23,218,69,25,242,26,71,243,72,461,29,30,32,33,34,35,73,462,37,39,220,221,245,223,40,77,792,79,890,80,48,249,82,50,251,52,85,253,86,891,228,229,58,59,230,89,62,63,90,91,467,6.698970
1,3,2,5,6,4,7,8,9,10,11,65,14,16,17,18,20,21,22,23,24,69,25,26,27,71,104,72,29,30,31,32,33,34,35,73,37,39,40,41,77,79,80,635,636,48,82,118,50,52,637,638,85,86,55,56,57,639,58,59,60,89,62,63,90,91,6.318759
1,3,5,2,4,7,8,9,10,11,65,12,14,189,16,191,192,215,216,17,20,21,23,218,69,25,219,26,71,72,29,30,32,33,34,35,73,37,195,39,873,892,220,221,222,223,40,77,79,80,48,225,82,50,893,52,85,86,228,229,58,59,230,89,62,63,90,91,6.096910
1,643,2,3,4,6,7,5,8,9,10,11,12,894,14,15,16,17,18,19,20,21,22,23,895,24,25,26,27,28,646,29,30,31,32,33,34,35,896,37,897,39,40,41,42,621,43,44,45,622,47,48,898,49,50,52,53,899,54,900,55,56,57,58,59,901,60,902,62,63,5.853872
1,3,5,2,4,7,8,9,10,11,65,12,14,402,16,192,215,216,17,20,21,23,218,69,903,25,26,71,72,29,30,32,33,34,35,73,37,904,39,220,221,905,223,40,77,79,80,48,906,82,907,50,52,85,86,228,229,58,59,230,89,62,63,90,91,5.193820
1,2,3,4,6,7,5,8,9,10,11,14,16,17,18,19,20,21,22,23,24,69,25,26,27,28,29,30,31,32,33,34,35,37,39,40,41,42,621,43,44,45,622,47,48,49,623,50,52,53,54,624,55,56,57,58,59,60,89,62,63,90,6.795880
2,4,10,7,129,9,132,3,8,5,12,402,17,293,19,20,137,99,68,23,218,403,100,404,406,407,408,30,33,35,260,409,410,411,111,412,414,415,416,417,48,315,419,420,421,119,422,424,425,426,427,327,126,88,59,230,63,429,8.148742
1,3,5,2,4,7,8,10,9,11,65,12,14,402,16,192,215,216,17,908,20,21,23,218,69,909,25,219,26,71,72,29,30,32,33,34,35,73,37,910,39,220,221,222,223,40,911,77,79,80,48,225,82,912,50,913,52,85,86,228,229,58,59,230,89,62,63,90,91,6.221849
6,3,130,92,357,64,5,129,131,460,542,543,19,20,137,21,914,405,915,916,917,918,524,919,920,527,921,922,923,924,412,413,925,926,43,927,928,929,930,931,932,933,536,934,935,936,937,938,939,5.366532
3,5,129,128,9,1,8,131,130,7,132,783,133,784,135,136,19,20,137,138,139,140,141,26,785,142,144,145,257,146,147,148,151,152,154,34,260,156,786,199,261,161,113,262,787,201,163,164,165,167,168,169,170,788,171,173,174,266,175,176,177,180,181,183,184,185,271,8.920819
5,129,3,2,9,4,128,10,7,8,132,17,293,940,941,942,19,20,137,138,99,23,218,24,100,943,28,243,944,145,257,407,30,945,373,33,154,35,260,410,111,946,947,948,161,113,412,247,262,415,764,949,950,48,315,951,952,119,953,954,955,956,957,266,768,769,327,958,959,126,59,230,60,184,63,428,6.782516
3,5,129,128,9,1,130,131,8,7,132,12,433,357,434,133,435,359,134,135,136,20,137,138,139,140,141,26,142,144,145,257,146,147,148,436,151,152,154,34,437,155,438,156,439,440,157,199,160,201,282,163,164,165,167,168,169,170,171,173,174,441,175,176,177,442,180,181,183,184,185,443,186,8.721246
334,3,130,6,2,64,129,10,4,131,654,7,9,8,5,12,960,189,613,402,655,361,17,19,137,140,656,657,658,23,504,218,659,660,100,661,961,662,663,664,665,666,962,506,30,667,508,668,669,33,154,35,963,375,670,671,672,673,111,412,674,964,510,675,676,677,678,679,48,965,680,681,682,512,683,966,684,685,686,687,688,689,967,968,690,811,969,692,693,694,59,518,230,695,696,63,6.844664
