feature 1, ..., feature 846, activity
1,2,3,4,5,6,7,8,9,10,11,12,13,14,15,16,17,18,19,20,21,22,23,24,25,26,27,28,29,30,31,32,33,34,35,36,37,38,39,40,41,42,43,44,45,46,47,48,49,50,51,52,53,54,55,56,57,58,59,60,61,62,63,64,65,66,67,68,69,70,71,72,73,74,75,76,77,78,79,80,81,5.962574
1,3,4,2,7,6,9,8,10,82,11,83,13,84,85,15,86,87,19,20,24,25,88,89,90,91,29,92,93,32,33,94,37,95,40,41,42,96,43,97,98,45,99,100,101,49,50,52,102,103,59,104,105,106,107,108,109,110,111,112,113,114,115,116,117,77,78,118,80,119,120,6.301030
1,3,5,4,121,122,6,7,8,9,10,12,11,15,16,18,19,20,123,124,24,125,27,29,126,30,31,32,33,127,128,129,35,37,38,130,40,41,42,131,132,45,46,48,49,50,52,53,103,133,134,135,136,59,137,138,64,139,66,140,68,69,141,142,143,144,145,71,73,74,146,76,77,147,80,148,149,5.787812
1,2,3,4,5,6,7,8,9,10,11,12,82,13,14,150,151,15,16,18,19,20,22,24,152,25,26,27,28,29,30,31,32,33,34,35,36,37,38,40,41,42,153,43,44,154,45,155,46,48,49,50,51,52,53,55,57,156,59,60,61,62,63,64,66,67,68,69,70,71,157,73,74,76,77,158,78,79,80,159,81,6.832683
3,121,7,10,83,8,13,84,160,161,162,163,164,165,42,166,167,168,169,170,171,172,173,174,175,176,5.251812
1,2,3,4,5,6,7,8,9,10,11,12,15,16,17,18,19,20,22,24,25,26,27,29,30,31,32,33,127,34,35,36,37,38,40,41,42,132,43,45,46,47,48,49,50,52,53,177,55,178,59,60,61,62,64,179,66,67,68,69,180,70,71,72,73,74,76,77,78,79,80,149,81,6.514279
4,9,181,6,182,10,3,8,13,7,183,85,184,16,19,20,185,186,187,188,189,29,190,191,37,192,41,193,194,195,196,49,50,52,197,198,199,200,201,202,64,203,204,205,206,207,208,209,210,4.470808
3,121,7,10,83,8,13,84,160,211,212,213,162,163,164,165,42,166,167,214,215,216,217,170,171,172,218,174,175,176,5.408935
1,2,3,4,5,6,7,8,9,10,11,12,15,16,17,18,19,20,21,24,25,26,27,29,30,31,32,33,34,35,36,37,38,39,40,41,42,43,45,46,47,48,49,50,52,219,220,59,60,61,62,64,179,66,140,68,69,70,71,72,73,74,221,76,77,78,79,80,81,6.619789
3,121,7,8,10,122,83,84,222,87,19,20,123,124,223,224,29,225,226,42,166,227,228,229,230,231,232,233,234,235,236,237,238,239,240,241,242,243,3.204120
2,4,1,6,244,9,3,10,82,11,8,7,12,245,246,13,247,248,249,16,19,20,22,250,251,252,253,25,254,255,256,26,88,27,29,190,257,258,259,34,260,37,95,261,41,262,263,43,264,265,266,46,49,50,52,197,267,55,268,269,270,271,272,60,273,274,275,276,277,278,62,64,279,280,281,282,70,283,284,285,286,287,288,78,289,290,291,79,118,292,293,81,5.913640
1,2,3,4,5,6,7,8,9,10,11,12,13,160,14,294,151,15,16,18,19,20,22,24,25,26,27,28,29,30,31,32,33,34,35,36,37,38,40,41,42,43,295,44,296,297,45,46,48,49,50,51,52,53,55,57,298,59,60,61,62,63,64,66,67,68,69,70,71,299,157,73,74,76,77,78,79,80,81,5.853872
4,9,6,10,82,182,8,3,13,7,85,300,16,86,19,20,186,88,188,189,29,37,301,41,96,194,302,196,99,49,50,52,303,304,201,305,64,109,306,307,308,309,209,118,119,5.657577
2,1,4,6,244,9,3,10,82,11,8,7,245,246,13,85,247,16,19,20,22,250,251,252,25,254,310,256,26,88,89,27,90,29,190,257,258,259,34,37,95,261,41,262,263,43,98,264,46,49,50,52,197,267,55,268,269,270,271,60,311,312,275,276,277,106,62,313,64,314,280,281,282,70,284,285,315,287,78,289,316,291,79,118,317,293,81,6.438899
318,3,6,9,5,122,4,319,320,8,1,246,10,245,7,244,321,13,322,323,324,325,326,16,19,20,123,251,252,327,328,254,27,329,330,331,332,333,334,335,128,336,130,337,338,41,339,340,341,342,343,344,345,346,231,347,348,349,350,351,352,353,354,355,356,357,358,359,360,361,362,363,364,365,366,367,368,369,289,370,371,5.122053
4,3,9,181,182,10,5,6,8,7,184,16,19,20,21,23,187,189,29,190,191,37,192,39,41,195,196,49,50,52,197,54,56,372,200,373,202,64,203,374,204,207,375,75,210,4.413699
1,2,3,4,5,6,7,8,9,10,11,12,245,13,14,151,15,16,18,19,20,22,250,252,24,376,25,26,27,28,29,30,31,32,33,34,35,36,37,38,40,338,41,42,43,44,45,377,46,48,49,50,51,52,53,55,57,378,379,380,381,59,60,61,62,63,64,66,67,68,69,70,71,157,73,74,76,382,77,383,78,79,80,81,5.447332
1,3,4,2,7,6,9,8,10,82,11,13,85,14,15,86,87,19,20,24,25,88,89,90,28,29,92,93,32,33,94,37,95,40,41,42,96,43,98,44,45,99,100,101,49,50,52,384,103,59,104,105,106,107,385,109,110,111,112,113,114,115,116,117,77,78,118,80,119,120,6.142668
318,3,9,122,4,6,319,1,246,245,386,10,7,8,387,388,11,244,13,389,323,390,391,392,212,325,393,394,19,20,123,251,252,395,396,254,27,329,332,333,334,397,398,336,337,338,41,339,399,400,342,401,402,403,404,405,406,407,347,348,351,352,353,408,409,356,410,358,361,411,363,412,413,366,414,369,289,370,415,4.922632
2,4,1,6,3,244,9,122,7,10,82,11,8,245,246,13,247,248,249,16,19,20,123,22,124,250,251,252,253,25,254,310,256,26,88,27,29,416,257,258,226,417,259,34,37,95,261,41,262,263,43,264,265,266,46,49,50,231,52,232,418,419,420,269,270,271,272,60,273,421,275,276,277,278,62,64,422,423,281,424,425,282,70,284,285,286,287,288,78,289,316,291,79,118,292,317,293,81,4.031984
1,3,5,4,2,6,7,8,9,10,12,11,13,14,15,16,18,19,20,22,24,25,27,28,29,30,31,32,33,94,35,37,38,40,41,42,43,44,45,46,48,49,50,51,52,53,55,57,59,426,62,63,64,66,67,68,69,114,71,73,74,76,77,78,80,120,6.341989
318,3,82,4,246,427,7,244,245,12,83,8,13,428,84,14,429,19,20,22,251,430,431,432,28,433,332,434,260,435,339,436,437,438,439,44,440,50,441,442,443,444,445,446,447,448,449,450,451,452,453,454,455,456,457,458,459,5.537602
3,8,121,122,7,10,222,460,87,461,19,20,123,224,462,225,226,417,42,463,464,465,466,467,231,468,232,418,351,237,469,470,471,472,242,473,3.489455
3,121,7,8,122,10,83,84,222,87,19,20,123,223,224,462,225,226,417,42,166,227,464,229,230,231,468,232,418,351,236,237,469,239,471,472,242,243,4.031517
2,4,1,6,244,9,10,82,11,8,3,245,7,246,13,247,248,249,474,16,19,20,22,250,251,252,253,25,254,256,26,88,27,29,257,258,259,34,37,95,261,41,262,263,43,264,265,266,475,46,49,50,52,267,55,476,269,270,271,272,477,60,273,275,276,277,278,62,478,64,280,281,282,70,284,285,286,287,288,78,289,291,79,118,292,293,81,5.403403
1,2,3,4,5,6,7,8,9,10,11,12,246,13,14,15,16,18,19,20,22,24,25,310,26,27,28,29,190,30,31,32,33,257,34,35,37,95,38,40,41,42,262,43,44,45,46,48,49,50,51,52,53,55,479,480,57,59,60,312,276,62,63,64,481,66,67,68,69,482,70,71,73,285,74,76,77,78,316,79,80,317,81,6.549751
318,3,82,4,246,12,7,483,83,8,13,428,84,14,212,484,485,19,20,22,486,431,432,28,433,260,487,339,436,437,438,439,44,488,489,490,491,492,50,441,442,443,444,493,448,449,450,451,452,494,495,457,458,496,4.096910
318,3,9,122,4,6,319,1,246,245,386,10,7,8,387,388,244,321,13,389,323,390,391,392,212,325,393,326,19,20,123,251,252,395,396,254,27,329,332,333,334,397,398,336,337,338,41,339,340,400,342,401,402,403,404,405,344,345,347,348,351,352,353,408,409,356,410,358,361,411,363,412,413,366,414,369,289,370,371,3.415669
3,2,7,121,8,10,11,82,13,150,222,497,498,20,224,29,499,225,433,500,42,501,463,43,502,228,503,504,505,506,507,508,509,470,510,511,242,512,513,514,3.049149
3,121,7,10,8,222,162,498,19,20,515,29,165,42,463,516,517,171,518,49,50,52,519,508,520,175,521,3.530178
2,1,4,6,244,9,3,10,82,11,8,7,245,246,13,85,247,16,19,20,22,250,251,252,25,254,310,256,26,88,89,27,90,29,190,257,258,259,34,37,95,261,41,262,263,43,98,264,46,49,50,52,197,267,55,268,269,270,271,60,311,312,275,276,277,106,62,313,64,314,280,281,282,70,284,285,315,287,78,289,316,291,79,118,317,293,81,6.438899
2,318,4,1,6,244,9,3,7,246,10,82,12,11,8,245,13,522,247,248,249,16,19,20,22,250,251,252,253,25,254,256,26,88,27,523,29,257,258,259,34,524,37,95,261,41,339,262,263,43,525,264,265,266,46,49,50,526,52,267,55,527,269,270,271,272,60,273,275,276,277,278,62,528,64,280,281,282,70,529,284,285,286,287,288,78,289,291,79,118,530,292,293,81,5.987163
1,2,3,4,5,6,7,8,9,531,10,11,12,13,14,532,15,16,18,19,20,22,24,25,533,27,28,29,30,31,32,33,34,35,37,38,534,40,41,42,43,44,535,45,46,48,49,50,51,52,53,55,57,59,60,536,62,63,64,66,67,68,69,537,71,73,74,538,76,77,78,539,80,81,4.863279
1,2,3,4,5,6,7,8,9,10,11,12,246,13,14,151,15,16,18,19,20,22,24,253,25,26,27,28,29,30,31,32,33,34,35,36,37,38,40,41,42,262,43,44,45,540,46,48,49,50,51,52,53,55,57,541,59,60,61,62,63,64,66,67,68,69,70,71,157,73,74,76,77,288,78,79,80,292,81,5.737549
2,318,4,1,6,244,9,3,7,246,10,82,11,8,245,13,323,160,247,211,212,248,249,542,16,19,20,22,250,251,252,253,25,254,256,26,88,27,523,29,257,258,259,34,543,37,95,261,41,339,262,263,43,544,214,264,215,545,546,265,266,46,49,50,526,52,267,55,527,269,270,271,272,60,273,275,276,277,278,62,547,64,280,281,282,70,548,284,285,286,287,288,78,289,291,79,118,370,292,293,81,6.322393
1,2,3,4,5,6,7,8,9,10,11,12,246,13,14,15,16,18,19,20,22,24,25,310,26,27,28,29,190,30,31,32,33,257,34,35,37,95,38,40,41,42,262,43,44,45,46,48,49,50,51,52,197,53,267,55,57,268,59,60,312,276,62,63,64,314,66,67,68,69,280,70,71,73,285,74,76,77,78,316,79,80,317,81,6.107905
3,121,7,10,83,84,87,19,20,223,549,225,33,42,166,227,229,550,49,50,53,236,551,552,553,242,243,6.568636
121,3,7,10,83,8,13,84,160,211,212,213,87,223,224,225,42,166,227,214,215,216,554,229,230,236,555,239,242,243,2.703335
3,2,7,121,8,10,11,222,497,498,19,20,224,29,499,225,500,42,463,43,228,503,504,49,50,52,507,508,509,470,511,242,513,514,3.327902
1,2,3,4,5,6,7,8,9,10,11,12,13,14,15,16,17,18,19,20,22,24,25,26,27,28,29,30,31,32,33,34,35,36,37,38,40,41,42,43,44,45,46,47,48,49,50,51,52,53,55,57,59,60,61,62,63,64,179,66,67,68,69,70,71,72,73,74,76,77,78,79,80,81,5.716699
3,7,121,10,162,498,19,20,556,165,33,42,463,557,171,558,49,50,53,559,520,560,175,521,4.124939
3,7,121,8,10,83,561,562,222,497,498,19,20,515,224,29,225,42,463,563,564,228,565,518,49,50,52,566,507,508,470,242,513,3.385103
3,121,8,7,10,222,460,87,461,19,20,224,29,225,42,463,228,465,466,467,49,50,52,237,508,470,242,473,3.795880
1,2,3,4,5,6,7,8,9,10,11,12,82,13,160,14,567,15,16,18,19,20,22,24,25,568,27,28,29,30,31,32,33,34,35,37,38,40,41,42,96,43,569,44,570,45,46,48,49,50,51,52,53,55,57,59,60,571,62,63,64,66,67,68,69,572,71,73,74,76,77,78,573,80,574,81,4.555955
3,121,7,83,10,84,162,19,20,163,575,165,33,42,166,167,576,171,49,50,53,577,578,174,579,175,176,5.886057
1,2,3,4,5,6,7,8,9,10,11,12,245,13,14,151,15,16,18,19,20,22,250,252,24,376,25,26,27,28,29,30,31,32,33,34,35,36,37,38,40,338,41,42,43,44,45,377,46,48,49,50,51,52,53,55,57,378,379,380,381,59,60,61,62,63,64,66,67,68,69,70,71,157,73,74,76,382,77,383,78,79,80,81,5.492144
1,2,3,4,5,6,7,8,9,10,11,12,13,160,14,211,212,542,15,16,18,19,20,22,24,25,26,27,28,29,30,31,32,33,34,35,36,37,38,40,41,42,43,214,44,215,580,581,582,45,46,48,49,50,51,52,53,55,57,59,60,61,62,63,64,66,67,68,69,70,71,583,73,74,76,77,78,79,80,81,6.345823
1,2,3,4,5,6,7,8,9,10,11,12,13,14,15,16,18,19,20,22,24,25,584,27,28,29,30,31,32,33,34,260,35,37,38,40,41,42,43,44,45,46,48,49,50,51,52,53,55,57,59,60,585,62,63,64,66,67,68,69,586,587,71,73,74,76,77,78,588,80,81,7.899629
1,2,3,4,5,6,7,8,9,10,11,12,13,14,589,15,16,18,19,20,22,24,25,26,27,28,29,30,31,32,33,34,35,590,37,38,40,41,42,43,44,591,45,46,48,49,50,51,52,53,55,57,59,60,592,62,63,64,66,67,68,69,70,71,593,73,74,76,77,78,79,80,81,6.458421
318,3,6,9,5,122,4,319,320,8,1,246,245,386,10,7,244,13,322,323,160,390,594,16,19,20,123,251,252,395,396,254,27,329,330,332,333,334,335,128,397,336,130,337,338,41,339,341,342,595,401,596,346,231,347,348,349,350,351,352,353,408,409,356,357,358,359,597,411,363,364,365,412,366,367,414,369,289,370,5.308919
3,121,244,245,182,10,598,7,599,600,19,20,601,602,603,604,605,42,166,606,607,49,50,608,609,610,611,612,613,614,615,4.309804
2,4,1,6,244,9,3,10,82,11,8,7,245,246,13,247,248,249,16,19,20,22,250,251,252,253,25,254,310,256,26,88,27,29,190,257,258,259,34,37,95,261,41,262,263,43,264,265,266,46,49,50,52,197,267,55,268,269,270,271,272,60,273,312,275,276,277,278,62,64,314,280,281,282,70,284,285,286,287,288,78,289,316,291,79,118,292,317,293,81,5.886057
318,3,6,122,9,5,4,319,320,8,1,616,246,7,245,386,10,121,11,244,13,322,323,390,248,213,325,394,617,16,19,123,22,124,251,252,618,619,395,396,376,254,27,329,330,29,332,333,334,335,128,397,336,130,337,338,620,41,339,621,399,341,342,401,622,623,406,407,624,346,231,349,350,625,626,352,353,627,628,629,630,408,409,631,632,356,357,633,634,359,361,635,363,364,365,412,366,367,414,382,369,636,383,289,370,637,415,4.913640
318,3,82,4,246,12,7,181,483,182,83,8,13,428,84,150,638,639,212,213,19,20,22,486,431,432,29,433,260,640,641,339,436,501,438,439,502,642,643,644,645,50,441,442,646,444,647,448,449,648,451,649,494,650,651,457,458,512,4.863279
318,3,2,82,4,246,12,7,181,483,11,182,8,13,428,14,638,639,485,19,20,22,486,431,28,433,652,653,260,640,641,339,436,437,654,43,438,44,642,655,656,50,441,657,443,444,647,658,450,451,452,659,660,494,650,651,457,458,496,661,662,4.055517
1,2,3,4,5,6,7,8,9,10,11,12,82,13,150,15,16,17,18,19,20,22,24,25,26,27,29,30,31,32,33,433,34,35,36,37,38,40,41,42,501,43,502,45,46,47,48,49,50,52,53,663,55,664,59,60,61,62,64,179,66,67,68,69,665,70,71,72,73,74,76,77,78,79,80,512,81,6.962574
4,1,3,2,6,9,8,7,10,82,11,13,85,15,86,460,87,666,19,20,24,25,88,89,90,29,92,32,94,37,95,667,41,42,96,43,98,668,99,669,670,671,49,50,52,59,104,105,106,107,109,672,112,114,115,116,673,77,78,118,80,119,120,3.481486
1,2,3,4,5,6,7,8,9,10,11,12,15,16,17,18,19,20,21,23,24,25,26,27,29,30,31,32,33,34,35,36,37,38,39,40,41,42,43,45,46,47,48,49,50,52,53,54,56,674,59,60,61,62,64,179,66,675,68,69,70,71,72,73,74,75,76,77,78,79,80,81,6.767004
1,2,3,4,5,6,7,8,9,10,11,12,246,13,14,15,16,18,19,20,22,24,25,676,27,28,29,30,31,32,33,34,35,37,38,40,41,42,262,43,44,45,46,48,49,50,51,52,53,55,57,59,60,677,62,63,64,66,67,68,69,678,71,73,74,76,77,78,679,80,680,81,4.747147
1,2,3,4,5,6,7,8,9,10,11,12,13,14,151,15,16,18,19,20,22,681,24,25,26,27,28,29,30,31,32,33,34,260,35,36,37,38,40,41,42,43,44,682,45,46,48,49,50,51,52,53,55,57,683,59,60,61,62,63,64,66,67,68,69,70,684,71,157,73,74,76,685,77,78,79,80,81,5.841638
3,121,7,8,10,686,687,222,87,19,20,688,224,29,225,42,166,689,228,690,230,49,50,52,691,237,508,239,242,692,3.950782
3,7,121,10,162,497,461,19,20,556,165,33,42,463,693,694,695,49,50,53,696,697,560,175,698,3.305395
1,4,2,9,6,244,10,11,245,82,13,85,150,250,251,252,25,254,256,88,89,90,258,94,37,261,41,153,43,98,154,269,270,271,104,311,275,699,106,107,313,281,114,700,315,287,78,289,291,118,701,120,6.826814
1,2,3,4,5,6,7,8,9,10,11,12,15,16,17,18,19,20,24,25,26,27,29,30,31,32,33,127,34,35,36,37,38,40,41,42,132,43,45,46,47,48,49,50,52,103,133,59,60,61,62,64,179,66,140,68,69,143,70,71,72,73,74,76,77,78,79,80,149,81,5.484126
1,2,3,4,5,6,7,8,9,10,531,11,12,13,160,14,702,151,15,16,18,19,20,22,24,703,25,26,27,28,29,30,31,32,33,34,35,36,37,38,704,40,41,42,43,705,44,706,45,707,46,48,49,50,51,52,53,55,57,708,59,60,61,62,63,64,66,67,68,69,70,71,157,73,74,709,76,77,710,78,79,80,81,5.707744
1,3,4,2,6,9,7,182,8,10,82,11,13,85,711,15,86,87,19,20,24,25,88,89,90,712,713,29,92,32,94,37,95,40,41,42,96,43,98,714,715,45,99,716,100,49,50,717,52,59,104,105,106,107,718,719,109,110,112,114,115,116,720,77,78,118,80,119,120,5.236572
318,3,82,4,246,12,7,483,83,8,13,428,84,14,212,484,485,19,20,22,486,431,432,28,433,260,487,339,436,437,438,439,44,489,490,491,492,50,441,442,443,444,493,448,449,450,451,452,494,495,457,458,496,4.309804
3,2,7,121,8,10,11,321,222,497,498,20,224,29,499,225,721,500,42,722,463,43,228,503,504,505,723,507,508,509,470,724,511,242,725,513,514,2.793174
3,121,2,7,8,10,11,222,87,19,20,224,29,225,726,500,42,166,43,228,230,727,49,50,52,237,508,239,728,729,242,730,514,3.032920
3,121,7,8,10,686,687,222,162,19,20,731,164,29,165,42,166,732,733,170,171,49,50,52,734,735,508,174,175,736,4.309804
121,3,7,10,83,8,13,84,160,161,87,223,224,225,42,166,227,168,737,229,230,236,738,239,242,243,3.105130
1,3,4,2,7,6,9,8,10,82,11,13,85,15,222,86,497,739,19,20,24,25,88,89,90,515,29,92,32,94,37,95,667,41,42,96,43,98,668,516,99,740,741,49,50,52,59,104,105,106,107,742,508,109,672,743,114,115,116,744,77,78,118,80,119,120,5.207608
1,2,3,4,5,6,7,8,9,10,11,12,246,13,14,248,542,15,16,18,19,20,22,24,253,25,26,27,28,29,30,31,32,33,34,35,36,37,38,40,41,42,262,43,44,745,746,45,46,48,49,50,51,52,53,55,57,272,59,60,61,62,63,64,66,67,68,69,70,71,583,73,74,76,77,288,78,79,80,292,81,5.844664
3,121,7,8,10,83,84,222,162,19,20,163,164,29,165,42,166,167,733,170,171,49,50,52,172,747,508,174,175,176,4.301030
1,2,3,4,5,6,7,8,9,10,11,12,15,16,17,18,19,20,24,25,26,27,29,30,31,32,33,34,35,36,37,38,40,41,42,43,45,46,47,48,49,50,52,53,59,60,61,62,64,179,66,140,68,69,70,71,72,73,74,76,77,78,79,80,81,6.752027
1,4,244,9,6,10,8,82,245,246,3,13,7,160,85,150,748,248,249,16,86,19,20,250,251,252,253,186,254,749,256,88,750,27,90,29,258,37,261,41,262,153,96,751,752,154,753,265,266,46,99,49,50,52,269,270,271,272,273,754,755,275,304,756,278,757,758,64,109,281,759,284,315,287,288,209,289,760,291,118,292,761,119,7.468521
3,121,7,10,83,84,497,19,20,223,556,165,33,42,166,227,762,694,49,50,53,763,764,765,560,175,766,3.417937
318,3,6,9,5,122,4,319,320,8,1,246,245,386,10,7,11,244,13,322,323,390,325,394,16,19,20,123,251,252,395,396,254,27,329,330,332,333,334,335,128,397,336,130,337,338,41,339,399,341,342,401,406,407,346,231,347,348,349,350,351,352,353,408,409,356,357,358,359,361,411,363,364,365,412,366,367,414,369,289,370,415,5.075721
318,3,82,246,7,531,767,83,8,13,428,84,14,532,768,485,19,20,769,22,431,432,28,770,433,771,772,339,436,437,438,439,44,773,774,775,50,441,442,776,777,443,444,448,449,450,778,451,452,779,780,457,458,496,4.309804
3,121,7,8,10,686,687,222,497,498,19,20,781,224,29,225,42,463,782,228,783,784,49,50,52,785,507,508,470,242,513,3.163043
6,4,3,319,9,244,427,10,8,245,182,246,7,13,85,300,786,16,19,20,251,787,186,788,789,790,189,27,791,29,792,793,794,37,795,796,301,41,262,797,302,798,196,46,49,50,52,799,800,801,802,803,804,805,305,806,807,808,64,809,810,811,307,759,812,813,814,815,309,209,816,817,818,8.028724
1,2,3,4,5,6,7,8,9,10,11,12,83,84,15,16,17,18,19,20,22,24,25,26,27,91,29,30,31,32,33,34,35,36,37,38,40,41,42,43,97,45,46,47,48,49,50,819,52,53,55,820,59,60,61,62,821,64,179,66,67,68,69,70,71,72,73,74,76,77,78,79,80,81,6.339135
1,3,4,2,6,9,7,8,10,82,11,13,85,213,15,86,87,19,20,24,25,88,89,90,822,29,92,32,94,37,95,40,41,42,96,43,98,823,824,45,99,825,100,49,50,52,59,104,105,106,107,826,827,109,110,112,114,115,116,828,77,78,118,80,119,120,5.017729
1,4,2,9,6,244,3,10,11,7,245,82,13,85,150,20,250,251,252,25,254,187,256,89,90,190,433,258,94,37,261,41,501,43,98,502,479,506,269,270,271,104,311,200,275,106,107,313,203,510,281,114,829,700,287,78,289,210,291,512,120,3.698970
3,121,7,8,122,10,83,84,222,162,19,20,123,124,163,164,29,165,226,42,166,167,733,170,171,231,232,233,234,235,172,747,238,174,240,241,175,176,4.200659
3,121,8,7,122,10,222,460,87,461,19,20,123,124,224,29,225,226,42,463,228,465,466,467,231,232,233,234,235,237,238,470,240,241,242,473,3.573489
318,3,82,246,4,7,427,12,83,8,13,428,84,14,212,248,485,19,20,22,830,431,432,28,433,260,435,339,436,437,438,439,44,488,831,490,832,492,50,441,442,443,444,833,448,449,450,451,452,834,835,457,458,496,5.619789
1,2,3,4,5,6,7,8,9,10,531,11,12,13,160,14,702,248,542,15,16,18,19,20,22,24,703,25,26,27,28,29,30,31,32,33,34,35,36,37,38,704,40,41,42,43,705,44,706,745,836,45,46,48,49,50,51,52,53,55,57,837,59,60,61,62,63,64,66,67,68,69,70,71,583,73,74,709,76,77,710,78,79,80,81,6.530178
1,3,4,2,7,6,9,8,10,82,11,13,85,15,86,87,19,20,24,25,88,89,90,29,92,93,32,33,94,37,95,40,41,42,96,43,98,45,99,100,101,49,50,52,53,59,104,105,106,107,109,110,111,112,113,114,115,116,117,77,78,118,80,119,120,7.259637
3,121,7,8,10,83,84,222,87,19,20,223,224,29,225,42,166,227,228,229,230,49,50,52,236,237,508,239,242,243,4.119186
318,3,1,4,82,246,427,245,7,12,244,8,83,13,428,84,14,429,19,20,22,250,251,252,838,839,431,432,28,433,332,260,435,338,339,436,437,438,439,44,440,50,441,442,443,444,840,380,271,841,842,448,449,450,451,452,843,844,845,846,457,458,459,4.142668
