#cr_index	maccs
337920	23 54 74 79 82 90 92 95 100 104 106 109 110 111 115 117 123 125 126 131 133 135 136 138 142 145 146 149 151 153 154 155 156 157 158 159 160 161 162 163 164 165
382978	32 33 51 54 55 57 58 59 60 61 64 66 67 69 72 73 79 81 83 87 88 89 90 91 92 94 95 96 97 102 103 104 106 107 108 109 110 111 112 114 115 116 117 118 124 125 128 129 130 131 132 133 134 135 136 137 140 142 143 144 145 146 147 148 149 150 151 152 153 154 155 156 157 158 159 160 161 162 163 164 165
350220	25 43 49 53 54 62 77 78 79 82 84 88 90 91 92 95 100 104 106 110 111 117 119 125 128 131 132 136 138 140 142 145 146 147 151 153 154 155 156 158 159 161 162 163 164 165
163861	42 54 57 72 79 82 83 90 91 92 95 96 100 104 106 107 109 110 111 112 113 115 117 118 126 128 129 131 132 133 134 135 136 137 138 140 142 143 145 146 147 151 152 153 154 155 156 157 158 159 160 161 162 163 164 165
69662	23 54 74 75 79 80 85 86 90 92 95 97 98 100 104 106 108 109 110 111 115 117 121 122 123 125 126 127 129 131 132 133 136 137 138 140 142 143 145 146 148 149 150 151 152 153 154 155 156 157 158 159 160 161 162 163 164 165
186032	42 54 57 75 79 82 85 86 90 91 92 95 98 100 104 106 107 109 110 111 112 113 117 118 120 121 122 125 126 128 129 131 132 133 134 135 136 137 138 140 142 143 145 146 147 148 151 152 153 154 155 156 157 158 159 161 162 163 164 165
163875	37 42 54 57 75 77 79 82 85 86 90 91 92 95 98 100 104 106 107 109 110 111 112 113 114 116 117 118 120 121 122 126 128 129 131 132 133 134 135 136 137 138 140 142 143 145 146 147 148 151 152 153 154 155 156 157 158 159 160 161 162 163 164 165
206901	54 62 79 82 84 86 88 90 91 92 93 95 100 104 110 111 115 117 125 128 131 132 136 138 140 142 145 146 151 153 154 155 156 158 159 160 161 162 163 164 165
18486	25 43 49 54 72 74 77 78 79 82 84 90 91 92 95 97 100 104 106 108 110 111 115 117 119 131 136 140 141 142 146 147 149 151 152 153 154 155 156 158 159 160 161 164
624696	23 54 62 75 79 82 83 85 86 90 91 92 95 96 98 100 104 106 109 110 111 117 118 120 121 122 123 125 126 128 129 131 133 135 136 137 138 142 145 146 147 148 150 151 153 154 155 156 157 158 159 161 162 163 164 165
968761	23 41 52 74 77 79 80 90 92 93 94 95 106 109 110 117 122 123 124 126 136 141 142 146 148 149 151 153 154 155 156 157 158 159 160 161 162 163 164 165
512059	23 26 28 45 49 50 52 57 62 72 75 76 83 92 93 94 95 96 98 99 105 106 109 110 113 114 117 120 121 122 123 124 126 127 133 136 137 138 140 142 143 145 146 148 149 150 152 153 154 155 156 157 158 159 160 161 162 163 164 165
512060	26 28 37 45 49 50 52 57 62 72 75 76 77 79 83 92 93 94 95 96 98 99 105 106 109 110 113 117 120 121 122 123 124 125 126 127 133 135 136 137 140 142 143 145 146 148 149 150 151 152 153 154 156 157 158 159 160 161 162 163 164 165
186437	42 51 54 55 57 58 60 61 67 73 75 79 82 85 86 88 90 91 92 93 95 98 100 102 104 106 107 109 110 111 112 113 115 116 117 118 120 121 122 124 126 128 129 130 131 132 133 134 135 136 137 138 140 142 143 145 146 147 148 151 152 153 154 155 156 157 158 159 160 161 162 163 164 165
155719	42 54 74 79 82 90 91 92 95 100 104 106 107 110 111 112 113 115 117 125 126 128 131 133 134 135 136 138 141 142 143 145 146 147 149 151 152 153 154 155 156 157 158 159 160 161 162 163 164 165
149585	54 62 79 82 90 91 92 93 95 100 104 110 111 113 117 118 125 126 128 129 131 133 135 136 138 142 143 145 146 147 151 152 153 154 155 156 157 158 159 160 161 162 163 164 165
149586	54 66 74 79 82 90 91 92 93 95 100 104 110 111 112 113 115 117 125 126 128 131 133 135 136 138 141 142 143 145 146 147 149 151 152 153 154 155 156 157 158 159 160 161 162 163 164 165
186456	42 54 57 75 79 82 85 86 90 92 95 98 100 104 106 107 109 110 111 112 113 117 118 120 121 122 125 126 128 129 131 132 133 134 135 136 137 138 140 142 143 145 146 147 148 151 152 153 154 155 156 157 158 159 161 162 163 164 165
307292	42 54 74 75 79 83 85 86 87 90 91 92 93 95 96 100 104 105 107 110 111 113 116 117 118 121 122 125 126 128 129 131 134 135 136 137 138 141 142 143 144 145 146 147 148 149 151 152 153 154 155 156 157 158 159 160 161 162 163 164 165
290913	54 79 82 87 90 91 92 93 95 100 103 104 107 110 111 113 117 125 126 128 131 133 134 135 136 138 142 143 144 145 146 147 149 150 151 152 153 154 155 156 157 158 159 160 161 162 163 164 165
282728	23 54 62 74 75 79 82 85 86 90 92 95 98 100 104 106 109 110 111 115 117 118 121 122 123 125 126 128 129 131 133 135 136 137 138 142 145 146 147 148 149 151 153 154 155 156 157 158 159 160 161 162 163 164 165
309356	37 42 54 57 65 77 79 82 83 87 90 91 92 95 96 100 103 104 105 106 107 110 111 117 118 120 121 125 128 129 131 133 134 135 137 138 142 145 147 151 152 153 154 155 156 158 159 161 162 163 164 165
163950	36 41 47 49 62 65 66 74 75 77 79 81 82 83 85 86 88 90 91 92 96 98 100 104 106 108 110 111 112 115 116 117 118 120 121 122 125 128 129 131 133 135 137 138 141 142 145 147 148 149 151 153 154 155 156 158 160 161 162 163 164 165
229492	8 11 23 54 74 79 89 90 92 95 97 104 106 109 110 111 115 117 121 123 126 127 131 133 136 137 140 141 142 143 146 149 150 151 153 154 155 156 157 158 159 160 161 162 163 164 165
63509	23 54 74 75 79 80 83 85 86 90 91 92 95 96 97 100 104 106 109 110 111 115 117 121 122 123 125 126 128 129 131 132 133 136 137 138 140 141 142 143 145 146 148 149 150 151 152 153 154 155 156 157 158 159 160 161 162 163 164 165
149632	54 62 79 82 90 91 92 93 95 100 104 110 111 113 117 125 126 128 131 133 135 136 138 142 143 145 146 147 149 151 152 153 154 155 156 157 158 159 160 161 162 163 164 165
583812	19 32 33 47 51 54 55 57 58 59 60 61 64 65 67 72 73 74 75 79 80 81 83 86 88 90 91 92 94 95 96 98 100 102 104 105 106 108 110 111 112 115 117 120 121 122 124 125 128 129 130 131 132 133 136 137 138 140 141 142 143 145 146 148 149 150 151 152 153 154 155 156 158 159 160 161 162 163 164 165
970887	36 38 41 54 57 62 65 71 74 77 79 81 82 83 88 90 91 92 94 95 96 97 100 102 104 110 111 115 117 120 121 124 125 128 131 136 137 142 146 149 151 153 154 155 156 158 159 160 161 162 163 164 165
149641	54 57 72 79 82 83 87 90 91 92 93 95 96 100 103 104 105 107 110 111 113 117 118 125 126 128 129 131 133 134 135 136 137 138 140 142 143 145 146 147 151 152 153 154 155 156 157 158 159 160 161 162 163 164 165
342157	42 54 57 74 75 79 82 85 86 90 92 95 98 100 104 106 107 109 110 111 112 113 116 117 118 120 121 122 126 128 129 131 132 133 134 135 136 137 138 140 142 143 145 146 147 148 149 151 152 153 154 155 156 157 158 159 160 161 162 163 164 165
80015	23 54 74 75 79 80 85 86 90 91 92 95 98 100 104 106 109 110 111 115 117 121 122 123 125 126 128 129 131 132 133 136 137 138 140 141 142 143 145 146 147 148 149 150 151 152 153 154 155 156 157 158 159 160 161 162 163 164 165
151715	23 41 54 66 74 79 82 90 91 92 95 100 104 106 110 111 112 117 123 126 128 131 136 141 142 146 149 151 152 153 154 155 156 157 158 159 160 161 162 163 164 165
387239	32 33 51 54 55 57 58 59 60 61 64 66 67 69 72 73 79 81 83 88 89 90 91 92 93 94 95 96 97 102 104 106 108 109 110 111 112 114 115 116 117 118 124 128 129 130 131 132 133 136 137 140 141 142 143 146 147 148 149 150 151 152 153 154 155 156 157 158 159 160 161 162 163 164 165
387240	32 33 51 54 55 57 58 59 60 61 64 66 67 69 72 73 79 81 83 88 89 90 91 92 93 94 95 96 97 102 104 106 108 109 110 111 112 114 115 116 117 118 124 128 129 130 131 132 133 136 137 140 141 142 143 146 147 148 149 150 151 152 153 154 155 156 157 158 159 160 161 162 163 164 165
391338	32 33 51 54 55 57 58 60 61 66 67 69 72 73 79 83 88 89 90 91 92 93 94 95 96 97 102 104 106 108 109 110 111 112 114 115 116 117 118 124 128 129 130 131 132 133 135 136 137 140 141 142 143 144 146 147 148 149 150 151 152 153 154 155 156 157 158 159 160 161 162 163 164 165
598189	25 43 49 53 54 62 77 78 79 82 84 89 90 91 92 95 97 100 104 106 109 110 111 117 119 125 128 131 132 136 138 139 140 142 145 146 147 151 153 154 155 156 157 158 159 161 162 163 164 165
116921	23 54 65 66 74 79 81 88 90 92 95 97 98 104 106 109 110 111 112 116 117 121 123 125 126 128 129 131 132 136 137 138 140 141 142 145 146 147 149 151 152 153 154 155 156 157 158 159 160 161 162 163 164 165
374970	32 33 51 54 55 57 58 59 60 61 64 66 67 69 72 73 79 81 83 88 89 90 91 92 94 95 96 97 102 104 106 108 109 110 111 112 114 115 116 117 118 124 125 128 129 130 131 132 133 135 136 137 140 141 142 143 144 145 146 147 148 149 150 151 152 153 154 155 156 157 158 159 160 161 162 163 164 165
1110207	19 23 42 62 75 78 79 80 82 85 87 89 90 92 93 95 97 99 100 103 104 105 106 107 109 110 111 112 117 119 120 121 122 123 125 126 128 129 131 132 133 134 135 136 137 138 140 142 143 144 145 146 148 150 151 153 154 155 156 157 158 159 160 161 162 163 164 165
1110209	19 23 42 62 75 78 79 80 82 85 87 89 90 92 93 95 97 99 100 103 104 105 106 107 109 110 111 112 113 117 119 120 121 122 123 125 126 127 128 129 131 132 133 134 135 136 137 138 140 142 143 144 145 146 148 149 150 151 152 153 154 155 156 157 158 159 160 161 162 163 164 165
1110210	19 23 62 75 78 79 80 82 85 89 90 92 93 95 97 99 100 104 105 106 109 110 111 113 117 119 120 121 122 123 125 126 127 128 129 131 132 133 135 136 137 138 140 142 143 144 145 146 148 149 150 151 152 153 154 155 156 157 158 159 160 161 162 163 164 165
1110211	19 23 62 75 78 79 80 82 85 89 90 92 93 95 97 99 100 104 105 106 109 110 111 117 119 120 121 122 123 125 126 128 129 131 132 133 135 136 137 138 140 142 143 144 145 146 148 150 151 153 154 155 156 157 158 159 160 161 162 163 164 165
1110212	19 23 62 75 78 79 80 82 85 89 90 92 93 95 97 99 100 104 105 106 109 110 111 114 115 116 117 119 120 121 122 123 125 126 128 129 131 132 135 136 137 138 140 142 143 144 145 146 147 148 149 150 151 153 154 155 156 157 158 159 160 161 162 163 164 165
1110213	19 23 62 75 78 79 80 82 85 89 90 91 92 93 95 97 99 100 104 105 106 109 110 111 117 118 119 120 121 122 123 125 126 128 129 131 132 133 135 136 137 138 140 142 143 144 145 146 147 148 150 151 153 154 155 156 157 158 159 160 161 162 163 164 165
1110214	19 23 62 66 75 78 79 80 82 85 89 90 91 92 93 95 97 99 100 101 104 105 106 109 110 111 112 117 119 120 121 122 123 125 126 128 129 131 132 133 135 136 137 138 140 142 143 144 145 146 148 150 151 153 154 155 156 157 158 159 160 161 162 163 164 165
149717	54 57 62 75 79 82 85 86 90 91 92 93 95 98 100 104 109 110 111 113 117 118 120 121 122 125 126 128 129 131 132 133 135 136 137 138 140 142 143 145 146 147 148 151 152 153 154 155 156 157 158 159 160 161 162 163 164 165
338140	23 74 75 79 80 83 85 86 90 91 92 93 95 96 97 100 104 106 108 109 110 111 115 116 117 121 122 123 125 126 128 129 132 133 136 137 138 140 141 142 143 145 146 148 149 150 151 152 153 154 155 156 157 158 159 160 161 162 163 164 165
346334	23 54 65 66 74 79 81 88 90 92 95 98 104 106 109 110 111 112 115 116 117 121 123 125 126 129 131 132 136 137 138 140 141 142 145 146 149 151 152 153 154 155 156 157 158 159 160 161 162 163 164 165
30943	8 11 23 54 66 79 89 90 91 92 95 96 97 104 106 109 110 111 112 117 118 121 123 126 127 128 129 131 133 136 137 140 142 143 146 147 150 151 153 154 155 156 157 158 159 160 161 162 163 164 165
280811	23 54 65 66 74 79 81 88 90 92 95 97 98 104 106 109 110 111 112 115 116 117 121 123 125 126 128 129 131 132 136 137 138 140 141 142 145 146 147 149 151 152 153 154 155 156 157 158 159 160 161 162 163 164 165
162041	36 41 47 49 62 65 74 75 77 79 81 82 83 84 85 86 88 90 91 92 96 98 100 104 106 110 111 115 117 118 120 121 122 125 128 129 131 133 135 137 138 142 145 147 148 149 151 153 154 155 156 158 160 161 162 163 164 165
30979	8 11 23 53 54 79 80 89 90 91 92 95 97 104 106 109 110 111 117 118 121 123 126 127 128 129 131 133 136 137 140 142 143 145 146 147 150 151 153 154 155 156 157 158 159 160 161 162 163 164 165
106757	25 43 49 53 54 62 77 78 79 82 84 88 90 91 92 95 100 104 106 110 111 117 118 119 125 128 131 132 136 138 140 142 145 146 147 151 153 154 155 156 158 159 161 162 163 164 165
612614	54 79 82 90 91 92 93 95 100 104 110 111 113 117 118 125 126 128 129 131 133 135 136 138 142 143 145 146 147 149 151 152 153 154 155 156 157 158 159 160 161 162 163 164 165
392236	32 33 51 54 55 57 58 60 61 66 67 69 72 73 79 83 88 89 90 91 92 93 94 95 96 97 102 104 106 108 109 110 111 112 113 114 115 116 117 118 124 126 127 128 129 130 131 132 133 135 136 137 140 141 142 143 144 146 147 148 149 150 151 152 153 154 155 156 157 158 159 160 161 162 163 164 165
357764	19 23 42 62 74 75 78 79 80 85 86 87 89 90 92 93 95 97 99 100 103 104 105 106 107 109 110 111 112 117 119 120 121 122 123 125 126 128 131 132 133 134 135 136 137 138 140 142 143 144 145 146 147 148 149 150 151 153 154 155 156 157 158 159 160 161 162 163 164 165
63776	23 54 72 74 79 86 90 92 95 97 104 106 109 110 111 115 117 123 125 126 128 129 131 132 136 138 140 142 145 146 147 149 151 152 153 154 155 156 157 158 159 160 161 162 163 164 165
155941	37 42 54 57 65 77 79 82 83 87 90 91 92 95 96 100 103 104 105 106 107 110 111 117 118 120 121 125 128 129 131 133 134 135 137 138 142 145 147 151 152 153 154 155 156 158 159 161 162 163 164 165
299304	52 54 62 65 75 79 80 82 83 90 91 92 93 94 95 96 97 100 104 110 111 113 117 118 120 121 122 124 125 126 128 129 131 133 135 136 137 138 142 143 144 145 146 147 148 149 150 151 152 153 154 155 156 157 158 159 160 161 162 163 164 165
506154	23 26 28 45 49 50 52 57 62 66 72 74 75 76 83 92 93 94 95 96 98 99 105 106 109 110 112 113 117 120 121 122 123 124 126 127 133 136 137 140 141 142 143 145 146 148 149 150 152 153 154 156 157 158 159 160 161 162 163 164 165
379954	32 33 51 54 55 57 58 59 60 61 64 66 67 69 72 73 79 81 83 88 89 90 91 92 93 94 95 96 97 102 104 106 108 109 110 111 112 113 114 115 116 117 118 124 125 126 127 128 129 130 131 132 133 135 136 137 140 141 142 143 145 146 147 148 149 150 151 152 153 154 155 156 157 158 159 160 161 162 163 164 165
379197	32 33 51 54 55 57 58 59 60 61 64 66 67 69 72 73 79 81 83 88 89 90 91 92 94 95 96 97 102 104 106 108 109 110 111 112 114 115 116 117 118 124 125 128 129 130 131 132 133 135 136 137 140 141 142 143 144 145 146 147 148 149 150 151 152 153 154 155 156 157 158 159 160 161 162 163 164 165
284725	14 34 51 58 60 61 67 73 81 88 99 102 124 129 130 132 138 148 153 155 164
63811	23 54 75 79 80 85 86 90 92 93 95 97 98 100 104 106 109 110 111 115 116 117 121 122 123 125 126 127 128 129 131 132 133 136 137 138 140 142 143 145 146 147 148 150 151 152 153 154 155 156 157 158 159 160 161 162 163 164 165
575542	14 51 58 60 61 67 73 81 88 102 114 115 118 124 128 129 130 132 138 147 148 149 153 155 160 164
1009996	36 38 41 52 57 62 65 71 74 77 79 80 81 83 88 92 93 94 95 96 97 102 104 108 110 111 115 117 120 121 122 124 125 130 136 137 141 142 146 148 149 151 154 155 156 158 159 160 161 162 163 164 165
248143	22 42 53 54 65 66 72 74 75 79 80 83 85 90 91 92 95 96 97 98 100 101 104 105 107 110 111 112 117 118 120 121 122 128 129 131 133 134 136 137 140 141 142 146 147 148 149 150 151 152 153 154 155 156 158 159 160 161 162 163 164 165
1087824	54 65 79 82 90 91 92 93 95 98 100 104 110 111 113 117 121 125 126 128 131 133 135 136 137 138 142 143 145 146 147 149 151 152 153 154 155 156 157 158 159 160 161 162 163 164 165
151889	42 51 54 55 58 60 61 66 67 73 74 75 79 83 85 86 87 88 90 91 92 93 95 96 100 102 104 105 107 110 111 112 113 115 116 117 118 121 122 124 125 126 128 129 130 131 132 134 135 136 137 138 140 141 142 143 144 145 146 147 148 149 151 152 153 154 155 156 157 158 159 160 161 162 163 164 165
143698	23 41 49 52 77 79 93 94 95 106 110 114 116 117 122 123 124 126 132 142 148 149 152 154 155 156 157 158 159 160 161 162 163 164 165
164185	42 54 57 79 82 83 89 90 91 92 95 96 97 100 104 106 107 110 111 112 113 117 118 125 126 128 129 131 133 134 135 136 137 138 140 142 143 145 146 147 151 152 153 154 155 156 157 158 159 161 162 163 164 165
633184	23 54 62 75 79 82 85 86 90 91 92 95 98 100 104 106 109 110 111 117 118 121 122 123 125 126 128 129 131 133 135 136 137 138 142 145 146 147 148 151 153 154 155 156 157 158 159 160 161 162 163 164 165
123241	23 54 62 75 79 82 85 86 90 91 92 95 98 100 104 106 109 110 111 117 118 121 122 123 125 126 128 129 131 133 135 136 137 138 142 145 146 147 148 151 153 154 155 156 157 158 159 161 162 163 164 165
186735	42 54 57 75 79 82 85 86 90 91 92 95 98 100 104 106 107 108 109 110 111 112 113 114 115 117 118 120 121 122 126 128 129 131 132 133 134 135 136 137 138 140 142 143 145 146 147 148 151 152 153 154 155 156 157 158 159 160 161 162 163 164 165
63867	23 54 75 79 80 85 86 90 92 95 97 98 100 104 106 109 110 111 117 121 122 123 125 126 127 128 129 131 132 133 136 137 138 140 142 143 145 146 147 148 150 151 152 153 154 155 156 157 158 159 161 162 163 164 165
602505	53 72 80 84 91 92 95 97 99 104 105 110 111 117 125 131 136 142 144 145 146 150 151 152 154 155 156 158 159 161 162 163 164 165
125323	23 54 62 74 75 79 82 85 86 90 91 92 95 98 100 104 106 109 110 111 117 118 121 122 123 125 126 128 129 131 133 135 136 137 138 142 145 146 147 148 149 151 153 154 155 156 157 158 159 160 161 162 163 164 165
147853	42 54 79 82 90 91 92 93 95 100 104 106 107 110 111 112 113 117 125 126 128 131 133 134 135 136 138 142 143 145 146 147 149 151 152 153 154 155 156 157 158 159 160 161 162 163 164 165
149903	16 22 23 38 43 49 66 74 75 77 79 82 85 86 90 91 92 95 97 98 100 104 106 109 110 111 112 117 118 120 121 122 123 125 126 128 129 131 136 137 138 140 141 142 145 146 147 148 149 150 151 152 153 154 155 156 157 158 159 160 161 162 163 164 165
186460	42 54 57 75 79 82 85 86 90 91 92 95 98 100 104 106 107 109 110 111 112 113 114 116 117 118 120 121 122 125 126 128 129 131 132 133 134 135 136 137 138 140 142 143 145 146 147 148 151 152 153 154 155 156 157 158 159 160 161 162 163 164 165
186774	42 54 57 74 75 79 82 85 86 90 92 95 98 100 104 106 107 109 110 111 112 113 116 117 118 120 121 122 125 126 128 129 131 132 133 134 135 136 137 138 140 142 143 145 146 147 148 149 151 152 153 154 155 156 157 158 159 160 161 162 163 164 165
135582	12 31 103 106 107 124 130 134 148
315811	42 62 72 87 107 109 113 125 126 132 134 143 144 145 150 152 153 154 155 157 159 162 163 164 165
504230	23 26 45 49 50 52 62 66 72 74 75 76 92 93 94 95 98 99 105 106 110 112 113 117 121 122 123 124 126 127 133 136 137 140 141 142 143 145 146 148 149 150 152 154 156 157 158 159 160 161 162 163 164 165
149927	25 46 54 62 65 75 77 79 80 82 85 86 87 90 91 92 93 95 98 100 104 106 107 110 111 113 117 118 120 121 122 125 126 128 129 131 133 134 135 136 137 138 142 143 145 146 147 148 151 152 153 154 155 156 157 158 159 160 161 162 163 164 165
391596	32 33 51 54 55 57 58 59 60 61 64 65 66 67 69 72 73 79 80 81 83 88 89 90 91 92 94 95 96 97 98 102 104 106 108 109 110 111 112 114 115 116 117 118 120 121 124 125 128 129 130 131 132 133 135 136 137 140 142 143 145 146 147 148 149 150 151 152 153 154 155 156 157 158 159 160 161 162 163 164 165
309687	54 74 79 82 90 91 92 93 95 100 104 110 111 113 115 117 125 126 128 131 133 135 136 138 141 142 143 144 145 146 147 149 150 151 152 153 154 155 156 157 158 159 160 161 162 163 164 165
508358	26 28 45 50 52 57 62 69 72 75 76 83 84 92 93 94 95 96 98 99 105 109 110 113 117 120 121 122 123 124 126 127 133 137 140 142 143 145 146 148 150 151 152 153 154 156 157 158 159 160 161 162 163 164 165
164310	37 42 54 57 75 77 79 82 85 86 90 91 92 95 98 100 104 106 107 109 110 111 112 113 117 118 120 121 122 126 128 129 131 132 133 134 135 136 137 138 140 142 143 145 146 147 148 151 152 153 154 155 156 157 158 159 161 162 163 164 165
616924	19 23 42 62 75 78 79 80 85 87 89 90 92 95 97 99 100 103 104 105 106 107 109 110 111 112 117 119 120 121 122 123 125 126 128 131 132 133 134 135 136 137 138 140 142 143 144 145 146 147 148 150 151 152 153 154 155 156 157 158 159 160 161 162 163 164 165
250340	23 54 75 79 80 85 86 90 92 95 97 98 100 104 106 109 110 111 117 121 122 123 125 126 127 128 129 131 132 133 136 137 138 140 142 143 145 146 147 148 150 151 152 153 154 155 156 157 158 159 161 162 163 164 165
504361	26 28 37 45 49 50 52 57 59 62 64 72 75 76 77 79 81 83 88 92 93 94 95 96 98 99 105 106 109 110 113 117 120 121 122 123 124 125 126 127 133 135 136 137 140 142 143 145 146 148 149 150 151 152 153 154 156 157 158 159 160 161 162 163 164 165
602613	25 43 49 53 54 62 77 78 79 82 84 88 90 91 92 95 100 104 106 110 111 117 118 119 125 128 131 132 136 138 140 142 145 146 147 151 153 154 155 156 158 159 161 162 163 164 165
154106	54 74 79 82 90 91 92 93 95 100 104 108 110 111 113 115 117 125 126 128 131 133 135 136 138 141 142 143 144 145 146 147 149 150 151 152 153 154 155 156 157 158 159 160 161 162 163 164 165
1088001	25 43 49 53 54 62 77 78 79 82 84 88 90 91 92 95 100 104 106 110 111 113 117 118 119 125 128 131 132 136 138 139 140 142 143 145 146 147 151 152 153 154 155 156 157 158 159 161 162 163 164 165
1088002	25 43 49 54 62 77 78 79 82 84 86 88 90 91 92 95 100 104 106 110 111 113 117 118 119 125 128 131 132 136 138 139 140 142 143 145 146 147 151 152 153 154 155 156 157 158 159 161 162 163 164 165
1088003	25 43 49 54 62 77 78 79 82 84 86 88 90 91 92 93 95 100 104 106 110 111 113 117 118 119 125 126 127 128 131 132 136 138 139 140 142 143 145 146 147 151 152 153 154 155 156 157 158 159 160 161 162 163 164 165
1088004	25 43 49 54 62 77 78 79 82 84 90 91 92 95 100 104 106 110 111 113 117 118 119 125 128 129 131 132 136 138 139 140 142 143 145 146 147 151 152 153 154 155 156 157 158 159 161 162 163 164 165
1088005	25 43 49 53 54 62 77 78 79 82 84 88 90 91 92 95 100 104 106 110 111 117 118 119 125 128 131 132 136 138 140 142 145 146 147 151 153 154 155 156 158 159 161 162 163 164 165
1088006	25 43 49 54 62 77 78 79 82 84 86 88 90 91 92 95 100 104 106 110 111 117 118 119 125 128 131 132 136 138 140 142 145 146 147 151 153 154 155 156 158 159 161 162 163 164 165
1088007	25 43 49 54 62 77 78 79 82 84 86 88 90 91 92 93 95 100 104 106 110 111 113 117 118 119 125 126 128 131 132 136 138 140 142 143 145 146 147 151 152 153 154 155 156 157 158 159 160 161 162 163 164 165
1088008	25 43 49 54 62 77 78 79 82 84 90 91 92 95 100 104 106 110 111 117 118 119 125 128 129 131 132 136 138 140 142 145 146 147 151 153 154 155 156 158 159 161 162 163 164 165
1088009	25 43 49 54 62 77 78 79 82 84 90 91 92 95 100 104 106 110 111 113 114 117 118 119 125 128 131 132 136 138 139 140 142 143 145 146 147 151 152 153 154 155 156 157 158 159 160 161 162 163 164 165
1088010	25 43 49 53 54 62 77 78 79 80 82 84 90 91 92 95 97 100 104 106 110 111 113 117 118 119 125 128 131 132 136 138 139 140 142 143 145 146 147 151 152 153 154 155 156 157 158 159 161 162 163 164 165
1088011	25 43 54 62 77 78 79 82 84 90 91 92 95 97 100 104 106 110 111 113 117 118 119 123 125 128 131 132 136 138 139 140 142 143 145 146 147 151 152 153 154 155 156 157 158 159 161 162 163 164 165
1088012	25 43 49 54 62 77 78 79 82 84 90 91 92 95 100 104 106 110 111 114 115 117 118 119 125 128 131 132 136 138 140 142 145 146 147 151 153 154 155 156 158 159 160 161 162 163 164 165
1088013	25 43 49 54 62 77 78 79 82 84 86 88 90 91 92 93 95 100 104 106 110 111 115 117 118 119 125 128 131 132 136 138 140 142 145 146 147 151 153 154 155 156 158 159 160 161 162 163 164 165
254483	23 54 65 74 79 86 88 90 92 95 97 98 104 106 109 110 111 115 117 118 121 123 125 126 128 129 131 132 136 137 138 140 142 145 146 147 149 151 152 153 154 155 156 157 158 159 160 161 162 163 164 165
311835	42 54 57 74 75 79 82 85 86 90 91 92 95 96 98 100 104 106 107 109 110 111 112 113 116 117 118 120 121 122 126 128 129 131 132 133 134 135 136 137 138 140 142 143 145 146 147 148 149 151 152 153 154 155 156 157 158 159 160 161 162 163 164 165
424483	32 33 42 51 54 55 57 58 60 61 66 67 69 72 73 79 81 83 88 89 90 91 92 94 95 96 97 102 104 106 107 108 109 110 111 112 114 115 116 117 118 124 128 129 130 131 132 133 134 135 136 137 140 142 143 146 147 148 149 150 151 152 153 154 155 156 157 158 159 160 161 162 163 164 165
156196	42 54 75 79 83 85 86 87 90 91 92 93 95 96 97 100 104 105 107 109 110 111 113 117 118 121 122 125 126 128 129 131 134 135 136 137 138 140 142 143 144 145 146 147 148 151 152 153 154 155 156 157 158 159 160 161 162 163 164 165
150056	54 57 79 82 83 90 91 92 93 95 96 97 100 104 110 111 113 117 125 126 128 131 132 133 135 136 137 138 140 142 143 145 146 147 149 151 152 153 154 155 156 157 158 159 160 161 162 163 164 165
155740	42 54 75 79 83 85 86 87 90 91 92 93 95 96 100 104 105 107 110 111 113 117 118 121 122 125 126 128 129 131 134 135 136 137 138 142 143 144 145 146 147 148 151 152 153 154 155 156 157 158 159 160 161 162 163 164 165
31286	8 11 23 54 66 79 89 90 91 92 95 97 104 106 109 110 111 112 113 117 118 121 123 125 126 127 128 129 131 133 136 137 140 142 143 145 146 147 150 151 152 153 154 155 156 157 158 159 161 162 163 164 165
115261	23 54 66 74 79 81 88 90 92 95 104 106 109 110 111 112 115 116 117 123 125 126 129 131 132 136 138 140 141 142 145 146 149 151 152 153 154 155 156 157 158 159 160 161 162 163 164 165
156231	37 42 54 57 65 77 79 82 83 87 90 91 92 93 95 96 100 104 105 106 107 110 111 117 118 120 121 123 125 126 128 129 131 133 134 135 136 137 138 140 142 145 146 147 151 152 153 154 155 156 157 158 159 160 161 162 163 164 165
154185	42 49 53 54 57 75 79 80 82 83 85 86 87 90 91 92 93 95 96 98 100 104 105 107 109 110 111 113 117 118 120 121 122 125 126 128 129 131 132 134 135 136 137 138 140 142 143 144 145 146 147 148 151 152 153 154 155 156 157 158 159 160 161 162 163 164 165
156239	42 54 74 79 82 87 90 91 92 95 100 104 107 110 111 115 117 125 128 131 133 134 135 136 138 141 142 145 147 149 151 153 154 155 156 158 159 160 161 162 163 164 165
967250	37 38 41 43 52 57 62 65 71 74 77 79 80 83 91 92 93 94 95 96 97 102 104 106 108 110 111 115 117 120 121 122 124 125 130 131 133 135 136 137 141 142 146 148 149 151 154 155 156 158 159 160 161 162 163 164 165
625266	25 54 65 77 79 80 82 90 91 92 93 95 98 100 104 106 110 111 113 117 118 120 121 125 126 128 129 131 133 135 136 137 138 141 142 143 145 146 147 149 151 152 153 154 155 156 157 158 159 160 161 162 163 164 165
357139	19 23 42 62 74 75 78 79 80 82 85 86 87 89 90 92 93 95 97 99 100 103 104 105 106 107 109 110 111 112 117 119 120 121 122 123 125 126 128 129 131 132 133 134 135 136 137 138 140 142 143 144 145 146 148 149 150 151 153 154 155 156 157 158 159 160 161 162 163 164 165
154234	19 32 33 47 51 54 55 57 58 59 60 61 64 65 67 72 73 74 75 79 80 81 83 86 88 90 91 92 94 95 96 98 100 102 104 105 106 108 110 111 112 115 116 117 120 121 122 124 125 128 129 130 131 132 133 136 137 138 140 141 142 143 145 146 147 148 149 150 151 152 153 154 155 156 158 159 160 161 162 163 164 165
156284	37 42 54 57 65 75 77 79 83 85 86 87 90 91 92 95 96 100 103 104 105 106 107 108 110 111 115 117 118 120 121 122 125 128 129 131 133 134 135 137 138 142 144 145 147 148 151 152 153 154 155 156 158 159 160 161 162 163 164 165
166529	42 54 57 72 79 82 83 90 91 92 95 96 100 104 106 107 109 110 111 112 113 117 118 126 128 129 131 132 133 134 135 136 137 138 140 142 143 145 146 147 151 152 153 154 155 156 157 158 159 161 162 163 164 165
383620	32 33 36 47 51 54 55 57 58 59 60 61 64 65 66 67 69 72 73 74 79 81 83 88 89 90 91 92 94 95 96 97 102 104 106 108 109 110 111 112 114 115 116 117 118 120 121 124 125 128 129 130 131 132 133 135 136 137 140 141 142 143 146 147 148 149 150 151 152 153 154 155 156 157 158 159 160 161 162 163 164 165
187023	42 54 57 74 75 79 82 85 86 90 92 95 96 98 100 104 106 107 109 110 111 112 113 116 117 118 120 121 122 126 128 129 131 132 133 134 135 136 137 138 140 142 143 145 146 147 148 149 151 152 153 154 155 156 157 158 159 160 161 162 163 164 165
166283	42 54 57 79 82 83 86 89 90 91 92 95 96 97 100 104 106 107 109 110 111 112 113 115 117 118 126 128 129 131 132 133 134 135 136 137 138 140 142 143 145 146 147 151 152 153 154 155 156 157 158 159 160 161 162 163 164 165
164509	37 42 54 57 66 74 75 77 79 82 85 86 90 91 92 95 98 100 104 106 107 109 110 111 112 113 115 117 118 120 121 122 126 128 129 131 132 133 134 135 136 137 138 140 141 142 143 145 146 147 148 149 151 152 153 154 155 156 157 158 159 160 161 162 163 164 165
154278	54 74 79 82 90 92 93 95 100 104 110 111 113 115 117 125 126 131 133 135 136 141 142 143 145 146 149 151 152 153 154 155 156 157 158 159 160 161 162 163 164 165
154280	54 74 79 82 90 92 93 95 100 104 110 111 113 115 117 125 126 131 133 135 136 141 142 143 145 146 149 151 152 153 154 155 156 157 158 159 160 161 162 163 164 165
123569	23 54 62 75 79 82 85 86 90 91 92 95 98 100 104 106 109 110 111 117 118 121 122 123 125 126 128 129 131 133 135 136 137 138 142 145 146 147 148 151 153 154 155 156 157 158 159 161 162 163 164 165
422581	33 54 55 57 58 60 61 66 67 69 72 73 74 77 79 81 83 86 88 89 90 91 92 93 94 95 96 97 102 104 106 108 109 110 111 112 114 115 116 117 118 122 124 128 129 130 131 132 133 135 136 137 140 141 142 143 146 147 148 149 150 151 152 153 154 155 156 157 158 159 160 161 162 163 164 165
414394	36 54 57 66 72 74 79 83 88 89 90 91 92 95 96 97 104 108 109 110 111 112 114 115 117 120 128 129 131 132 133 136 137 140 141 142 143 146 149 150 151 152 153 154 155 156 157 158 159 160 161 162 164 165
420539	32 33 51 54 55 57 58 59 60 61 64 65 66 67 69 72 73 79 80 81 83 87 88 89 90 91 92 94 95 96 97 98 102 103 104 106 107 108 109 110 111 112 114 115 116 117 118 120 121 124 125 128 129 130 131 132 133 134 135 136 137 140 142 143 144 145 146 147 148 149 150 151 152 153 154 155 156 157 158 159 160 161 162 163 164 165
967356	23 41 52 77 79 80 90 92 93 94 95 106 109 110 114 115 117 122 123 124 126 136 141 142 146 148 149 151 153 154 155 156 157 158 159 160 161 162 163 164 165
275144	23 54 65 79 86 88 90 92 95 97 98 104 106 109 110 111 117 118 121 123 125 126 128 129 131 132 136 137 138 140 142 145 146 147 151 152 153 154 155 156 157 158 159 161 162 163 164 165
281719	23 54 62 74 75 79 82 85 86 90 91 92 95 98 100 104 106 109 110 111 115 117 118 121 122 123 125 126 128 129 131 133 135 136 137 138 142 145 146 147 148 149 151 153 154 155 156 157 158 159 160 161 162 163 164 165
154320	19 32 33 47 51 54 55 57 58 59 60 61 64 65 67 72 73 74 75 79 80 81 83 86 88 90 91 92 94 95 96 98 100 102 104 105 106 108 110 111 112 115 116 117 120 121 122 124 125 128 129 130 131 132 133 136 137 138 140 141 142 143 145 146 147 148 149 150 151 152 153 154 155 156 158 159 160 161 162 163 164 165
156380	37 42 54 57 65 77 79 82 83 87 90 91 92 95 96 100 104 105 106 107 110 111 117 118 120 121 125 128 129 131 133 134 135 137 138 142 145 147 151 152 153 154 155 156 158 159 161 162 163 164 165
309992	23 36 41 54 66 74 79 81 82 83 88 90 91 92 95 96 100 104 105 106 110 111 112 117 123 125 126 128 131 136 137 141 142 146 149 151 152 153 154 155 156 157 158 159 160 161 162 163 164 165
154358	42 54 75 79 83 85 86 87 90 91 92 93 95 96 97 100 104 105 107 110 111 113 116 117 118 121 122 125 126 128 129 131 134 135 136 137 138 139 140 142 143 144 145 146 147 148 149 151 152 153 154 155 156 157 158 159 160 161 162 163 164 165
585855	37 42 54 57 66 74 75 77 79 83 85 86 87 90 91 92 95 96 98 100 104 105 106 107 108 109 110 111 112 115 117 118 120 121 122 125 128 129 131 132 134 135 136 137 138 141 142 144 145 146 147 148 149 151 153 154 155 156 157 158 159 160 161 162 163 164 165
118912	23 49 54 74 75 79 80 83 84 85 86 90 91 92 93 95 96 97 100 104 106 109 110 111 115 116 117 121 122 123 126 128 129 131 132 133 136 137 138 140 141 142 143 146 148 149 150 151 152 153 154 155 156 157 158 159 160 161 162 163 164 165
62214	23 54 74 79 86 88 90 92 93 95 104 106 109 110 111 115 116 117 123 126 131 136 138 140 141 142 146 147 149 151 153 154 155 156 157 158 159 160 161 162 163 164 165
967436	23 41 52 77 79 80 90 91 92 93 94 95 104 106 108 109 110 111 117 118 122 123 124 126 128 129 136 142 145 146 147 148 149 151 153 154 155 156 157 158 159 160 161 162 163 164 165
967437	23 41 52 77 79 80 90 92 93 94 95 104 106 108 109 110 111 113 117 122 123 124 125 126 131 136 139 140 142 143 145 146 148 149 151 152 153 154 155 156 157 158 159 160 161 162 163 164 165
967438	37 41 43 52 74 77 79 80 82 90 91 92 93 94 95 100 104 106 108 110 111 115 117 122 124 131 136 141 142 148 149 151 153 154 155 156 158 159 160 161 162 163 164 165
967439	37 41 43 52 74 77 79 80 91 92 93 94 95 104 106 108 110 111 115 117 122 124 131 133 135 136 141 142 148 149 151 154 155 156 158 159 160 161 162 163 164 165
967440	37 38 41 43 52 57 62 65 71 74 77 79 80 82 83 90 91 92 93 94 95 96 97 100 102 104 106 108 110 111 115 117 120 121 122 124 125 130 131 136 137 141 142 146 148 149 151 153 154 155 156 158 159 160 161 162 163 164 165
152339	37 42 54 57 65 75 77 79 83 85 86 87 90 91 92 95 96 100 104 105 106 107 108 110 111 115 117 118 120 121 122 125 128 129 131 133 134 135 137 138 142 144 145 147 148 151 152 153 154 155 156 158 159 160 161 162 163 164 165
275223	25 43 49 53 54 62 77 78 79 82 84 88 90 91 92 95 100 104 105 106 110 111 117 118 119 125 128 131 132 136 138 140 142 145 146 147 151 153 154 155 156 158 159 161 162 163 164 165
388912	32 33 51 54 55 57 58 60 61 66 67 69 72 73 74 79 81 83 88 89 90 91 92 94 95 96 97 102 104 106 108 109 110 111 112 114 115 116 117 118 124 128 129 130 131 132 133 135 136 137 140 141 142 143 146 147 148 149 150 151 152 153 154 155 156 157 158 159 160 161 162 163 164 165
138018	41 49 62 74 75 79 82 84 85 86 90 91 92 98 100 104 110 111 115 117 118 120 121 122 125 128 129 131 133 135 137 138 142 145 147 148 149 151 153 154 155 156 158 160 161 162 163 164 165
154758	42 54 75 79 83 85 86 87 90 91 92 93 95 96 97 100 104 105 107 109 110 111 113 116 117 118 121 122 125 126 128 129 131 134 135 136 137 138 140 142 143 144 145 146 147 148 149 151 152 153 154 155 156 157 158 159 160 161 162 163 164 165
338731	23 42 54 57 72 79 82 83 86 89 90 91 92 95 96 100 104 106 107 109 110 111 112 113 115 117 118 123 126 127 128 129 131 132 133 134 135 136 137 138 140 142 143 145 146 147 151 152 153 154 155 156 157 158 159 160 161 162 163 164 165
187184	42 54 57 75 79 82 85 86 90 91 92 95 96 98 100 104 106 107 109 110 111 112 113 117 118 120 121 122 125 126 128 129 131 132 133 134 135 136 137 138 140 142 143 145 146 147 148 151 152 153 154 155 156 157 158 159 161 162 163 164 165
387889	32 33 51 54 55 57 58 59 60 61 64 66 67 69 72 73 79 81 83 88 89 90 91 92 94 95 96 97 102 104 106 108 109 110 111 112 114 115 116 117 118 124 125 128 129 130 131 132 133 135 136 137 140 142 143 145 146 147 148 149 150 151 152 153 154 155 156 157 158 159 160 161 162 163 164 165
154418	42 54 74 75 79 82 83 85 86 87 90 91 92 95 96 100 104 105 107 110 111 115 117 118 121 122 125 128 129 131 134 135 136 137 138 141 142 144 145 147 148 149 151 153 154 155 156 158 159 160 161 162 163 164 165
164659	37 42 54 57 75 77 79 82 85 86 90 91 92 95 98 100 104 106 107 109 110 111 112 113 115 117 118 120 121 122 126 128 129 131 132 133 134 135 136 137 138 140 142 143 145 146 147 148 151 152 153 154 155 156 157 158 159 160 161 162 163 164 165
156468	37 42 54 57 65 77 79 82 83 87 90 91 92 95 96 100 103 104 105 106 107 110 111 117 118 120 121 125 128 129 131 133 134 135 137 138 142 145 147 151 152 153 154 155 156 158 159 161 162 163 164 165
154426	19 32 33 47 51 54 55 57 58 59 60 61 64 65 67 72 73 74 75 79 80 81 83 88 90 92 94 95 96 98 100 102 104 105 106 110 111 112 115 116 117 120 121 122 124 125 128 129 130 131 132 133 136 137 140 141 142 143 145 146 147 148 149 150 151 152 153 154 155 156 158 159 160 161 162 163 164 165
600892	36 41 47 49 62 65 74 75 77 79 80 81 82 83 85 86 88 90 91 92 93 96 100 104 106 108 110 111 115 116 117 120 121 122 125 128 129 131 133 135 137 138 141 142 145 147 148 149 151 153 154 155 156 158 160 161 162 163 164 165
602941	23 54 74 75 79 80 85 86 90 91 92 95 98 100 104 106 109 110 111 115 117 121 122 123 125 126 128 129 131 132 133 136 137 138 140 141 142 143 145 146 147 148 149 150 151 152 153 154 155 156 157 158 159 160 161 162 163 164 165
629566	23 54 79 86 88 90 92 95 104 106 108 109 110 111 114 117 123 125 126 128 129 131 132 136 138 140 142 145 146 147 151 152 153 154 155 156 157 158 159 160 161 162 163 164 165
525453	23 41 52 74 77 79 80 90 92 93 94 95 104 106 108 109 110 111 115 117 122 123 124 126 136 141 142 146 148 149 151 153 154 155 156 157 158 159 160 161 162 163 164 165
62292	53 54 72 79 82 84 90 91 92 95 97 104 109 110 111 114 115 116 117 128 129 131 132 136 139 140 141 142 146 147 149 151 152 153 154 155 156 157 158 159 160 161 162 163 164 165
160604	23 42 54 57 79 82 86 89 90 91 92 95 98 100 104 106 107 109 110 111 112 113 115 117 118 123 126 127 128 129 131 132 133 134 135 136 137 138 140 142 143 145 146 147 151 152 153 154 155 156 157 158 159 160 161 162 163 164 165
295398	42 54 79 82 87 90 91 92 93 95 100 104 107 110 111 113 117 125 126 128 131 133 134 135 136 138 142 143 144 145 146 147 149 150 151 152 153 154 155 156 157 158 159 160 161 162 163 164 165
424807	32 33 38 51 54 55 57 58 60 61 65 66 67 69 72 73 77 79 80 83 88 89 90 91 92 93 94 95 96 97 98 102 104 106 108 109 110 111 112 114 115 116 117 118 120 121 124 128 129 130 131 132 133 135 136 137 140 141 142 143 146 147 148 149 150 151 152 153 154 155 156 157 158 159 160 161 162 163 164 165
64361	23 54 74 75 79 80 85 90 92 95 97 98 100 104 106 108 109 110 111 116 117 121 122 123 125 126 127 129 131 132 133 136 137 138 140 142 143 145 146 148 149 150 151 152 153 154 155 156 157 158 159 160 161 162 163 164 165
387963	32 33 51 54 55 57 58 60 61 64 66 67 69 72 73 79 81 83 88 89 90 91 92 94 95 96 97 102 104 106 108 109 110 111 112 114 115 116 117 118 124 128 129 130 131 132 133 135 136 137 140 142 143 145 146 147 148 149 150 151 152 153 154 155 156 157 158 159 160 161 162 163 164 165
347018	37 42 54 57 65 77 79 82 83 87 90 91 92 95 96 100 104 105 106 107 110 111 117 118 120 121 125 128 129 131 133 134 135 137 138 142 145 147 151 152 153 154 155 156 158 159 161 162 163 164 165
150416	41 49 54 62 66 74 75 79 80 82 84 85 86 90 91 92 95 98 100 104 108 110 111 112 117 118 121 122 125 128 129 131 133 135 136 137 138 141 142 145 147 148 149 151 153 154 155 156 158 159 160 161 162 163 164 165
306079	42 49 54 75 79 82 83 84 85 86 87 90 91 92 93 95 96 100 104 105 107 110 111 113 117 118 121 122 125 126 128 129 131 134 135 136 137 138 142 143 144 145 146 147 148 151 152 153 154 155 156 157 158 159 160 161 162 163 164 165
185248	42 54 57 75 79 82 85 86 90 92 95 98 100 104 106 107 109 110 111 112 113 115 117 118 120 121 122 126 128 129 131 132 133 134 135 136 137 138 140 142 143 145 146 147 148 151 152 153 154 155 156 157 158 159 160 161 162 163 164 165
347049	19 32 33 47 51 54 55 57 58 59 60 61 64 65 67 72 73 74 75 79 80 81 83 86 88 90 91 92 94 95 96 98 100 102 104 105 106 108 110 111 112 115 117 120 121 122 124 125 128 129 130 131 132 133 136 137 138 140 141 142 143 145 146 148 149 150 151 152 153 154 155 156 158 159 160 161 162 163 164 165
154542	54 74 75 79 82 83 85 86 90 91 92 95 96 100 104 105 110 111 115 117 118 121 122 125 128 129 131 135 136 137 138 141 142 144 145 147 148 149 151 153 154 155 156 158 159 160 161 162 163 164 165
162740	36 41 47 49 62 65 74 75 77 79 81 82 83 85 86 88 90 91 92 93 96 98 100 104 106 110 111 115 116 117 118 120 121 122 125 128 129 131 133 135 137 138 141 142 145 147 148 149 151 153 154 155 156 158 160 161 162 163 164 165
506822	28 57 62 65 72 83 84 92 96 97 98 105 109 110 113 117 120 121 123 125 126 133 135 137 140 142 143 144 145 146 151 152 153 154 156 157 158 159 160 161 162 163 164 165
62407	49 53 54 72 79 82 84 90 91 92 95 97 100 104 109 110 111 114 115 117 125 128 129 131 132 136 138 139 140 142 145 146 147 149 151 152 153 154 155 156 157 158 159 160 161 162 163 164 165
31694	8 11 23 54 66 79 89 90 91 92 95 97 104 106 109 110 111 112 113 117 118 121 123 125 126 127 128 129 131 133 136 137 140 142 143 145 146 147 150 151 152 153 154 155 156 157 158 159 161 162 163 164 165
154588	19 32 33 47 51 54 55 57 58 59 60 61 64 65 67 72 73 74 75 79 80 81 83 86 88 90 91 92 94 95 96 98 100 102 104 105 106 108 110 111 112 115 116 117 120 121 122 124 125 128 129 130 131 132 133 136 137 138 140 141 142 143 145 146 147 148 149 150 151 152 153 154 155 156 158 159 160 161 162 163 164 165
150500	54 79 82 90 91 92 93 95 100 104 110 111 113 117 125 126 128 131 133 135 136 138 140 141 142 143 145 146 147 149 151 152 153 154 155 156 157 158 159 160 161 162 163 164 165
148454	54 79 82 91 92 93 95 100 104 110 111 113 117 125 126 131 133 135 136 138 142 143 145 146 147 149 151 152 153 154 155 156 157 158 159 160 161 162 163 164 165
150503	54 79 82 90 91 92 93 95 100 104 110 111 113 117 118 125 126 128 129 131 133 135 136 138 142 143 145 146 147 149 151 152 153 154 155 156 157 158 159 160 161 162 163 164 165
185322	42 54 57 75 79 82 85 86 90 92 95 98 100 104 106 107 109 110 111 112 113 114 116 117 118 120 121 122 126 128 129 131 132 133 134 135 136 137 138 140 142 143 145 146 147 148 151 152 153 154 155 156 157 158 159 160 161 162 163 164 165
970919	36 37 38 41 43 54 57 62 65 71 74 77 79 81 82 83 88 90 91 92 94 95 96 97 100 102 104 106 110 111 115 117 120 121 124 125 128 131 133 135 136 137 142 146 149 151 153 154 155 156 158 159 160 161 162 163 164 165
125933	23 54 62 75 79 82 85 86 88 90 91 92 93 95 98 100 104 106 109 110 111 115 116 117 118 121 122 123 125 126 128 129 131 133 135 136 137 138 142 145 146 147 148 151 153 154 155 156 157 158 159 160 161 162 163 164 165
62449	23 53 54 72 79 82 90 91 92 95 97 104 106 109 110 111 114 115 117 123 125 126 128 129 131 132 136 138 139 140 142 145 146 147 149 151 152 153 154 155 156 157 158 159 160 161 162 163 164 165
304120	37 42 54 57 65 75 77 79 83 85 86 87 90 91 92 95 96 97 100 104 105 106 107 109 110 111 117 118 120 121 122 125 126 128 129 131 133 134 135 137 138 142 144 145 146 147 148 151 152 153 154 155 156 157 158 159 161 162 163 164 165
592889	53 54 65 66 72 74 75 79 80 83 85 90 91 92 95 96 97 98 100 101 104 105 110 111 112 114 115 117 118 120 121 122 125 128 129 131 136 137 140 141 142 145 146 147 148 149 150 151 152 153 154 155 156 158 159 160 161 162 163 164 165
64508	23 54 72 74 79 86 90 92 93 95 97 104 106 109 110 111 115 117 123 125 126 128 129 131 132 136 138 140 141 142 145 146 147 149 151 152 153 154 155 156 157 158 159 160 161 162 163 164 165
383998	32 33 36 47 51 54 55 57 58 59 60 61 64 65 66 67 69 72 73 79 80 81 83 88 89 90 91 92 94 95 96 97 102 104 106 108 109 110 111 112 114 115 116 117 118 120 121 124 125 128 129 130 131 132 133 135 136 137 140 141 142 143 144 146 147 148 149 150 151 152 153 154 155 156 157 158 159 160 161 162 163 164 165
347135	54 79 82 90 91 92 93 95 100 104 110 111 113 117 118 125 126 127 128 129 131 133 135 136 138 140 142 143 145 146 147 151 152 153 154 155 156 157 158 159 160 161 162 163 164 165
273415	23 41 54 79 82 90 91 92 95 100 104 106 109 110 111 117 123 125 126 128 131 136 138 142 145 146 151 153 154 155 156 157 158 159 161 162 163 164 165
424450	32 33 51 54 55 57 58 60 61 66 67 69 72 73 79 83 88 89 90 91 92 94 95 96 97 102 104 106 108 109 110 111 112 114 115 116 117 118 124 128 129 130 131 132 133 135 136 137 138 140 141 142 143 146 147 148 149 150 151 152 153 154 155 156 157 158 159 160 161 162 163 164 165
310445	54 74 79 82 87 90 91 92 95 100 103 104 107 110 111 115 117 125 128 131 133 134 135 136 138 141 142 145 147 149 151 153 154 155 156 158 159 160 161 162 163 164 165
967696	36 37 38 41 43 52 57 62 65 71 74 77 79 80 81 83 88 91 92 93 94 95 96 97 102 104 106 108 110 111 115 117 120 121 122 124 125 130 131 133 135 136 137 141 142 146 148 149 151 154 155 156 158 159 160 161 162 163 164 165
3093	19 23 54 74 75 79 80 85 86 90 91 92 95 100 104 106 109 110 111 115 117 121 122 123 125 126 128 129 131 132 133 136 137 138 140 141 142 143 145 146 147 148 149 150 151 152 153 154 155 156 157 158 159 160 161 162 163 164 165
148504	54 79 82 87 90 91 92 93 95 100 103 104 107 110 111 113 117 125 126 128 131 133 134 135 136 138 142 143 145 146 147 149 151 152 153 154 155 156 157 158 159 160 161 162 163 164 165
646178	54 74 75 79 82 83 85 86 87 90 91 92 95 96 100 103 104 105 107 110 111 115 117 118 121 122 125 128 129 131 134 135 136 137 138 141 142 144 145 147 148 149 151 153 154 155 156 158 159 160 161 162 163 164 165
164901	23 42 57 72 75 79 83 85 86 87 91 92 95 96 97 98 100 104 105 106 107 109 110 111 117 118 120 121 122 123 125 126 128 129 132 134 135 136 137 138 140 142 144 145 146 147 148 151 152 153 154 155 156 157 158 159 161 162 163 164 165
314410	42 54 57 75 79 82 85 86 90 91 92 95 96 98 100 104 106 107 108 109 110 111 112 113 114 115 117 118 120 121 122 126 128 129 131 132 133 134 135 136 137 138 140 142 143 145 146 147 148 151 152 153 154 155 156 157 158 159 160 161 162 163 164 165
154668	42 54 75 79 82 83 85 86 87 90 91 92 93 95 96 97 100 104 105 107 109 110 111 113 117 118 121 122 125 126 128 129 131 134 135 136 137 138 139 140 142 143 144 145 146 147 148 151 152 153 154 155 156 157 158 159 160 161 162 163 164 165
308274	37 54 57 65 77 79 82 83 87 90 91 92 93 95 96 100 103 104 105 106 107 110 111 113 115 117 118 120 121 125 126 128 129 131 133 134 135 137 142 143 145 146 147 149 151 152 153 154 155 156 157 158 159 160 161 162 163 164 165
105538	25 43 49 54 62 77 78 79 82 84 86 88 90 91 92 93 95 100 104 106 110 111 115 117 119 125 128 131 132 136 138 140 142 145 146 147 151 153 154 155 156 158 159 160 161 162 163 164 165
105541	25 43 49 54 62 77 78 79 82 84 90 91 92 95 100 104 106 110 111 114 115 117 118 119 125 128 131 132 136 138 140 142 145 146 147 151 153 154 155 156 158 159 160 161 162 163 164 165
374969	32 33 51 54 55 57 58 60 61 66 67 69 72 73 79 83 88 89 90 91 92 94 95 96 97 102 104 106 108 109 110 111 112 114 115 116 117 118 124 125 128 129 130 131 132 133 135 136 137 138 140 142 143 145 146 147 148 149 150 151 152 153 154 155 156 157 158 159 160 161 162 163 164 165
107618	25 43 49 53 54 62 65 77 78 79 82 83 84 88 90 91 92 95 96 100 104 105 106 110 111 117 118 119 121 125 128 131 132 136 137 138 140 142 145 146 147 151 153 154 155 156 158 159 161 162 163 164 165
64616	49 53 54 72 74 79 82 84 90 91 92 95 97 100 104 109 110 111 115 117 125 128 129 131 132 136 138 139 140 142 145 146 147 149 151 152 153 154 155 156 157 158 159 160 161 162 163 164 165
207986	54 79 82 90 91 92 93 95 100 104 105 110 111 113 117 118 125 126 128 129 131 133 135 136 138 142 143 145 146 147 151 152 153 154 155 156 157 158 159 160 161 162 163 164 165
156789	37 51 54 55 57 58 59 60 61 64 65 67 73 77 79 81 82 83 87 88 90 91 92 93 95 96 100 102 103 104 105 106 107 110 111 112 115 117 118 120 121 124 125 128 129 130 131 133 134 135 136 137 140 142 145 146 147 148 149 151 152 153 154 155 156 158 159 160 161 162 163 164 165
148599	54 79 82 90 91 92 93 95 100 104 105 110 111 113 117 125 126 128 131 133 135 136 138 142 143 145 146 147 149 151 152 153 154 155 156 157 158 159 160 161 162 163 164 165
283782	49 54 62 79 82 84 86 88 90 91 92 93 95 100 104 110 111 115 117 118 125 128 131 132 136 138 140 142 145 146 147 151 153 154 155 156 158 159 160 161 162 163 164 165
390280	32 33 51 54 55 57 58 60 61 66 67 69 72 73 79 83 88 89 90 91 92 93 94 95 96 97 102 104 106 108 109 110 111 112 114 115 116 117 118 124 128 129 130 131 132 133 135 136 137 140 141 142 143 146 147 148 149 150 151 152 153 154 155 156 157 158 159 160 161 162 163 164 165
248973	53 54 65 66 72 74 75 79 80 83 85 90 91 92 95 96 97 98 100 101 104 105 110 111 112 114 115 117 118 120 121 122 128 129 131 136 137 140 141 142 146 147 148 149 150 151 152 153 154 155 156 158 159 160 161 162 163 164 165
162960	42 54 57 62 72 79 82 83 87 90 91 92 95 96 100 104 106 107 110 111 112 113 117 118 125 126 128 129 131 133 134 135 136 137 138 140 142 143 145 146 147 151 152 153 154 155 156 157 158 159 161 162 163 164 165
584850	23 54 74 75 79 80 83 85 86 90 91 92 95 96 97 100 104 106 109 110 111 115 117 121 122 123 125 126 128 129 131 132 133 136 137 138 140 141 142 143 145 146 148 149 150 151 152 153 154 155 156 157 158 159 160 161 162 163 164 165
187540	42 54 57 74 75 79 82 85 86 90 91 92 95 98 100 104 106 107 109 110 111 112 113 116 117 118 120 121 122 125 126 128 129 131 132 133 134 135 136 137 138 140 142 143 145 146 147 148 149 151 152 153 154 155 156 157 158 159 160 161 162 163 164 165
79011	23 54 74 75 79 80 83 85 86 90 91 92 95 96 97 100 104 106 109 110 111 113 115 117 121 122 123 125 126 127 129 131 132 133 136 137 138 140 142 143 145 146 148 149 150 151 152 153 154 155 156 157 158 159 160 161 162 163 164 165
29869	23 54 57 72 74 79 83 86 89 90 91 92 95 96 97 104 106 109 110 111 115 117 123 126 129 131 132 133 136 137 138 140 142 143 146 149 150 151 152 153 154 155 156 157 158 159 160 161 162 163 164 165
523438	28 57 62 65 72 83 84 96 98 105 109 113 120 121 123 125 133 135 137 142 144 145 151 152 153 156 157 158 159 160 161 162 163 164 165
154806	19 32 33 47 51 54 55 57 58 59 60 61 64 65 67 72 73 74 75 79 80 81 83 86 88 90 91 92 94 95 96 98 100 102 104 105 106 108 110 111 112 115 116 117 120 121 122 124 125 128 129 130 131 132 133 136 137 138 140 141 142 143 145 146 147 148 149 150 151 152 153 154 155 156 158 159 160 161 162 163 164 165
68795	37 45 49 51 52 54 55 57 58 59 60 61 64 67 73 75 77 79 81 86 88 89 90 91 92 94 95 97 98 99 100 102 104 105 106 109 110 111 112 117 118 120 121 122 124 125 128 129 130 131 132 133 136 137 138 140 142 145 146 147 148 151 153 154 155 156 157 158 159 161 162 163 164 165
277699	23 54 74 75 79 80 83 85 86 90 91 92 95 96 97 100 104 106 109 110 111 115 116 117 121 122 123 126 129 131 132 133 136 137 138 140 141 142 143 146 148 149 150 151 152 153 154 155 156 157 158 159 160 161 162 163 164 165
967878	36 37 38 41 43 52 57 62 65 71 74 77 79 80 81 82 83 88 90 91 92 93 94 95 96 97 100 102 104 106 108 110 111 115 117 120 121 122 124 125 130 131 136 137 141 142 146 148 149 151 153 154 155 156 158 159 160 161 162 163 164 165
163027	42 54 57 72 79 82 83 90 91 92 95 96 100 104 106 107 109 110 111 112 113 115 117 118 126 128 129 131 132 133 134 135 136 137 138 140 142 143 145 146 147 151 152 153 154 155 156 157 158 159 160 161 162 163 164 165
163030	23 42 54 57 72 74 75 79 82 85 86 91 92 95 98 100 104 106 107 109 110 111 112 113 116 117 118 120 121 122 123 126 128 129 131 132 133 134 135 136 137 138 140 142 143 145 146 147 148 149 151 152 153 154 155 156 157 158 159 160 161 162 163 164 165
310487	37 42 54 57 66 74 75 77 79 83 85 86 87 90 91 92 95 96 98 100 104 105 106 107 109 110 111 112 115 116 117 118 120 121 122 125 128 129 131 132 134 135 136 137 138 141 142 144 145 146 147 148 149 150 151 153 154 155 156 157 158 159 160 161 162 163 164 165
187609	42 54 57 74 75 79 82 85 86 90 91 92 95 98 100 104 106 107 109 110 111 112 113 116 117 118 120 121 122 125 126 128 129 131 132 133 134 135 136 137 138 140 142 143 145 146 147 148 149 151 152 153 154 155 156 157 158 159 160 161 162 163 164 165
414944	32 33 51 54 55 57 58 60 61 66 67 69 72 73 79 83 88 89 90 91 92 93 94 95 96 97 102 104 106 108 109 110 111 112 114 115 116 117 118 124 128 129 130 131 132 133 135 136 137 140 141 142 143 144 146 147 148 149 150 151 152 153 154 155 156 157 158 159 160 161 162 163 164 165
347003	19 32 33 47 51 54 55 57 58 59 60 61 64 65 67 72 73 74 75 79 80 81 83 86 88 90 91 92 94 95 96 98 100 102 104 105 106 108 110 111 112 115 117 120 121 122 124 125 128 129 130 131 132 133 136 137 138 140 141 142 143 145 146 148 149 150 151 152 153 154 155 156 158 159 160 161 162 163 164 165
187620	42 54 57 75 79 82 85 86 90 91 92 95 98 100 104 106 107 109 110 111 112 113 117 118 120 121 122 125 126 128 129 131 132 133 134 135 136 137 138 140 142 143 145 146 147 148 151 152 153 154 155 156 157 158 159 161 162 163 164 165
517350	26 45 50 52 62 69 72 75 76 84 92 93 94 95 98 99 105 109 110 113 117 121 122 124 125 126 127 133 137 138 140 142 143 145 146 148 150 151 152 153 154 155 156 157 158 159 160 161 162 163 164 165
185580	42 57 75 79 83 85 86 87 90 91 92 95 96 98 100 104 105 107 108 109 110 111 115 117 118 120 121 122 125 128 129 132 134 135 136 137 138 142 144 145 146 147 148 151 153 154 155 156 157 158 159 160 161 162 163 164 165
380142	32 33 51 54 55 57 58 59 60 61 64 66 67 69 72 73 79 81 83 84 88 89 90 91 92 94 95 96 97 102 104 106 108 109 110 111 112 114 115 116 117 118 124 125 128 129 130 131 132 133 135 136 137 140 142 143 145 146 147 148 149 150 151 152 153 154 155 156 157 158 159 160 161 162 163 164 165
380143	32 33 51 54 55 57 58 59 60 61 64 66 67 69 72 73 79 81 83 88 89 90 91 92 93 94 95 96 97 102 104 106 108 109 110 111 112 113 114 115 116 117 118 124 125 126 127 128 129 130 131 132 133 135 136 137 140 141 142 143 145 146 147 148 149 150 151 152 153 154 155 156 157 158 159 160 161 162 163 164 165
302326	37 42 51 54 55 57 58 60 61 67 73 75 77 79 82 85 86 88 90 91 92 93 95 98 100 102 104 106 107 109 110 111 112 113 115 116 117 118 120 121 122 124 126 128 129 130 131 132 133 134 135 136 137 138 140 142 143 145 146 147 148 151 152 153 154 155 156 157 158 159 160 161 162 163 164 165
381481	32 33 42 51 54 55 57 58 59 60 61 64 66 67 69 72 73 79 81 83 87 88 89 90 91 92 94 95 96 97 102 104 106 107 108 109 110 111 112 114 115 116 117 118 124 125 128 129 130 131 132 133 134 135 136 137 140 142 143 145 146 147 148 149 150 151 152 153 154 155 156 157 158 159 160 161 162 163 164 165
333050	23 54 75 79 80 85 86 90 92 95 97 98 100 104 106 109 110 111 117 121 122 123 125 126 127 129 131 132 133 136 137 138 140 142 143 145 146 148 150 151 152 153 154 155 156 157 158 159 161 162 163 164 165
123093	23 54 62 75 79 82 85 86 90 91 92 95 98 100 104 106 109 110 111 113 117 118 121 122 123 125 126 128 129 131 133 135 136 137 138 139 140 142 143 145 146 147 148 151 152 153 154 155 156 157 158 159 161 162 163 164 165
148749	25 46 54 62 65 75 77 79 80 82 85 86 87 90 91 92 93 95 97 98 100 104 106 107 110 111 113 117 118 120 121 122 125 126 128 129 131 133 134 135 136 137 138 142 143 145 146 147 148 151 152 153 154 155 156 157 158 159 160 161 162 163 164 165
70928	37 45 49 51 52 54 55 57 58 59 60 61 64 67 73 75 77 79 81 86 88 89 90 91 92 94 95 97 98 99 100 102 104 106 109 110 111 112 117 118 120 121 122 124 125 128 129 130 131 132 133 136 137 138 140 142 145 146 147 148 151 153 154 155 156 157 158 159 161 162 163 164 165
419093	32 33 38 51 54 55 57 58 59 60 61 64 65 66 67 69 72 73 77 79 80 81 83 88 89 90 91 92 94 95 96 97 98 102 104 106 108 109 110 111 112 114 115 116 117 118 120 121 124 125 128 129 130 131 132 133 135 136 137 140 142 143 145 146 147 148 149 150 151 152 153 154 155 156 157 158 159 160 161 162 163 164 165
118039	23 54 66 74 79 81 88 90 92 95 104 106 109 110 111 112 116 117 123 125 126 129 131 132 136 138 140 141 142 145 146 149 151 152 153 154 155 156 157 158 159 160 161 162 163 164 165
220449	23 53 54 74 79 80 82 90 91 92 95 100 104 106 109 110 111 115 117 123 125 126 128 131 132 136 138 140 141 142 145 146 149 151 152 153 154 155 156 157 158 159 160 161 162 163 164 165
359716	19 23 42 62 75 78 79 80 85 87 89 90 92 93 95 97 99 100 103 104 105 106 107 109 110 111 112 117 119 120 121 122 123 125 126 128 131 132 133 134 135 136 137 138 140 142 143 144 145 146 147 148 150 151 153 154 155 156 157 158 159 160 161 162 163 164 165
412978	32 33 41 51 54 55 57 58 59 60 61 64 66 67 69 72 73 79 81 83 88 89 90 91 92 94 95 96 97 102 104 106 108 109 110 111 112 114 115 116 117 118 124 125 128 129 130 131 132 133 135 136 137 140 142 143 145 146 147 148 149 150 151 152 153 154 155 156 157 158 159 160 161 162 163 164 165
224564	19 32 33 47 51 54 55 57 58 59 60 61 64 65 67 72 73 74 75 79 80 81 83 86 88 90 91 92 94 95 96 98 100 102 104 105 106 110 111 112 115 117 120 121 122 124 125 128 129 130 131 132 133 136 137 138 140 142 143 145 146 147 148 149 150 151 152 153 154 155 156 158 159 160 161 162 163 164 165
163127	36 41 47 49 54 62 65 74 75 79 81 82 83 84 85 86 88 90 91 92 96 98 100 104 110 111 115 117 118 120 121 122 125 128 129 131 137 138 142 145 147 148 149 151 153 154 155 156 158 160 161 162 163 164 165
406844	19 23 42 62 75 78 79 80 82 85 87 89 90 92 95 97 99 100 103 104 105 106 107 108 109 110 111 112 117 119 120 121 122 123 125 126 128 129 131 132 133 134 135 136 137 138 140 142 143 144 145 146 148 150 151 152 153 154 155 156 157 158 159 160 161 162 163 164 165
423249	32 33 51 54 55 57 58 60 61 66 67 69 72 73 79 83 87 88 89 90 91 92 93 94 95 96 97 102 103 104 106 107 108 109 110 111 112 114 115 116 117 118 124 128 129 130 131 132 133 134 135 136 137 140 141 142 143 144 146 147 148 149 150 151 152 153 154 155 156 157 158 159 160 161 162 163 164 165
605523	53 54 65 79 80 82 83 90 91 92 93 95 96 100 104 105 110 111 113 117 121 125 126 128 131 133 135 136 137 138 142 143 145 146 147 149 151 152 153 154 155 156 157 158 159 160 161 162 163 164 165
386276	22 32 33 51 54 55 57 58 60 61 64 66 67 69 72 73 79 81 83 88 89 90 91 92 94 95 96 97 102 104 106 108 109 110 111 112 114 115 116 117 118 124 128 129 130 131 132 133 135 136 137 140 142 143 146 147 148 149 150 151 152 153 154 155 156 157 158 159 160 161 162 163 164 165
648550	32 33 41 51 54 55 57 58 59 60 61 64 66 67 69 72 73 79 81 83 88 89 90 91 92 94 95 96 97 102 104 106 108 109 110 111 112 114 115 116 117 118 124 125 128 129 130 131 132 133 135 136 137 140 142 143 145 146 147 148 149 150 151 152 153 154 155 156 157 158 159 160 161 162 163 164 165
605546	36 47 54 65 79 81 82 83 88 90 91 92 93 95 96 100 104 110 111 113 117 120 121 125 126 128 131 133 135 136 137 138 142 143 145 146 147 149 151 152 153 154 155 156 157 158 159 160 161 162 163 164 165
302444	42 54 75 79 83 85 86 87 90 91 92 93 95 96 100 104 105 107 110 111 113 117 118 121 122 125 126 127 128 129 131 134 135 136 137 138 139 140 142 143 144 145 146 147 148 151 152 153 154 155 156 157 158 159 160 161 162 163 164 165
515455	23 41 52 77 79 80 90 92 93 94 95 104 106 108 109 110 111 117 122 123 124 125 126 136 142 145 146 148 149 151 153 154 155 156 157 158 159 160 161 162 163 164 165
388484	32 33 51 54 55 57 58 60 61 66 67 72 73 79 81 83 88 89 90 91 92 93 94 95 96 97 102 104 106 108 109 110 111 112 114 115 116 117 118 122 124 128 129 130 131 132 133 135 136 137 140 141 142 143 146 147 148 149 150 151 152 153 154 155 156 157 158 159 160 161 162 163 164 165
304517	23 41 54 65 66 74 79 82 83 90 91 92 95 96 100 104 105 106 110 111 112 117 121 123 125 126 128 131 136 137 141 142 146 149 151 152 153 154 155 156 157 158 159 160 161 162 163 164 165
380140	32 33 42 51 54 55 57 58 59 60 61 64 66 67 69 72 73 79 81 83 87 88 89 90 91 92 94 95 96 97 102 104 106 107 108 109 110 111 112 114 115 116 117 118 124 125 128 129 130 131 132 133 134 135 136 137 140 142 143 145 146 147 148 149 150 151 152 153 154 155 156 157 158 159 160 161 162 163 164 165
581529	14 51 58 60 61 67 73 81 88 102 108 114 115 116 118 124 128 129 130 132 138 147 148 149 153 155 160 164
185752	42 51 54 55 57 58 60 61 67 73 75 79 82 85 86 88 90 91 92 93 95 98 100 102 104 106 107 109 110 111 112 113 115 116 117 118 120 121 122 124 126 128 129 130 131 132 133 134 135 136 137 138 140 142 143 145 146 147 148 151 152 153 154 155 156 157 158 159 160 161 162 163 164 165
105711	25 43 49 53 54 62 77 78 79 82 84 88 90 91 92 95 100 104 106 110 111 113 117 118 119 125 128 131 132 136 138 139 140 142 143 145 146 147 151 152 153 154 155 156 157 158 159 161 162 163 164 165
597404	25 43 49 53 54 62 77 78 79 82 84 88 90 91 92 95 100 104 106 110 111 117 118 119 125 128 131 132 136 138 140 142 145 146 147 151 153 154 155 156 158 159 161 162 163 164 165
308651	42 54 75 79 83 85 86 87 88 90 91 92 93 95 96 100 104 105 107 110 111 113 117 118 121 122 125 126 128 129 131 134 135 136 137 138 142 143 144 145 146 147 148 151 152 153 154 155 156 157 158 159 160 161 162 163 164 165
300460	37 42 54 57 65 66 74 75 77 79 83 85 86 87 90 91 92 95 96 100 103 104 105 106 107 108 110 111 112 115 117 118 120 121 122 125 128 129 131 133 134 135 137 138 141 142 144 145 147 148 149 151 152 153 154 155 156 158 159 160 161 162 163 164 165
206269	22 53 54 65 72 74 75 79 80 83 85 90 91 92 95 96 97 98 100 101 104 105 110 111 114 115 117 118 120 121 122 128 129 131 133 136 137 140 141 142 146 147 148 149 150 151 152 153 154 155 156 158 159 160 161 162 163 164 165
67006	23 54 79 86 88 90 92 95 104 106 109 110 111 117 123 125 126 128 129 131 132 136 138 140 142 145 146 147 151 152 153 154 155 156 157 158 159 161 162 163 164 165
306630	54 79 82 90 91 92 93 95 100 104 110 111 113 117 125 126 128 131 133 135 136 138 142 143 145 146 147 149 151 152 153 154 155 156 157 158 159 160 161 162 163 164 165
386637	32 33 36 51 54 55 57 58 59 60 61 64 66 67 69 72 73 79 81 83 88 89 90 91 92 94 95 96 97 102 104 106 108 109 110 111 112 114 115 116 117 118 120 124 125 128 129 130 131 132 133 135 136 137 140 142 143 146 147 148 149 150 151 152 153 154 155 156 157 158 159 160 161 162 163 164 165
148946	8 11 16 22 23 49 54 66 74 75 79 80 82 85 86 90 91 92 95 97 100 104 106 108 109 110 111 112 114 117 120 121 122 123 126 129 131 136 137 138 140 141 142 146 147 148 149 150 151 152 153 154 155 156 157 158 159 160 161 164 165
64982	23 54 75 79 80 85 86 90 92 95 97 98 100 104 106 108 109 110 111 114 115 117 121 122 123 125 126 127 128 129 131 132 133 136 137 138 140 142 143 145 146 147 148 150 151 152 153 154 155 156 157 158 159 160 161 162 163 164 165
384478	32 33 42 51 54 55 57 58 60 61 66 67 69 72 73 79 83 87 88 89 90 91 92 93 94 95 96 97 102 104 106 107 108 109 110 111 112 114 115 116 117 118 124 128 129 130 131 132 133 134 135 136 137 140 141 142 143 144 146 147 148 149 150 151 152 153 154 155 156 157 158 159 160 161 162 163 164 165
155105	19 32 33 47 51 54 55 57 58 59 60 61 64 65 67 72 73 74 75 79 80 81 83 86 88 90 91 92 94 95 96 98 100 102 104 105 106 108 110 111 112 115 117 120 121 122 124 125 128 129 130 131 132 133 136 137 138 140 141 142 143 145 146 148 149 150 151 152 153 154 155 156 158 159 160 161 162 163 164 165
378352	32 33 51 54 55 57 58 60 61 66 67 69 72 73 79 83 88 89 90 91 92 93 94 95 96 97 102 104 106 108 109 110 111 112 114 115 116 117 118 124 128 129 130 131 132 133 135 136 137 140 141 142 143 146 147 148 149 150 151 152 153 154 155 156 157 158 159 160 161 162 163 164 165
108046	25 43 49 53 54 62 77 78 79 82 84 88 90 91 92 95 100 104 106 110 111 117 118 119 125 128 129 131 132 136 138 140 142 145 146 147 151 153 154 155 156 158 159 161 162 163 164 165
599591	23 54 72 74 79 86 90 92 95 97 104 106 109 110 111 114 115 116 117 123 125 126 128 129 131 132 136 138 140 141 142 145 146 147 149 151 152 153 154 155 156 157 158 159 160 161 162 163 164 165
386600	32 33 36 47 51 54 55 57 58 59 60 61 64 65 66 67 69 72 73 79 81 83 88 89 90 91 92 94 95 96 97 102 104 106 108 109 110 111 112 114 115 116 117 118 120 121 124 125 128 129 130 131 132 133 135 136 137 140 141 142 143 146 147 148 149 150 151 152 153 154 155 156 157 158 159 160 161 162 163 164 165
157230	42 54 74 75 79 83 85 86 87 90 91 92 93 95 96 100 104 105 107 108 110 111 113 115 117 118 121 122 125 126 128 129 131 134 135 136 137 138 141 142 143 144 145 146 147 148 149 151 152 153 154 155 156 157 158 159 160 161 162 163 164 165
356275	42 54 57 75 79 82 85 86 90 92 95 98 100 104 106 107 109 110 111 112 113 117 118 120 121 122 125 126 128 129 131 132 133 134 135 136 137 138 140 142 143 145 146 147 148 151 152 153 154 155 156 157 158 159 161 162 163 164 165
337460	54 79 82 90 91 92 93 95 100 104 110 111 113 117 125 126 127 128 131 133 135 136 138 140 141 142 143 145 146 147 149 151 152 153 154 155 156 157 158 159 160 161 162 163 164 165
79419	23 49 53 54 65 74 75 79 80 82 83 85 86 90 91 92 95 96 97 98 100 104 106 108 109 110 111 115 117 120 121 122 123 125 126 128 129 131 132 133 136 137 138 140 141 142 143 145 146 148 149 150 151 152 153 154 155 156 157 158 159 160 161 162 163 164 165
108097	25 43 49 53 54 62 77 78 79 82 84 88 90 91 92 95 100 104 106 110 111 114 117 118 119 125 128 131 132 136 138 140 142 145 146 147 151 153 154 155 156 158 159 160 161 162 163 164 165
384579	32 33 47 51 54 55 57 58 59 60 61 64 65 66 67 69 72 73 79 81 83 88 89 90 91 92 94 95 96 97 98 102 104 106 108 109 110 111 112 114 115 116 117 118 120 121 124 125 128 129 130 131 132 133 135 136 137 140 142 143 145 146 147 148 149 150 151 152 153 154 155 156 157 158 159 160 161 162 163 164 165
411205	19 23 42 62 75 78 79 80 82 85 87 89 90 92 93 95 97 99 100 103 104 105 106 107 109 110 111 112 117 119 120 121 122 123 125 126 128 129 131 132 133 134 135 136 137 138 140 142 143 144 145 146 148 150 151 153 154 155 156 157 158 159 160 161 162 163 164 165
71244	37 45 49 51 52 54 55 57 58 59 60 61 64 67 73 74 75 77 79 81 86 88 89 90 91 92 94 95 97 98 99 100 102 104 106 109 110 111 112 115 117 118 120 121 122 124 125 128 129 130 131 132 133 136 137 138 140 142 145 146 147 148 149 151 153 154 155 156 157 158 159 160 161 162 163 164 165
142925	23 41 49 52 77 79 93 94 95 106 108 110 115 117 118 122 123 124 126 128 129 132 142 147 148 149 152 154 155 156 157 158 159 160 161 163 164 165
153167	19 32 33 47 51 54 55 57 58 59 60 61 64 65 67 72 73 74 75 79 80 81 83 88 90 92 94 95 96 98 100 102 104 105 106 110 111 112 115 116 117 120 121 122 124 125 128 129 130 131 132 133 136 137 140 141 142 143 145 146 147 148 149 150 151 152 153 154 155 156 158 159 160 161 162 163 164 165
271965	23 54 74 79 90 92 95 104 106 109 110 111 115 117 123 125 126 131 136 140 142 145 146 149 151 153 154 155 156 157 158 159 160 161 162 163 164 165
30309	8 11 23 54 66 79 89 90 91 92 95 97 104 106 109 110 111 112 117 118 121 123 126 127 128 129 131 133 136 137 140 142 143 145 146 147 150 151 153 154 155 156 157 158 159 160 161 162 163 164 165
386664	32 33 51 54 55 57 58 60 61 66 67 69 72 73 79 83 88 89 90 91 92 94 95 96 97 102 104 106 108 109 110 111 112 114 115 116 117 118 124 128 129 130 131 132 133 135 136 137 138 140 141 142 143 146 147 148 149 150 151 152 153 154 155 156 157 158 159 160 161 162 163 164 165
61036	53 54 72 79 82 84 90 91 92 95 97 104 109 110 111 114 115 117 125 128 129 131 132 136 139 140 142 145 146 147 149 151 152 153 154 155 156 157 158 159 160 161 162 163 164 165
224893	19 23 54 74 75 79 80 85 86 90 91 92 95 100 104 106 109 110 111 115 117 121 122 123 125 126 128 129 131 132 133 136 137 138 140 141 142 143 145 146 147 148 149 150 151 152 153 154 155 156 157 158 159 160 161 162 163 164 165
423551	32 33 47 51 54 55 57 58 59 60 61 64 65 66 67 69 72 73 75 77 79 81 83 85 88 89 90 91 92 93 94 95 96 97 102 104 106 108 109 110 111 112 114 115 116 117 118 120 121 122 124 125 128 129 130 131 132 133 135 136 137 140 141 142 143 144 146 147 148 149 150 151 152 153 154 155 156 157 158 159 160 161 162 163 164 165
968325	23 41 52 77 79 80 90 92 93 94 95 106 109 110 117 122 123 124 126 136 141 142 146 148 149 151 153 154 155 156 157 158 159 160 161 162 163 164 165
587400	42 54 57 62 72 79 82 83 90 91 92 95 96 100 104 106 107 110 111 112 113 117 118 125 126 128 129 131 133 134 135 136 137 138 140 142 143 145 146 147 151 152 153 154 155 156 157 158 159 161 162 163 164 165
347785	54 79 82 90 91 92 93 95 100 104 110 111 113 117 125 126 128 131 133 135 136 138 141 142 143 145 146 147 149 151 152 153 154 155 156 157 158 159 160 161 162 163 164 165
163470	37 42 54 57 75 77 79 82 85 86 88 90 91 92 95 98 100 104 106 107 109 110 111 112 113 115 117 118 120 121 122 125 126 128 129 131 132 133 134 135 136 137 138 140 142 143 145 146 147 148 151 152 153 154 155 156 157 158 159 160 161 162 163 164 165
284322	23 54 62 75 78 79 82 83 85 86 90 91 92 95 96 98 100 104 105 106 109 110 111 117 118 119 120 121 122 123 125 126 128 129 131 133 135 136 137 138 142 144 145 146 147 148 151 153 154 155 156 157 158 159 161 162 163 164 165
163502	37 42 54 57 75 77 79 83 85 86 87 90 91 92 95 96 98 100 104 105 106 107 108 109 110 111 115 117 118 120 121 122 125 128 129 131 132 134 135 136 137 138 142 144 145 146 147 148 151 153 154 155 156 157 158 159 160 161 162 163 164 165
79536	25 43 49 54 62 77 78 79 82 84 86 88 90 91 92 93 95 100 104 106 110 111 115 116 117 118 119 125 128 131 132 136 138 140 142 145 146 147 149 151 153 154 155 156 158 159 160 161 162 163 164 165
624317	23 54 57 72 74 79 86 90 92 95 97 98 104 106 109 110 111 115 117 123 126 128 129 131 132 133 136 137 138 140 142 143 145 146 147 149 150 151 152 153 154 155 156 157 158 159 160 161 162 163 164 165
155329	37 42 51 54 55 57 58 60 61 65 67 73 75 77 79 83 85 86 87 88 90 91 92 93 95 96 100 102 103 104 105 106 107 110 111 112 115 116 117 118 120 121 122 124 125 128 129 130 131 132 133 134 135 136 137 138 140 142 144 145 146 147 148 151 152 153 154 155 156 158 159 160 161 162 163 164 165
147138	52 54 62 65 75 77 79 80 82 83 90 91 92 93 94 95 96 100 104 110 111 113 117 118 120 121 122 124 125 126 128 129 131 133 135 136 137 138 142 143 145 146 147 148 151 152 153 154 155 156 157 158 159 160 161 162 163 164 165
18122	23 54 72 79 90 92 95 97 104 106 109 110 111 113 114 115 116 117 123 125 126 131 132 136 138 140 142 143 145 146 147 151 152 153 154 155 156 157 158 159 160 161 162 163 164 165
155347	37 42 54 57 65 75 77 79 83 85 86 87 90 91 92 95 96 100 103 104 105 106 107 108 110 111 115 117 118 120 121 122 125 128 129 131 133 134 135 137 138 142 144 145 147 148 151 152 153 154 155 156 158 159 160 161 162 163 164 165
165597	42 54 57 72 79 82 83 90 91 92 95 96 100 104 106 107 110 111 112 113 117 118 125 126 128 129 131 133 134 135 136 137 138 140 142 143 145 146 147 151 152 153 154 155 156 157 158 159 161 162 163 164 165
161507	36 41 47 49 62 65 74 75 77 79 81 82 83 84 85 86 88 90 91 92 96 98 100 104 106 110 111 115 117 118 120 121 122 125 128 129 131 133 135 137 138 142 145 147 148 149 151 153 154 155 156 158 160 161 162 163 164 165
970468	36 38 41 52 57 62 65 71 74 77 79 80 81 83 85 88 92 93 94 95 96 97 102 108 110 111 115 116 117 120 121 122 124 125 130 136 137 141 142 146 148 149 154 155 156 158 159 160 161 162 163 164 165
415468	32 33 41 51 54 55 57 58 59 60 61 64 66 67 69 72 73 79 81 83 88 89 90 91 92 94 95 96 97 102 104 106 108 109 110 111 112 114 115 116 117 118 124 125 128 129 130 131 132 133 135 136 137 140 142 143 144 145 146 147 148 149 150 151 152 153 154 155 156 157 158 159 160 161 162 163 164 165
32503	54 74 79 82 90 91 92 93 95 100 104 110 111 113 115 117 125 126 128 131 133 135 136 138 141 142 143 145 146 147 149 151 152 153 154 155 156 157 158 159 160 161 162 163 164 165
300796	37 42 54 57 65 66 74 75 77 79 83 85 87 90 91 92 95 96 100 103 104 105 106 107 110 111 112 115 116 117 118 120 121 122 125 128 129 131 133 134 135 137 141 142 144 145 147 148 149 150 151 152 153 154 155 156 158 159 160 161 162 163 164 165
208638	25 43 49 54 62 74 77 78 79 82 84 86 88 90 91 92 93 95 100 104 106 110 111 115 117 118 119 125 128 131 132 136 138 140 141 142 145 146 147 149 151 153 154 155 156 158 159 160 161 162 163 164 165
124675	23 54 57 62 74 75 79 82 85 86 90 92 95 98 100 104 106 109 110 111 115 117 118 120 121 122 123 125 126 128 129 131 132 133 135 136 137 138 140 142 145 146 147 148 149 151 153 154 155 156 157 158 159 160 161 162 163 164 165
970501	23 41 52 77 79 80 82 90 92 93 94 95 100 106 108 109 110 111 116 117 122 123 124 126 128 132 136 138 142 146 148 149 151 153 154 155 156 157 158 159 160 161 162 163 164 165
152193	19 32 33 47 51 54 55 57 58 59 60 61 64 65 67 72 73 74 75 79 80 81 83 88 90 92 94 95 96 98 100 102 104 105 106 110 111 112 115 116 117 120 121 122 124 125 128 129 130 131 132 133 136 137 140 141 142 143 145 146 147 148 149 150 151 152 153 154 155 156 158 159 160 161 162 163 164 165
222984	19 49 54 57 62 65 72 74 75 79 80 82 83 85 86 90 91 92 95 96 98 100 104 105 109 110 111 113 115 117 118 120 121 122 125 126 127 128 129 131 132 133 136 137 138 140 142 143 145 146 147 148 149 150 151 152 153 154 155 156 157 158 159 160 161 162 163 164 165
61198	23 53 54 72 74 79 82 90 91 92 95 97 104 106 109 110 111 115 117 123 125 126 128 129 131 132 136 138 139 140 142 145 146 147 149 151 152 153 154 155 156 157 158 159 160 161 162 163 164 165
20239	25 43 49 72 77 78 82 84 89 90 91 92 95 97 100 104 106 109 110 111 117 119 123 125 126 128 131 136 138 140 142 145 146 147 151 152 153 154 155 156 157 158 159 161 162 163 164 165
309027	23 42 54 57 72 75 79 82 85 86 90 91 92 95 98 100 104 106 107 109 110 111 112 113 117 118 120 121 122 123 125 126 128 129 131 132 133 134 135 136 137 138 140 142 143 145 146 147 148 151 152 153 154 155 156 157 158 159 161 162 163 164 165
106278	25 43 49 53 54 62 77 78 79 80 82 84 90 91 92 95 97 100 104 106 110 111 117 119 125 128 131 132 136 140 142 145 146 147 151 153 154 155 156 158 159 161 162 163 164 165
311082	42 54 57 74 75 79 82 85 86 87 90 92 95 98 100 104 106 107 109 110 111 112 113 116 117 118 120 121 122 125 126 128 129 131 132 133 134 135 136 137 138 140 142 143 145 146 147 148 149 151 152 153 154 155 156 157 158 159 160 161 162 163 164 165
526127	54 79 82 87 90 91 92 93 95 100 103 104 107 110 111 113 117 125 126 128 131 133 134 135 136 138 142 143 145 146 147 149 151 152 153 154 155 156 157 158 159 160 161 162 163 164 165
30512	54 57 65 72 74 79 83 86 89 90 91 92 95 96 97 98 104 105 109 110 111 115 117 120 121 125 129 131 132 133 136 137 138 140 142 143 145 146 149 150 151 152 153 154 155 156 157 158 159 160 161 162 163 164 165
239411	23 54 72 74 79 86 90 92 93 95 97 104 106 109 110 111 115 116 117 123 126 131 132 136 138 140 141 142 146 149 151 152 153 154 155 156 157 158 159 160 161 162 163 164 165
386886	32 33 51 54 55 57 58 60 61 66 67 69 72 73 79 83 88 89 90 91 92 93 94 95 96 97 102 104 106 108 109 110 111 112 113 114 115 116 117 118 124 126 127 128 129 130 131 132 133 135 136 137 140 141 142 143 144 146 147 148 149 150 151 152 153 154 155 156 157 158 159 160 161 162 163 164 165
386887	32 33 51 54 55 57 58 60 61 66 67 69 72 73 79 83 88 89 90 91 92 93 94 95 96 97 102 104 106 108 109 110 111 112 114 115 116 117 118 124 128 129 130 131 132 133 135 136 137 140 141 142 143 144 146 147 148 149 150 151 152 153 154 155 156 157 158 159 160 161 162 163 164 165
126805	23 54 62 74 79 82 90 92 95 100 104 106 109 110 111 115 117 123 125 126 131 133 135 136 138 142 145 146 149 151 153 154 155 156 157 158 159 160 161 162 163 164 165
313177	42 54 57 72 79 82 83 90 91 92 95 96 100 104 105 106 107 110 111 112 113 117 118 125 126 128 129 131 133 134 135 136 137 138 140 142 143 145 146 147 151 152 153 154 155 156 157 158 159 161 162 163 164 165
390278	32 33 36 47 51 54 55 57 58 59 60 61 64 65 66 67 69 72 73 79 81 83 88 89 90 91 92 94 95 96 97 102 104 106 108 109 110 111 112 114 115 116 117 118 120 121 124 125 128 129 130 131 132 133 135 136 137 140 141 142 143 146 147 148 149 150 151 152 153 154 155 156 157 158 159 160 161 162 163 164 165
315240	42 62 72 87 107 109 113 114 115 125 126 132 134 143 144 145 147 150 152 153 154 155 157 159 160 162 163 164 165
378730	32 33 51 54 55 57 58 59 60 61 64 65 66 67 69 72 73 79 80 81 83 88 89 90 91 92 94 95 96 97 98 102 104 106 108 109 110 111 112 114 115 116 117 118 120 121 124 125 128 129 130 131 132 133 135 136 137 140 141 142 143 144 145 146 147 148 149 150 151 152 153 154 155 156 157 158 159 160 161 162 163 164 165
309100	37 51 54 55 57 58 59 60 61 64 65 67 73 77 79 81 82 83 87 88 90 91 92 93 95 96 100 102 103 104 105 106 107 110 111 112 115 117 118 120 121 124 125 128 129 130 131 133 134 135 136 137 140 142 145 146 147 148 149 151 152 153 154 155 156 158 159 160 161 162 163 164 165
135022	12 49 67 81 88 123 124 132 136 140 146 154 155 157 159 164
329589	25 43 49 54 62 77 78 79 82 84 86 88 90 91 92 93 95 100 104 106 110 111 115 117 118 119 125 128 131 132 136 138 140 142 145 146 147 151 153 154 155 156 158 159 160 161 162 163 164 165
585605	49 53 54 72 79 82 84 90 91 92 95 97 100 104 109 110 111 114 115 116 117 128 129 131 132 136 138 139 140 141 142 146 147 149 151 152 153 154 155 156 157 158 159 160 161 162 163 164 165
581526	14 51 58 60 61 67 73 81 88 102 124 125 129 130 132 138 145 148 153 155 162 163 164 165
141207	41 77 85 86 93 95 100 108 115 118 122 123 126 128 129 132 142 147 148 149 152 153 154 155 157 158 159 160 161 163 164 165
581528	14 51 58 60 61 67 73 74 81 88 102 115 116 118 124 128 129 130 132 138 141 147 148 149 153 155 160 164
417689	32 33 42 51 54 55 57 58 59 60 61 64 66 67 69 72 73 79 81 83 87 88 89 90 91 92 94 95 96 97 102 104 106 107 108 109 110 111 112 114 115 116 117 118 124 125 128 129 130 131 132 133 134 135 136 137 140 142 143 144 145 146 147 148 149 150 151 152 153 154 155 156 157 158 159 160 161 162 163 164 165
411546	19 23 41 42 62 75 78 79 80 82 85 87 89 90 92 95 97 99 100 103 104 105 106 107 109 110 111 112 117 119 120 121 122 123 125 126 128 129 131 132 133 134 135 136 137 138 140 142 143 144 145 146 148 150 151 153 154 155 156 157 158 159 161 162 163 164 165
161697	23 42 54 57 72 79 82 83 86 89 90 91 92 95 96 100 104 106 107 109 110 111 112 113 115 117 118 123 126 127 128 129 131 132 133 134 135 136 137 138 140 142 143 145 146 147 151 152 153 154 155 156 157 158 159 160 161 162 163 164 165
309159	42 54 57 79 82 83 86 89 90 91 92 95 96 97 100 104 106 107 109 110 111 112 113 117 118 126 128 129 131 132 133 134 135 136 137 138 140 142 143 145 146 147 151 152 153 154 155 156 157 158 159 161 162 163 164 165
51117	22 53 54 65 66 72 74 75 79 80 83 85 90 91 92 95 96 97 98 100 101 104 105 110 111 112 114 115 117 118 120 121 122 128 129 131 133 136 137 140 141 142 146 147 148 149 150 151 152 153 154 155 156 158 159 160 161 162 163 164 165
638899	42 53 54 75 79 82 83 85 86 87 90 91 92 93 95 96 97 100 104 105 107 109 110 111 113 117 118 121 122 125 126 128 129 131 132 134 135 136 137 138 139 140 142 143 144 145 146 147 148 151 152 153 154 155 156 157 158 159 160 161 162 163 164 165
296907	23 41 49 52 74 77 79 94 95 106 108 110 115 117 118 122 123 124 126 128 129 132 141 142 147 148 149 152 154 155 156 157 158 159 160 161 163 164 165
595922	25 43 49 54 62 77 78 79 82 84 86 88 90 91 92 93 95 100 104 106 110 111 115 117 118 119 125 128 131 132 136 138 140 142 145 146 147 151 153 154 155 156 158 159 160 161 162 163 164 165
303059	19 32 33 47 51 54 55 57 58 59 60 61 64 65 67 72 73 74 75 79 80 81 83 88 90 92 94 95 96 98 100 102 104 105 106 110 111 112 115 116 117 120 121 122 124 125 128 129 130 131 132 133 136 137 140 141 142 143 145 146 147 148 149 150 151 152 153 154 155 156 158 159 160 161 162 163 164 165
291603	54 79 82 90 91 92 93 95 100 104 110 111 113 117 118 125 126 128 129 131 133 135 136 138 142 143 145 146 147 149 151 152 153 154 155 156 157 158 159 160 161 162 163 164 165
116700	23 54 74 79 86 88 90 92 95 104 106 109 110 111 115 117 123 125 126 128 129 131 132 136 138 140 142 145 146 147 149 151 152 153 154 155 156 157 158 159 160 161 162 163 164 165
1087825	54 65 79 82 90 91 92 93 95 98 100 104 110 111 113 117 121 125 126 128 131 133 135 136 137 138 142 143 145 146 147 149 151 152 153 154 155 156 157 158 159 160 161 162 163 164 165
638954	23 42 54 57 72 75 79 82 85 86 90 91 92 95 98 100 104 106 107 108 109 110 111 112 113 114 115 117 118 120 121 122 123 126 128 129 131 132 133 134 135 136 137 138 140 142 143 145 146 147 148 151 152 153 154 155 156 157 158 159 160 161 162 163 164 165
1087826	42 54 66 74 75 79 83 85 86 87 90 91 92 93 95 96 97 100 104 105 107 108 109 110 111 112 113 114 115 117 121 122 123 125 126 128 129 131 132 134 135 136 137 138 140 141 142 143 144 145 146 147 148 149 151 152 153 154 155 156 157 158 159 160 161 162 163 164 165
163823	42 54 57 79 82 86 90 91 92 95 98 100 104 106 107 109 110 111 112 113 115 117 118 126 128 129 131 132 133 134 135 136 137 138 140 142 143 145 146 147 151 152 153 154 155 156 157 158 159 160 161 162 163 164 165
387064	32 33 51 54 55 57 58 59 60 61 64 65 66 67 69 72 73 79 81 83 88 89 90 91 92 94 95 96 97 98 102 104 106 108 109 110 111 112 114 115 116 117 118 120 121 124 125 128 129 130 131 132 133 135 136 137 140 142 143 145 146 147 148 149 150 151 152 153 154 155 156 157 158 159 160 161 162 163 164 165
307195	37 42 54 57 75 77 79 82 85 86 90 91 92 95 96 98 100 104 106 107 109 110 111 112 113 115 117 118 120 121 122 126 128 129 131 132 133 134 135 136 137 138 140 142 143 145 146 147 148 151 152 153 154 155 156 157 158 159 160 161 162 163 164 165
