#cr_index	maccs
77826	23 53 54 72 74 79 80 82 90 91 92 95 97 100 104 106 109 110 111 114 115 117 123 125 126 131 136 138 140 141 142 145 146 147 149 151 152 153 154 155 156 157 158 159 160 161 162 163 164 165
593923	23 53 54 72 74 79 80 82 90 91 92 95 97 100 104 106 109 110 111 114 115 117 123 125 126 131 132 136 138 139 140 141 142 145 146 149 151 152 153 154 155 156 157 158 159 160 161 162 163 164 165
306774	27 32 33 51 55 58 59 60 61 64 67 73 75 79 81 83 87 88 90 91 92 94 95 96 100 102 104 106 107 110 111 112 117 121 122 124 125 128 129 130 134 136 137 140 142 145 146 147 148 150 151 153 154 155 156 158 159 161 162 163 164 165
555528	37 47 64 77 78 80 81 88 90 91 97 98 106 110 114 115 117 119 120 121 137 138 142 143 145 147 151 153 154 155 156 158 160 161 162 163 164 165
555529	37 47 64 77 78 80 81 88 90 91 97 98 106 110 114 115 116 117 119 120 121 137 138 142 143 145 147 151 153 154 155 156 158 160 161 162 163 164 165
556375	37 41 42 47 64 77 78 80 81 87 88 90 97 98 106 107 110 117 119 120 121 125 134 137 138 142 143 144 145 150 151 153 154 155 156 158 161 162 163 164 165
93698	23 37 49 52 54 69 74 77 79 80 90 91 92 93 94 95 104 106 109 110 111 113 114 115 117 123 124 125 126 131 136 140 141 142 143 145 146 149 151 152 153 154 155 156 157 158 159 160 161 162 163 164 165
51117	22 53 54 65 66 72 74 75 79 80 83 85 90 91 92 95 96 97 98 100 101 104 105 110 111 112 114 115 117 118 120 121 122 128 129 131 133 136 137 140 141 142 146 147 148 149 150 151 152 153 154 155 156 158 159 160 161 162 163 164 165
967696	36 37 38 41 43 52 57 62 65 71 74 77 79 80 81 83 88 91 92 93 94 95 96 97 102 104 106 108 110 111 115 117 120 121 122 124 125 130 131 133 135 136 137 141 142 146 148 149 151 154 155 156 158 159 160 161 162 163 164 165
75282	18 23 43 54 69 74 79 90 92 95 102 104 106 109 110 111 115 117 123 124 126 130 131 136 139 140 141 142 146 148 149 151 153 154 155 156 157 158 159 160 161 162 163 164 165
254483	23 54 65 74 79 86 88 90 92 95 97 98 104 106 109 110 111 115 117 118 121 123 125 126 128 129 131 132 136 137 138 140 142 145 146 147 149 151 152 153 154 155 156 157 158 159 160 161 162 163 164 165
165398	32 33 51 53 55 58 59 60 61 64 67 72 73 75 79 80 81 82 83 88 90 91 92 93 94 95 96 97 100 102 104 106 110 111 112 113 117 118 121 122 124 125 126 128 129 130 131 136 137 138 140 142 143 145 146 147 148 150 151 152 153 154 155 156 157 158 159 160 161 162 163 164 165
94297	23 25 37 43 52 54 69 74 77 78 79 80 82 84 90 91 92 94 95 100 104 106 109 110 111 115 117 119 123 124 126 131 136 138 140 141 142 146 147 149 151 153 154 155 156 157 158 159 160 161 162 163 164 165
371224	23 37 38 45 53 54 72 74 75 77 78 79 80 82 84 85 90 91 92 95 97 98 99 100 104 106 109 110 111 115 117 119 120 121 122 123 125 126 131 133 136 137 138 140 142 143 145 146 147 148 149 150 151 152 153 154 155 156 157 158 159 160 161 162 163 164 165
69662	23 54 74 75 79 80 85 86 90 92 95 97 98 100 104 106 108 109 110 111 115 117 121 122 123 125 126 127 129 131 132 133 136 137 138 140 142 143 145 146 148 149 150 151 152 153 154 155 156 157 158 159 160 161 162 163 164 165
537229	49 53 54 74 79 80 82 84 90 91 92 95 97 99 100 104 110 111 116 117 118 123 128 129 131 132 136 138 140 141 142 145 146 147 149 151 153 154 155 156 157 158 159 160 161 162 163 164 165
262690	23 53 54 72 74 79 80 82 90 91 92 95 97 100 104 106 109 110 111 115 117 123 125 126 131 136 138 140 142 145 146 147 149 151 152 153 154 155 156 157 158 159 160 161 162 163 164 165
557605	37 47 64 77 78 80 81 87 88 90 97 98 103 106 107 110 117 119 120 121 125 134 137 138 142 143 144 145 150 151 153 154 155 156 158 161 162 163 164 165
46119	49 54 65 74 79 80 82 84 85 86 90 92 93 95 97 98 99 100 104 110 111 115 117 121 122 125 131 136 137 142 144 145 148 149 150 151 153 154 155 156 158 159 160 161 162 163 164 165
351784	8 11 32 33 51 55 58 59 60 61 64 67 73 75 79 81 88 90 91 92 94 95 100 102 104 106 110 111 112 117 121 122 124 125 129 130 136 137 140 142 145 146 147 148 150 151 153 154 155 156 158 159 160 161 162 163 164 165
504361	26 28 37 45 49 50 52 57 59 62 64 72 75 76 77 79 81 83 88 92 93 94 95 96 98 99 105 106 109 110 113 117 120 121 122 123 124 125 126 127 133 135 136 137 140 142 143 145 146 148 149 150 151 152 153 154 156 157 158 159 160 161 162 163 164 165
89648	23 53 54 72 74 79 80 82 90 91 92 93 95 97 100 104 106 108 109 110 111 113 114 115 117 123 125 126 131 136 138 140 141 142 143 144 145 146 147 149 150 151 152 153 154 155 156 157 158 159 160 161 162 163 164 165
284725	14 34 51 58 60 61 67 73 81 88 99 102 124 129 130 132 138 148 153 155 164
575542	14 51 58 60 61 67 73 81 88 102 114 115 118 124 128 129 130 132 138 147 148 149 153 155 160 164
63031	23 54 74 79 90 92 95 104 106 108 109 110 111 115 116 117 123 125 126 131 136 140 141 142 145 146 147 149 151 152 153 154 155 156 157 158 159 160 161 162 163 164 165
968761	23 41 52 74 77 79 80 90 92 93 94 95 106 109 110 117 122 123 124 126 136 141 142 146 148 149 151 153 154 155 156 157 158 159 160 161 162 163 164 165
89659	53 54 72 74 79 80 82 90 91 92 95 97 100 104 105 110 111 114 115 117 125 128 131 132 136 140 141 142 145 146 149 151 152 153 154 155 156 158 159 160 161 162 163 164 165
512060	26 28 37 45 49 50 52 57 62 72 75 76 77 79 83 92 93 94 95 96 98 99 105 106 109 110 113 117 120 121 122 123 124 125 126 127 133 135 136 137 140 142 143 145 146 148 149 150 151 152 153 154 156 157 158 159 160 161 162 163 164 165
115261	23 54 66 74 79 81 88 90 92 95 104 106 109 110 111 112 115 116 117 123 125 126 129 131 132 136 138 140 141 142 145 146 149 151 152 153 154 155 156 157 158 159 160 161 162 163 164 165
246853	54 79 84 90 92 95 99 104 105 110 111 117 125 131 136 142 144 145 150 151 154 155 156 158 159 161 162 163 164 165
161859	32 33 51 55 58 59 60 61 64 67 73 75 79 81 83 88 90 91 92 94 95 96 100 102 104 106 110 111 112 117 121 122 124 125 128 129 130 136 137 140 142 145 146 147 148 150 151 153 154 155 156 158 159 160 161 162 163 164 165
48197	22 23 53 54 66 72 74 79 80 82 90 91 92 95 97 100 104 106 109 110 111 112 116 117 123 125 126 131 133 136 138 140 142 145 146 147 149 150 151 152 153 154 155 156 157 158 159 160 161 162 163 164 165
155745	74 89 92 95 97 104 109 110 111 117 123 125 126 136 140 145 146 149 151 153 154 155 156 157 158 159 160 161 162 163 164 165
71244	37 45 49 51 52 54 55 57 58 59 60 61 64 67 73 74 75 77 79 81 86 88 89 90 91 92 94 95 97 98 99 100 102 104 106 109 110 111 112 115 117 118 120 121 122 124 125 128 129 130 131 132 133 136 137 138 140 142 145 146 147 148 149 151 153 154 155 156 157 158 159 160 161 162 163 164 165
142925	23 41 49 52 77 79 93 94 95 106 108 110 115 117 118 122 123 124 126 128 129 132 142 147 148 149 152 154 155 156 157 158 159 160 161 163 164 165
411205	19 23 42 62 75 78 79 80 82 85 87 89 90 92 93 95 97 99 100 103 104 105 106 107 109 110 111 112 117 119 120 121 122 123 125 126 128 129 131 132 133 134 135 136 137 138 140 142 143 144 145 146 148 150 151 153 154 155 156 157 158 159 160 161 162 163 164 165
399952	16 22 23 54 57 79 82 90 91 92 95 97 100 104 106 109 110 111 117 123 125 126 128 129 131 132 136 137 138 140 142 145 146 151 152 153 154 155 156 157 158 159 161 162 163 164 165
360018	22 23 53 54 66 72 74 79 80 82 90 91 92 95 97 100 104 106 109 110 111 112 116 117 123 125 126 131 133 136 138 140 142 145 146 147 149 150 151 152 153 154 155 156 157 158 159 160 161 162 163 164 165
967438	37 41 43 52 74 77 79 80 82 90 91 92 93 94 95 100 104 106 108 110 111 115 117 122 124 131 136 141 142 148 149 151 153 154 155 156 158 159 160 161 162 163 164 165
307286	28 32 33 36 47 51 55 58 59 60 61 64 67 73 75 79 81 83 86 87 88 90 91 92 94 95 96 100 102 103 104 106 107 110 111 112 117 120 121 122 124 125 129 130 134 136 137 138 140 142 145 146 148 150 151 153 154 155 156 158 159 161 162 163 164 165
45655	49 54 79 82 84 85 86 90 92 95 99 100 104 110 111 114 116 117 122 125 131 136 138 142 144 145 148 149 150 151 153 154 155 156 158 159 160 161 162 163 164 165
92761	23 49 53 54 57 72 74 75 79 80 82 85 86 90 91 92 95 97 98 100 104 106 109 110 111 114 115 117 118 120 121 122 123 126 128 129 131 132 136 137 138 140 141 142 145 146 147 148 149 151 152 153 154 155 156 157 158 159 160 161 162 163 164 165
967439	37 41 43 52 74 77 79 80 91 92 93 94 95 104 106 108 110 111 115 117 122 124 131 133 135 136 141 142 148 149 151 154 155 156 158 159 160 161 162 163 164 165
1106524	16 22 25 43 54 57 72 74 77 78 79 82 84 89 90 91 92 95 97 100 104 106 110 111 115 117 118 119 123 128 129 131 136 137 138 140 142 146 147 149 150 151 152 153 154 155 156 157 158 159 160 161 164 165
90717	23 53 54 65 72 74 75 79 80 82 83 85 90 91 92 93 95 96 97 100 104 106 108 109 110 111 114 115 116 117 121 122 123 125 126 131 136 137 138 140 141 142 144 146 147 148 149 150 151 152 153 154 155 156 157 158 159 160 161 162 163 164 165
278622	32 33 51 54 55 58 59 60 61 64 67 69 73 74 79 81 88 90 92 94 95 102 104 106 110 111 112 115 117 124 125 130 131 136 140 141 142 145 146 148 149 151 154 155 156 158 159 160 161 162 163 164 165
135263	12 29 30 57 64 67 72 81 86 88 89 98 109 112 114 116 123 124 126 127 130 132 136 137 138 140 141 143 146 148 149 150 152 153 154 155 157 159 160 163 164 165
266337	23 25 37 43 52 54 69 74 77 78 79 80 82 84 90 91 92 93 94 95 100 104 106 109 110 111 114 115 117 119 123 124 126 131 136 138 140 141 142 146 147 149 151 153 154 155 156 157 158 159 160 161 162 163 164 165
107618	25 43 49 53 54 62 65 77 78 79 82 83 84 88 90 91 92 95 96 100 104 105 106 110 111 117 118 119 121 125 128 131 132 136 137 138 140 142 145 146 147 151 153 154 155 156 158 159 161 162 163 164 165
249019	49 54 74 79 90 91 92 95 104 108 110 111 114 115 116 117 123 131 136 140 141 142 146 147 149 151 154 155 156 157 158 159 160 161 164
30309	8 11 23 54 66 79 89 90 91 92 95 97 104 106 109 110 111 112 117 118 121 123 126 127 128 129 131 133 136 137 140 142 143 145 146 147 150 151 153 154 155 156 157 158 159 160 161 162 163 164 165
76902	23 53 54 72 74 79 80 82 90 91 92 95 97 100 104 106 109 110 111 114 115 117 123 125 126 131 136 138 140 141 142 145 146 147 149 151 152 153 154 155 156 157 158 159 160 161 162 163 164 165
64616	49 53 54 72 74 79 82 84 90 91 92 95 97 100 104 109 110 111 115 117 125 128 129 131 132 136 138 139 140 142 145 146 147 149 151 152 153 154 155 156 157 158 159 160 161 162 163 164 165
61036	53 54 72 79 82 84 90 91 92 95 97 104 109 110 111 114 115 117 125 128 129 131 132 136 139 140 142 145 146 147 149 151 152 153 154 155 156 157 158 159 160 161 162 163 164 165
301074	32 33 51 55 58 59 60 61 64 67 73 75 79 81 83 88 90 91 92 94 95 96 100 102 104 106 110 111 112 117 121 122 124 125 128 129 130 136 137 140 142 145 146 147 148 150 151 153 154 155 156 158 159 161 162 163 164 165
163950	36 41 47 49 62 65 66 74 75 77 79 81 82 83 85 86 88 90 91 92 96 98 100 104 106 108 110 111 112 115 116 117 118 120 121 122 125 128 129 131 133 135 137 138 141 142 145 147 148 149 151 153 154 155 156 158 160 161 162 163 164 165
90223	23 53 54 65 72 74 79 80 82 90 91 92 95 97 98 100 104 106 109 110 111 115 117 121 123 125 126 131 136 137 138 140 142 145 146 149 151 152 153 154 155 156 157 158 159 160 161 162 163 164 165
92786	23 53 54 65 72 74 79 80 82 90 91 92 95 97 98 100 104 106 109 110 111 114 115 117 121 123 125 126 131 136 137 138 140 141 142 145 146 147 149 151 152 153 154 155 156 157 158 159 160 161 162 163 164 165
392211	37 51 54 55 57 58 59 60 61 64 67 73 74 75 77 79 81 85 86 88 90 91 92 95 98 99 100 102 104 106 109 110 111 112 115 117 118 120 121 122 124 125 128 129 130 131 132 136 137 138 140 142 145 146 147 148 149 151 153 154 155 156 157 158 159 160 161 162 163 164 165
229492	8 11 23 54 74 79 89 90 92 95 97 104 106 109 110 111 115 117 121 123 126 127 131 133 136 137 140 141 142 143 146 149 150 151 153 154 155 156 157 158 159 160 161 162 163 164 165
117950	32 33 51 55 58 59 60 61 64 67 73 75 79 81 88 90 91 92 94 95 98 100 102 104 106 110 111 112 117 118 121 122 124 125 128 129 130 136 137 140 142 145 146 147 148 150 151 153 154 155 156 158 159 160 161 162 163 164 165
281719	23 54 62 74 75 79 82 85 86 90 91 92 95 98 100 104 106 109 110 111 115 117 118 121 122 123 125 126 128 129 131 133 135 136 137 138 142 145 146 147 148 149 151 153 154 155 156 157 158 159 160 161 162 163 164 165
529528	49 53 54 74 79 80 82 84 90 91 92 95 97 99 100 104 110 111 117 118 123 128 129 131 132 136 138 140 141 142 145 146 147 149 151 153 154 155 156 157 158 159 160 161 162 163 164 165
1099387	23 54 79 90 92 95 99 104 106 109 110 111 114 117 123 125 126 131 136 138 140 142 145 146 149 151 152 153 154 155 156 157 158 159 160 161 162 163 164 165
1099388	23 54 79 90 92 93 95 99 104 106 109 110 111 117 123 125 126 131 136 140 142 145 146 149 151 152 153 154 155 156 157 158 159 160 161 162 163 164 165
91774	23 53 54 65 72 74 79 80 82 90 91 92 95 97 98 100 104 106 109 110 111 114 115 117 121 123 125 126 131 136 137 138 140 141 142 145 146 147 149 151 152 153 154 155 156 157 158 159 160 161 162 163 164 165
91775	49 53 54 57 72 74 75 79 80 82 85 86 90 91 92 95 97 98 100 104 109 110 111 115 117 118 120 121 122 125 128 129 131 132 136 137 138 140 142 145 146 147 148 149 151 152 153 154 155 156 157 158 159 160 161 162 163 164 165
332929	23 53 54 72 74 79 80 82 90 91 92 95 97 100 104 106 109 110 111 115 117 123 125 126 131 136 138 140 142 145 146 149 151 152 153 154 155 156 157 158 159 160 161 162 163 164 165
92292	23 49 53 54 72 74 75 79 80 82 85 86 90 91 92 95 97 98 99 100 104 105 106 109 110 111 115 117 118 121 122 123 125 126 128 129 131 136 137 138 140 142 145 146 147 148 149 151 152 153 154 155 156 157 158 159 160 161 162 163 164 165
968325	23 41 52 77 79 80 90 92 93 94 95 106 109 110 117 122 123 124 126 136 141 142 146 148 149 151 153 154 155 156 157 158 159 160 161 162 163 164 165
93321	23 53 54 72 74 79 80 82 90 91 92 95 97 100 104 106 109 110 111 114 115 117 123 126 131 132 136 138 139 140 141 142 146 147 149 151 152 153 154 155 156 157 158 159 160 161 162 163 164 165
371223	23 37 38 53 54 65 72 74 75 77 79 80 82 83 84 85 90 91 92 93 95 96 97 98 100 104 105 106 109 110 111 113 115 117 120 121 122 123 125 126 131 133 135 136 137 138 140 141 142 143 145 146 147 148 149 151 152 153 154 155 156 157 158 159 160 161 162 163 164 165
558342	11 37 47 64 77 78 80 81 88 90 97 98 106 110 117 119 120 121 128 129 137 138 142 143 145 147 151 153 154 155 156 158 161 162 163 164 165
248973	53 54 65 66 72 74 75 79 80 83 85 90 91 92 95 96 97 98 100 101 104 105 110 111 112 114 115 117 118 120 121 122 128 129 131 136 137 140 141 142 146 147 148 149 150 151 152 153 154 155 156 158 159 160 161 162 163 164 165
80015	23 54 74 75 79 80 85 86 90 91 92 95 98 100 104 106 109 110 111 115 117 121 122 123 125 126 128 129 131 132 133 136 137 138 140 141 142 143 145 146 147 148 149 150 151 152 153 154 155 156 157 158 159 160 161 162 163 164 165
302224	37 74 77 85 86 90 91 95 100 104 106 108 109 110 111 116 117 122 125 126 129 132 136 138 142 145 146 147 148 149 151 153 154 155 156 157 158 159 160 161 162 163 164 165
91794	23 49 53 54 72 74 75 79 80 82 85 86 90 91 92 95 97 98 99 100 104 105 106 109 110 111 114 115 117 118 121 122 123 126 128 129 131 136 137 138 140 141 142 145 146 147 148 149 151 152 153 154 155 156 157 158 159 160 161 162 163 164 165
425107	23 49 53 54 72 74 79 80 82 85 86 90 91 92 93 95 97 100 104 106 108 109 110 111 115 116 117 122 123 125 126 131 136 138 140 141 142 145 146 147 148 149 151 152 153 154 155 156 157 158 159 160 161 162 163 164 165
56516	32 33 51 54 55 58 60 61 67 69 73 79 86 88 90 91 92 93 94 95 102 104 106 108 110 111 112 117 124 125 130 131 136 138 140 142 145 146 148 151 153 154 155 156 158 159 160 161 162 163 164 165
268960	23 37 49 52 54 69 74 77 79 80 82 90 91 92 94 95 100 104 106 109 110 111 114 115 117 123 124 125 126 131 136 138 140 141 142 145 146 149 151 153 154 155 156 157 158 159 160 161 162 163 164 165
284322	23 54 62 75 78 79 82 83 85 86 90 91 92 95 96 98 100 104 105 106 109 110 111 117 118 119 120 121 122 123 125 126 128 129 131 133 135 136 137 138 142 144 145 146 147 148 151 153 154 155 156 157 158 159 161 162 163 164 165
161956	27 28 32 33 36 47 51 55 58 59 60 61 64 67 73 75 79 81 83 86 87 88 90 91 92 94 95 96 100 102 104 106 107 110 111 112 117 120 121 122 124 125 129 130 134 136 137 138 140 142 145 146 148 150 151 153 154 155 156 158 159 161 162 163 164 165
508358	26 28 45 50 52 57 62 69 72 75 76 83 84 92 93 94 95 96 98 99 105 109 110 113 117 120 121 122 123 124 126 127 133 137 140 142 143 145 146 148 150 151 152 153 154 156 157 158 159 160 161 162 163 164 165
93866	23 37 49 52 54 69 74 77 79 80 90 91 92 93 94 95 104 105 106 109 110 111 114 115 117 123 124 125 126 131 136 140 141 142 145 146 149 151 153 154 155 156 157 158 159 160 161 162 163 164 165
159915	32 33 51 55 58 59 60 61 64 67 73 75 79 81 83 88 90 91 92 93 94 95 96 100 102 104 106 110 111 112 113 117 121 122 124 125 126 128 129 130 136 137 140 142 143 145 146 147 148 150 151 152 153 154 155 156 157 158 159 160 161 162 163 164 165
556716	37 47 49 64 77 78 80 81 88 90 97 98 106 110 117 119 120 121 123 132 136 137 138 142 143 145 146 151 153 154 155 156 157 158 159 161 162 163 164 165
555634	37 47 64 77 78 80 81 87 88 90 97 98 103 106 107 110 117 119 120 121 125 134 137 138 142 143 145 151 153 154 155 156 158 161 162 163 164 165
523438	28 57 62 65 72 83 84 96 98 105 109 113 120 121 123 125 133 135 137 142 144 145 151 152 153 156 157 158 159 160 161 162 163 164 165
525453	23 41 52 74 77 79 80 90 92 93 94 95 104 106 108 109 110 111 115 117 122 123 124 126 136 141 142 146 148 149 151 153 154 155 156 157 158 159 160 161 162 163 164 165
123569	23 54 62 75 79 82 85 86 90 91 92 95 98 100 104 106 109 110 111 117 118 121 122 123 125 126 128 129 131 133 135 136 137 138 142 145 146 147 148 151 153 154 155 156 157 158 159 161 162 163 164 165
554313	37 47 64 77 78 80 81 88 90 97 98 106 110 114 117 119 120 121 137 138 142 143 145 151 153 154 155 156 158 160 161 162 163 164 165
406844	19 23 42 62 75 78 79 80 82 85 87 89 90 92 95 97 99 100 103 104 105 106 107 108 109 110 111 112 117 119 120 121 122 123 125 126 128 129 131 132 133 134 135 136 137 138 140 142 143 144 145 146 148 150 151 152 153 154 155 156 157 158 159 160 161 162 163 164 165
611465	49 53 54 74 79 80 82 84 90 91 92 95 97 99 100 104 110 111 117 118 123 128 129 131 132 136 138 140 141 142 145 146 147 149 151 153 154 155 156 157 158 159 160 161 162 163 164 165
116921	23 54 65 66 74 79 81 88 90 92 95 97 98 104 106 109 110 111 112 116 117 121 123 125 126 128 129 131 132 136 137 138 140 141 142 145 146 147 149 151 152 153 154 155 156 157 158 159 160 161 162 163 164 165
68795	37 45 49 51 52 54 55 57 58 59 60 61 64 67 73 75 77 79 81 86 88 89 90 91 92 94 95 97 98 99 100 102 104 105 106 109 110 111 112 117 118 120 121 122 124 125 128 129 130 131 132 133 136 137 138 140 142 145 146 147 148 151 153 154 155 156 157 158 159 161 162 163 164 165
967356	23 41 52 77 79 80 90 92 93 94 95 106 109 110 114 115 117 122 123 124 126 136 141 142 146 148 149 151 153 154 155 156 157 158 159 160 161 162 163 164 165
43709	49 54 74 79 82 84 85 86 90 91 92 93 95 99 100 104 110 111 114 115 116 117 122 125 131 136 141 142 144 145 147 148 149 150 151 153 154 155 156 158 159 160 161 162 163 164 165
341694	23 25 37 43 52 54 65 69 74 77 78 79 80 82 83 84 90 91 92 93 94 95 96 100 104 105 106 108 109 110 111 114 115 117 119 121 123 124 125 126 131 136 137 138 140 141 142 145 146 147 149 151 153 154 155 156 157 158 159 160 161 162 163 164 165
329589	25 43 49 54 62 77 78 79 82 84 86 88 90 91 92 93 95 100 104 106 110 111 115 117 118 119 125 128 131 132 136 138 140 142 145 146 147 151 153 154 155 156 158 159 160 161 162 163 164 165
1110214	19 23 62 66 75 78 79 80 82 85 89 90 91 92 93 95 97 99 100 101 104 105 106 109 110 111 112 117 119 120 121 122 123 125 126 128 129 131 132 133 135 136 137 138 140 142 143 144 145 146 148 150 151 153 154 155 156 157 158 159 160 161 162 163 164 165
1110209	19 23 42 62 75 78 79 80 82 85 87 89 90 92 93 95 97 99 100 103 104 105 106 107 109 110 111 112 113 117 119 120 121 122 123 125 126 127 128 129 131 132 133 134 135 136 137 138 140 142 143 144 145 146 148 149 150 151 152 153 154 155 156 157 158 159 160 161 162 163 164 165
1110210	19 23 62 75 78 79 80 82 85 89 90 92 93 95 97 99 100 104 105 106 109 110 111 113 117 119 120 121 122 123 125 126 127 128 129 131 132 133 135 136 137 138 140 142 143 144 145 146 148 149 150 151 152 153 154 155 156 157 158 159 160 161 162 163 164 165
1110211	19 23 62 75 78 79 80 82 85 89 90 92 93 95 97 99 100 104 105 106 109 110 111 117 119 120 121 122 123 125 126 128 129 131 132 133 135 136 137 138 140 142 143 144 145 146 148 150 151 153 154 155 156 157 158 159 160 161 162 163 164 165
90308	23 49 53 54 57 72 74 75 79 80 82 85 86 90 91 92 95 97 98 100 104 106 109 110 111 114 115 117 118 120 121 122 123 126 128 129 131 132 136 137 138 140 141 142 145 146 147 148 149 151 152 153 154 155 156 157 158 159 160 161 162 163 164 165
1110213	19 23 62 75 78 79 80 82 85 89 90 91 92 93 95 97 99 100 104 105 106 109 110 111 117 118 119 120 121 122 123 125 126 128 129 131 132 133 135 136 137 138 140 142 143 144 145 146 147 148 150 151 153 154 155 156 157 158 159 160 161 162 163 164 165
577734	22 32 33 49 51 55 58 60 61 62 64 65 66 67 73 75 79 81 85 86 88 89 90 91 92 93 94 95 96 97 98 99 100 102 104 105 106 108 110 111 112 113 115 116 117 118 120 121 122 124 125 126 127 128 129 130 132 136 137 140 142 143 145 146 147 148 149 150 151 152 153 154 156 157 158 159 160 161 162 163 164 165
275144	23 54 65 79 86 88 90 92 95 97 98 104 106 109 110 111 117 118 121 123 125 126 128 129 131 132 136 137 138 140 142 145 146 147 151 152 153 154 155 156 157 158 159 161 162 163 164 165
30409	8 11 23 54 75 79 85 89 90 91 92 95 97 98 100 106 109 110 111 117 118 120 121 122 123 126 127 128 129 131 133 136 137 138 140 142 143 145 146 147 148 150 151 153 154 155 156 157 158 159 160 161 162 163 164 165
207050	23 37 49 52 54 69 74 77 79 80 90 91 92 94 95 104 106 109 110 111 115 117 123 124 125 126 131 136 138 140 141 142 145 146 149 151 153 154 155 156 157 158 159 160 161 162 163 164 165
268322	23 37 49 52 54 69 74 77 79 80 90 91 92 93 94 95 104 106 109 110 111 114 115 117 123 124 126 131 136 140 141 142 146 149 151 153 154 155 156 157 158 159 160 161 162 163 164 165
409806	54 66 79 90 92 95 104 110 111 112 114 116 117 125 128 131 132 136 142 145 146 147 149 151 154 155 156 158 159 160 161 162 163 164 165
156536	37 74 77 85 86 90 91 95 100 104 106 108 109 110 111 115 117 122 125 126 129 132 136 138 142 145 146 147 148 149 151 153 154 155 156 157 158 159 160 161 162 163 164 165
123093	23 54 62 75 79 82 85 86 90 91 92 95 98 100 104 106 109 110 111 113 117 118 121 122 123 125 126 128 129 131 133 135 136 137 138 139 140 142 143 145 146 147 148 151 152 153 154 155 156 157 158 159 161 162 163 164 165
359716	19 23 42 62 75 78 79 80 85 87 89 90 92 93 95 97 99 100 103 104 105 106 107 109 110 111 112 117 119 120 121 122 123 125 126 128 131 132 133 134 135 136 137 138 140 142 143 144 145 146 147 148 150 151 153 154 155 156 157 158 159 160 161 162 163 164 165
424154	23 49 53 54 72 74 75 79 80 82 85 86 90 91 92 93 95 97 98 100 104 106 109 110 111 114 115 116 117 118 120 121 122 123 126 128 129 131 136 137 138 140 141 142 145 146 147 148 149 151 152 153 154 155 156 157 158 159 160 161 162 163 164 165
420815	23 38 53 54 65 72 74 75 77 79 80 82 83 84 85 90 91 92 95 96 97 98 100 104 105 106 109 110 111 114 115 117 120 121 122 123 125 126 131 133 135 136 137 138 140 141 142 145 146 147 148 149 151 152 153 154 155 156 157 158 159 160 161 162 163 164 165
346334	23 54 65 66 74 79 81 88 90 92 95 98 104 106 109 110 111 112 115 116 117 121 123 125 126 129 131 132 136 137 138 140 141 142 145 146 149 151 152 153 154 155 156 157 158 159 160 161 162 163 164 165
30943	8 11 23 54 66 79 89 90 91 92 95 96 97 104 106 109 110 111 112 117 118 121 123 126 127 128 129 131 133 136 137 140 142 143 146 147 150 151 153 154 155 156 157 158 159 160 161 162 163 164 165
93410	23 49 53 54 72 74 75 79 80 82 83 85 86 90 91 92 95 96 97 100 104 106 109 110 111 114 115 117 118 121 122 123 126 128 129 131 136 137 138 140 141 142 146 147 148 149 151 152 153 154 155 156 157 158 159 160 161 162 163 164 165
266550	23 49 53 54 57 72 74 75 79 80 82 85 86 90 91 92 95 97 98 100 104 106 109 110 111 114 115 117 118 120 121 122 123 126 128 129 131 132 136 137 138 140 141 142 145 146 147 148 149 151 152 153 154 155 156 157 158 159 160 161 162 163 164 165
970468	36 38 41 52 57 62 65 71 74 77 79 80 81 83 85 88 92 93 94 95 96 97 102 108 110 111 115 116 117 120 121 122 124 125 130 136 137 141 142 146 148 149 154 155 156 158 159 160 161 162 163 164 165
517350	26 45 50 52 62 69 72 75 76 84 92 93 94 95 98 99 105 109 110 113 117 121 122 124 125 126 127 133 137 138 140 142 143 145 146 148 150 151 152 153 154 155 156 157 158 159 160 161 162 163 164 165
280811	23 54 65 66 74 79 81 88 90 92 95 97 98 104 106 109 110 111 112 115 116 117 121 123 125 126 128 129 131 132 136 137 138 140 141 142 145 146 147 149 151 152 153 154 155 156 157 158 159 160 161 162 163 164 165
105711	25 43 49 53 54 62 77 78 79 82 84 88 90 91 92 95 100 104 106 110 111 113 117 118 119 125 128 131 132 136 138 139 140 142 143 145 146 147 151 152 153 154 155 156 157 158 159 161 162 163 164 165
302320	32 33 51 55 58 59 60 61 64 67 73 75 79 81 83 88 90 91 92 94 95 96 100 102 104 105 106 110 111 112 117 121 122 124 125 128 129 130 136 137 140 142 145 146 147 148 150 151 153 154 155 156 158 159 161 162 163 164 165
1057009	37 47 64 77 78 80 81 87 88 90 97 98 103 106 107 110 117 119 120 121 125 134 137 138 142 143 145 151 153 154 155 156 158 161 162 163 164 165
141207	41 77 85 86 93 95 100 108 115 118 122 123 126 128 129 132 142 147 148 149 152 153 154 155 157 158 159 160 161 163 164 165
93429	23 25 37 43 52 54 69 74 77 78 79 80 82 84 90 91 92 94 95 100 104 106 108 109 110 111 115 117 119 123 124 126 131 132 136 138 140 141 142 146 147 149 151 153 154 155 156 157 158 159 160 161 162 163 164 165
967878	36 37 38 41 43 52 57 62 65 71 74 77 79 80 81 82 83 88 90 91 92 93 94 95 96 97 100 102 104 106 108 110 111 115 117 120 121 122 124 125 130 131 136 137 141 142 146 148 149 151 153 154 155 156 158 159 160 161 162 163 164 165
162041	36 41 47 49 62 65 74 75 77 79 81 82 83 84 85 86 88 90 91 92 96 98 100 104 106 110 111 115 117 118 120 121 122 125 128 129 131 133 135 137 138 142 145 147 148 149 151 153 154 155 156 158 160 161 162 163 164 165
333050	23 54 75 79 80 85 86 90 92 95 97 98 100 104 106 109 110 111 117 121 122 123 125 126 127 129 131 132 133 136 137 138 140 142 143 145 146 148 150 151 152 153 154 155 156 157 158 159 161 162 163 164 165
91387	23 53 54 57 72 74 79 80 82 83 90 91 92 95 96 97 100 104 106 109 110 111 114 115 117 123 126 128 129 131 132 136 137 138 140 141 142 146 147 149 151 152 153 154 155 156 157 158 159 160 161 162 163 164 165
506154	23 26 28 45 49 50 52 57 62 66 72 74 75 76 83 92 93 94 95 96 98 99 105 106 109 110 112 113 117 120 121 122 123 124 126 127 133 136 137 140 141 142 143 145 146 148 149 150 152 153 154 156 157 158 159 160 161 162 163 164 165
162049	28 32 33 36 46 47 51 55 58 59 60 61 64 67 73 75 79 81 83 86 87 88 90 91 92 94 95 96 100 102 104 106 107 110 111 112 117 120 121 122 124 125 129 130 134 136 137 138 140 142 145 146 148 150 151 153 154 155 156 158 159 161 162 163 164 165
558338	37 41 47 64 77 78 80 81 88 90 97 98 106 110 117 119 120 121 125 137 138 142 143 145 151 153 154 155 156 158 161 162 163 164 165
30979	8 11 23 53 54 79 80 89 90 91 92 95 97 104 106 109 110 111 117 118 121 123 126 127 128 129 131 133 136 137 140 142 143 145 146 147 150 151 153 154 155 156 157 158 159 160 161 162 163 164 165
970501	23 41 52 77 79 80 82 90 92 93 94 95 100 106 108 109 110 111 116 117 122 123 124 126 128 132 136 138 142 146 148 149 151 153 154 155 156 157 158 159 160 161 162 163 164 165
372112	23 38 53 54 65 72 74 75 77 79 80 82 83 84 85 90 91 92 95 96 97 98 100 104 105 106 109 110 111 115 117 120 121 122 123 125 126 131 133 135 136 137 138 140 142 145 146 147 148 149 151 152 153 154 155 156 157 158 159 160 161 162 163 164 165
222984	19 49 54 57 62 65 72 74 75 79 80 82 83 85 86 90 91 92 95 96 98 100 104 105 109 110 111 113 115 117 118 120 121 122 125 126 127 128 129 131 132 133 136 137 138 140 142 143 145 146 147 148 149 150 151 152 153 154 155 156 157 158 159 160 161 162 163 164 165
328970	36 53 72 75 80 81 83 84 85 86 88 90 91 92 95 96 97 98 100 104 105 110 111 117 118 120 121 122 125 128 129 131 136 137 138 140 142 145 146 147 148 151 152 153 154 155 156 158 159 161 162 163 164 165
369419	23 49 53 54 72 74 75 79 80 82 85 86 90 91 92 93 95 97 98 100 104 106 109 110 111 115 116 117 118 120 121 122 123 125 126 128 129 131 136 137 138 140 141 142 145 146 147 148 149 151 152 153 154 155 156 157 158 159 160 161 162 163 164 165
967436	23 41 52 77 79 80 90 91 92 93 94 95 104 106 108 109 110 111 117 118 122 123 124 126 128 129 136 142 145 146 147 148 149 151 153 154 155 156 157 158 159 160 161 162 163 164 165
967437	23 41 52 77 79 80 90 92 93 94 95 104 106 108 109 110 111 113 117 122 123 124 125 126 131 136 139 140 142 143 145 146 148 149 151 152 153 154 155 156 157 158 159 160 161 162 163 164 165
61198	23 53 54 72 74 79 82 90 91 92 95 97 104 106 109 110 111 115 117 123 125 126 128 129 131 132 136 138 139 140 142 145 146 147 149 151 152 153 154 155 156 157 158 159 160 161 162 163 164 165
160527	32 33 51 53 55 58 59 60 61 64 67 72 73 75 79 80 81 82 83 88 90 91 92 94 95 96 97 100 102 104 106 110 111 112 117 118 121 122 124 125 128 129 130 131 136 137 138 140 142 145 146 147 148 150 151 152 153 154 155 156 158 159 160 161 162 163 164 165
70928	37 45 49 51 52 54 55 57 58 59 60 61 64 67 73 75 77 79 81 86 88 89 90 91 92 94 95 97 98 99 100 102 104 106 109 110 111 112 117 118 120 121 122 124 125 128 129 130 131 132 133 136 137 138 140 142 145 146 147 148 151 153 154 155 156 157 158 159 161 162 163 164 165
164113	32 33 51 55 58 59 60 61 64 67 73 75 79 81 83 87 88 90 91 92 94 95 96 100 102 103 104 106 107 110 111 112 117 121 122 124 125 128 129 130 134 136 137 140 142 145 146 147 148 150 151 153 154 155 156 158 159 161 162 163 164 165
357139	19 23 42 62 74 75 78 79 80 82 85 86 87 89 90 92 93 95 97 99 100 103 104 105 106 107 109 110 111 112 117 119 120 121 122 123 125 126 128 129 131 132 133 134 135 136 137 138 140 142 143 144 145 146 148 149 150 151 153 154 155 156 157 158 159 160 161 162 163 164 165
1110212	19 23 62 75 78 79 80 82 85 89 90 92 93 95 97 99 100 104 105 106 109 110 111 114 115 116 117 119 120 121 122 123 125 126 128 129 131 132 135 136 137 138 140 142 143 144 145 146 147 148 149 150 151 153 154 155 156 157 158 159 160 161 162 163 164 165
118039	23 54 66 74 79 81 88 90 92 95 104 106 109 110 111 112 116 117 123 125 126 129 131 132 136 138 140 141 142 145 146 149 151 152 153 154 155 156 157 158 159 160 161 162 163 164 165
160025	32 33 51 55 56 58 59 60 61 63 64 67 70 71 73 75 79 81 83 88 90 91 92 94 95 96 100 102 104 106 110 111 112 117 119 121 122 124 125 128 129 130 133 135 136 137 140 142 145 146 147 148 150 151 153 154 155 156 158 159 161 162 163 164 165
90394	23 53 54 65 72 74 79 80 82 90 91 92 95 97 98 100 104 106 109 110 111 114 115 117 121 123 125 126 131 136 137 138 140 141 142 145 146 149 151 152 153 154 155 156 157 158 159 160 161 162 163 164 165
44828	23 37 49 52 54 69 74 77 79 80 90 91 92 93 94 95 104 106 109 110 111 114 115 117 123 124 125 126 131 136 140 141 142 145 146 149 151 153 154 155 156 157 158 159 160 161 162 163 164 165
63776	23 54 72 74 79 86 90 92 95 97 104 106 109 110 111 115 117 123 125 126 128 129 131 132 136 138 140 142 145 146 147 149 151 152 153 154 155 156 157 158 159 160 161 162 163 164 165
220449	23 53 54 74 79 80 82 90 91 92 95 100 104 106 109 110 111 115 117 123 125 126 128 131 132 136 138 140 141 142 145 146 149 151 152 153 154 155 156 157 158 159 160 161 162 163 164 165
138018	41 49 62 74 75 79 82 84 85 86 90 91 92 98 100 104 110 111 115 117 118 120 121 122 125 128 129 131 133 135 137 138 142 145 147 148 149 151 153 154 155 156 158 160 161 162 163 164 165
335140	23 53 54 72 74 79 80 82 90 91 92 95 97 100 104 106 109 110 111 115 117 123 125 126 131 136 138 140 142 145 146 147 149 151 152 153 154 155 156 157 158 159 160 161 162 163 164 165
967250	37 38 41 43 52 57 62 65 71 74 77 79 80 83 91 92 93 94 95 96 97 102 104 106 108 110 111 115 117 120 121 122 124 125 130 131 133 135 136 137 141 142 146 148 149 151 154 155 156 158 159 160 161 162 163 164 165
420648	23 37 38 45 53 54 72 74 75 77 78 79 80 82 84 85 90 91 92 95 97 98 99 100 104 106 109 110 111 114 115 117 119 120 121 122 123 126 131 133 136 137 138 140 141 142 143 145 146 147 148 149 150 151 152 153 154 155 156 157 158 159 160 161 162 163 164 165
264668	23 49 53 54 57 72 74 75 79 80 82 85 86 90 91 92 95 97 98 100 104 106 109 110 111 114 115 117 118 120 121 122 123 126 128 129 131 132 136 137 138 140 141 142 145 146 147 148 149 151 152 153 154 155 156 157 158 159 160 161 162 163 164 165
357764	19 23 42 62 74 75 78 79 80 85 86 87 89 90 92 93 95 97 99 100 103 104 105 106 107 109 110 111 112 117 119 120 121 122 123 125 126 128 131 132 133 134 135 136 137 138 140 142 143 144 145 146 147 148 149 150 151 153 154 155 156 157 158 159 160 161 162 163 164 165
556332	22 37 47 64 77 78 80 81 88 90 97 98 106 110 117 119 120 121 129 137 138 142 143 145 147 151 153 154 155 156 158 161 162 163 164 165
163117	32 33 46 51 55 58 59 60 61 64 67 73 75 79 81 83 87 88 90 91 92 94 95 96 100 102 104 106 107 110 111 112 117 121 122 124 125 128 129 130 134 136 137 140 142 145 146 147 148 150 151 153 154 155 156 158 159 161 162 163 164 165
53551	32 33 51 54 55 58 60 61 67 69 73 79 86 88 89 90 91 92 94 95 97 102 104 106 109 110 111 112 114 117 124 125 126 128 130 131 132 136 138 140 142 145 146 148 151 153 154 155 156 157 158 159 160 161 162 163 164 165
250672	32 33 51 54 55 58 60 61 67 69 73 79 86 88 89 90 91 92 93 94 95 97 102 104 106 108 109 110 111 112 117 124 125 126 130 131 136 138 140 142 145 146 148 151 153 154 155 156 157 158 159 160 161 162 163 164 165
53553	32 33 51 54 55 58 59 60 61 64 67 69 73 79 81 82 86 88 89 90 91 92 93 94 95 97 100 102 104 106 108 109 110 111 112 117 118 124 125 126 129 130 131 136 138 140 142 145 146 147 148 151 153 154 155 156 157 158 159 160 161 162 163 164 165
224564	19 32 33 47 51 54 55 57 58 59 60 61 64 65 67 72 73 74 75 79 80 81 83 86 88 90 91 92 94 95 96 98 100 102 104 105 106 110 111 112 115 117 120 121 122 124 125 128 129 130 131 132 133 136 137 138 140 142 143 145 146 147 148 149 150 151 152 153 154 155 156 158 159 160 161 162 163 164 165
226613	23 54 74 79 90 92 95 104 106 109 110 111 117 123 125 126 131 136 140 142 145 146 149 151 153 154 155 156 157 158 159 160 161 162 163 164 165
91958	49 53 54 57 72 74 75 79 80 82 85 86 90 91 92 95 97 98 100 104 109 110 111 114 115 117 118 120 121 122 125 128 129 131 132 136 137 138 140 141 142 145 146 147 148 149 151 152 153 154 155 156 157 158 159 160 161 162 163 164 165
163127	36 41 47 49 54 62 65 74 75 79 81 82 83 84 85 86 88 90 91 92 96 98 100 104 110 111 115 117 118 120 121 122 125 128 129 131 137 138 142 145 147 148 149 151 153 154 155 156 158 160 161 162 163 164 165
161592	28 32 33 36 47 51 55 58 59 60 61 64 67 73 75 79 81 83 86 88 90 91 92 94 95 96 100 102 104 106 110 111 112 117 120 121 122 124 125 129 130 136 137 138 140 142 145 146 148 150 151 153 154 155 156 158 159 160 161 162 163 164 165
303412	28 32 33 36 42 47 51 55 58 59 60 61 64 67 73 75 79 81 83 86 87 88 90 91 92 94 95 96 100 102 104 106 107 110 111 112 117 120 121 122 124 125 129 130 134 136 137 138 140 142 145 146 148 150 151 153 154 155 156 158 159 161 162 163 164 165
600892	36 41 47 49 62 65 74 75 77 79 80 81 82 83 85 86 88 90 91 92 93 96 100 104 106 108 110 111 115 116 117 120 121 122 125 128 129 131 133 135 137 138 141 142 145 147 148 149 151 153 154 155 156 158 160 161 162 163 164 165
602941	23 54 74 75 79 80 85 86 90 91 92 95 98 100 104 106 109 110 111 115 117 121 122 123 125 126 128 129 131 132 133 136 137 138 140 141 142 143 145 146 147 148 149 150 151 152 153 154 155 156 157 158 159 160 161 162 163 164 165
629566	23 54 79 86 88 90 92 95 104 106 108 109 110 111 114 117 123 125 126 128 129 131 132 136 138 140 142 145 146 147 151 152 153 154 155 156 157 158 159 160 161 162 163 164 165
337630	53 54 65 72 74 79 80 82 90 91 92 95 97 98 100 104 110 111 114 115 117 121 125 131 136 137 140 141 142 145 146 149 151 152 153 154 155 156 158 159 160 161 162 163 164 165
1083201	32 33 47 51 53 54 55 57 58 59 60 61 64 65 67 69 72 73 74 79 80 81 82 83 88 90 92 94 95 96 98 100 102 104 105 106 110 111 112 115 116 117 120 121 124 125 130 131 132 136 137 140 141 142 145 146 148 149 151 152 153 154 155 156 158 159 160 161 162 163 164 165
88899	53 54 65 72 74 79 80 82 90 91 92 95 97 98 100 104 110 111 115 117 121 125 131 136 137 140 142 145 146 149 151 152 153 154 155 156 158 159 160 161 162 163 164 165
53573	32 33 51 54 55 58 60 61 67 69 73 79 88 89 91 92 93 94 95 97 102 104 106 109 110 111 112 116 117 124 125 126 130 131 136 140 142 145 146 148 149 151 152 153 154 155 156 157 158 159 160 161 162 163 164 165
81222	23 53 54 72 74 79 80 82 90 91 92 95 97 100 104 106 109 110 111 114 115 117 123 125 126 131 136 138 140 141 142 145 146 147 149 151 152 153 154 155 156 157 158 159 160 161 162 163 164 165
557897	37 47 64 77 78 80 81 88 90 97 98 106 110 117 118 119 120 121 128 129 137 138 142 143 145 147 151 153 154 155 156 158 161 162 163 164 165
560205	37 47 56 63 64 70 71 77 78 80 81 88 90 94 97 98 102 106 110 117 119 120 121 122 124 125 130 133 135 136 137 138 142 143 145 146 148 151 153 154 155 156 158 159 161 162 163 164 165
345399	32 33 51 53 55 56 58 59 60 61 63 64 67 70 71 72 73 75 79 80 81 82 83 88 90 91 92 94 95 96 97 100 102 104 106 110 111 112 117 118 119 121 122 124 125 128 129 130 131 133 135 136 137 138 140 142 145 146 147 148 150 151 152 153 154 155 156 158 159 161 162 163 164 165
1009996	36 38 41 52 57 62 65 71 74 77 79 80 81 83 88 92 93 94 95 96 97 102 104 108 110 111 115 117 120 121 122 124 125 130 136 137 141 142 146 148 149 151 154 155 156 158 159 160 161 162 163 164 165
49997	22 23 53 54 66 72 74 79 80 82 90 91 92 95 97 100 104 106 109 110 111 112 116 117 123 125 126 131 133 136 138 140 142 145 146 147 149 150 151 152 153 154 155 156 157 158 159 160 161 162 163 164 165
91717	23 53 54 66 72 74 79 80 82 90 91 92 95 97 100 104 106 108 109 110 111 112 114 115 117 123 126 128 131 132 136 138 139 140 141 142 143 145 146 149 151 152 153 154 155 156 157 158 159 160 161 162 163 164 165
248143	22 42 53 54 65 66 72 74 75 79 80 83 85 90 91 92 95 96 97 98 100 101 104 105 107 110 111 112 117 118 120 121 122 128 129 131 133 134 136 137 140 141 142 146 147 148 149 150 151 152 153 154 155 156 158 159 160 161 162 163 164 165
301904	74 89 90 92 95 97 104 109 110 111 115 117 123 125 126 128 136 140 145 146 149 151 153 154 155 156 157 158 159 160 161 162 163 164 165
380728	54 66 79 90 91 92 95 96 104 110 111 112 117 118 125 128 129 131 132 133 136 142 145 146 147 151 154 155 156 158 159 161 162 163 164 165
143698	23 41 49 52 77 79 93 94 95 106 110 114 116 117 122 123 124 126 132 142 148 149 152 154 155 156 157 158 159 160 161 162 163 164 165
161507	36 41 47 49 62 65 74 75 77 79 81 82 83 84 85 86 88 90 91 92 96 98 100 104 106 110 111 115 117 118 120 121 122 125 128 129 131 133 135 137 138 142 145 147 148 149 151 153 154 155 156 158 160 161 162 163 164 165
62292	53 54 72 79 82 84 90 91 92 95 97 104 109 110 111 114 115 116 117 128 129 131 132 136 139 140 141 142 146 147 149 151 152 153 154 155 156 157 158 159 160 161 162 163 164 165
93527	23 53 54 72 74 79 80 82 90 91 92 95 97 100 104 106 109 110 111 115 117 123 125 126 131 132 136 138 139 140 142 145 146 149 151 152 153 154 155 156 157 158 159 160 161 162 163 164 165
206269	22 53 54 65 72 74 75 79 80 83 85 90 91 92 95 96 97 98 100 101 104 105 110 111 114 115 117 118 120 121 122 128 129 131 133 136 137 140 141 142 146 147 148 149 150 151 152 153 154 155 156 158 159 160 161 162 163 164 165
339802	23 54 74 79 90 92 95 104 106 109 110 111 117 123 125 126 131 136 140 142 145 146 149 151 153 154 155 156 157 158 159 160 161 162 163 164 165
411997	49 51 54 55 58 59 60 61 64 67 73 79 81 84 88 90 91 92 95 99 102 104 110 111 112 114 115 117 118 124 125 130 131 136 142 145 146 147 148 151 154 155 156 158 159 160 161 162 163 164 165
123241	23 54 62 75 79 82 85 86 90 91 92 95 98 100 104 106 109 110 111 117 118 121 122 123 125 126 128 129 131 133 135 136 137 138 142 145 146 147 148 151 153 154 155 156 157 158 159 161 162 163 164 165
633184	23 54 62 75 79 82 85 86 90 91 92 95 98 100 104 106 109 110 111 117 118 121 122 123 125 126 128 129 131 133 135 136 137 138 142 145 146 147 148 151 153 154 155 156 157 158 159 160 161 162 163 164 165
403088	16 22 23 54 57 79 82 89 90 91 92 93 95 97 100 104 106 108 109 110 111 117 123 125 126 128 129 131 132 136 137 138 140 141 142 145 146 149 150 151 152 153 154 155 156 157 158 159 160 161 162 163 164 165
353282	23 49 53 54 72 74 79 80 82 85 86 90 91 92 93 95 97 100 104 106 109 110 111 115 116 117 122 123 125 126 131 136 138 140 141 142 145 146 147 148 149 151 152 153 154 155 156 157 158 159 160 161 162 163 164 165
339299	23 53 54 57 72 74 79 80 82 83 90 91 92 95 96 97 100 104 106 109 110 111 114 115 117 123 125 126 131 132 136 137 138 140 141 142 146 149 151 152 153 154 155 156 157 158 159 160 161 162 163 164 165
558822	37 41 47 64 77 78 80 81 88 90 97 98 106 110 117 119 120 121 125 137 138 142 143 144 145 150 151 153 154 155 156 158 161 162 163 164 165
560488	37 47 64 77 78 80 81 88 90 93 97 98 106 108 110 113 117 119 120 121 125 126 127 137 138 142 143 144 145 150 151 152 153 154 155 156 157 158 159 160 161 162 163 164 165
64361	23 54 74 75 79 80 85 90 92 95 97 98 100 104 106 108 109 110 111 116 117 121 122 123 125 126 127 129 131 132 133 136 137 138 140 142 143 145 146 148 149 150 151 152 153 154 155 156 157 158 159 160 161 162 163 164 165
555882	37 42 47 64 77 78 80 81 87 88 90 97 98 106 107 110 117 119 120 121 125 134 137 138 142 143 144 145 150 151 153 154 155 156 158 161 162 163 164 165
53611	32 33 36 51 54 55 58 60 61 67 69 73 79 81 83 88 90 92 93 94 95 96 102 104 106 108 110 111 112 117 124 125 130 131 136 137 140 142 146 148 151 154 155 156 158 159 160 161 162 163 164 165
135022	12 49 67 81 88 123 124 132 136 140 146 154 155 157 159 164
512059	23 26 28 45 49 50 52 57 62 72 75 76 83 92 93 94 95 96 98 99 105 106 109 110 113 114 117 120 121 122 123 124 126 127 133 136 137 138 140 142 143 145 146 148 149 150 152 153 154 155 156 157 158 159 160 161 162 163 164 165
594805	23 53 54 72 74 79 80 82 86 90 91 92 95 97 100 104 106 109 110 111 114 115 117 118 123 126 128 129 131 132 136 138 139 140 141 142 146 147 149 151 152 153 154 155 156 157 158 159 160 161 162 163 164 165
594808	23 25 37 43 52 54 65 69 74 77 78 79 80 82 83 84 90 91 92 94 95 96 100 104 105 106 109 110 111 115 117 119 121 123 124 125 126 131 136 137 138 140 141 142 145 146 147 149 151 153 154 155 156 157 158 159 160 161 162 163 164 165
63867	23 54 75 79 80 85 86 90 92 95 97 98 100 104 106 109 110 111 117 121 122 123 125 126 127 128 129 131 132 133 136 137 138 140 142 143 145 146 147 148 150 151 152 153 154 155 156 157 158 159 161 162 163 164 165
423013	16 22 23 54 57 79 82 89 90 91 92 93 95 97 100 104 106 108 109 110 111 117 123 125 126 128 129 131 132 136 137 138 140 141 142 145 146 149 150 151 152 153 154 155 156 157 158 159 160 161 162 163 164 165
53120	32 33 51 54 55 58 60 61 67 69 73 79 88 90 92 93 94 95 102 104 106 108 110 111 112 117 124 125 130 131 136 140 142 145 146 148 151 154 155 156 158 159 160 161 162 163 164 165
266628	23 49 53 54 57 72 74 75 79 80 82 85 86 90 91 92 95 97 98 100 104 106 109 110 111 115 117 118 120 121 122 123 125 126 128 129 131 132 136 137 138 140 142 145 146 147 148 149 151 152 153 154 155 156 157 158 159 160 161 162 163 164 165
585605	49 53 54 72 79 82 84 90 91 92 95 97 100 104 109 110 111 114 115 116 117 128 129 131 132 136 138 139 140 141 142 146 147 149 151 152 153 154 155 156 157 158 159 160 161 162 163 164 165
557959	37 47 64 77 78 80 81 88 90 96 97 98 106 110 117 118 119 120 121 128 129 137 138 142 143 145 147 151 153 154 155 156 158 161 162 163 164 165
332168	23 53 54 65 72 74 79 80 82 90 91 92 95 97 98 100 104 105 106 109 110 111 114 115 117 121 123 125 126 131 136 137 138 140 141 142 145 146 149 151 152 153 154 155 156 157 158 159 160 161 162 163 164 165
602505	53 72 80 84 91 92 95 97 99 104 105 110 111 117 125 131 136 142 144 145 146 150 151 152 154 155 156 158 159 161 162 163 164 165
125323	23 54 62 74 75 79 82 85 86 90 91 92 95 98 100 104 106 109 110 111 117 118 121 122 123 125 126 128 129 131 133 135 136 137 138 142 145 146 147 148 149 151 153 154 155 156 157 158 159 160 161 162 163 164 165
162700	32 33 51 55 58 60 61 64 67 73 75 79 81 83 88 90 91 92 94 95 96 100 102 104 106 110 111 112 114 115 116 117 118 121 122 124 128 129 130 132 136 137 138 140 142 146 147 148 150 151 153 154 155 156 158 159 160 161 162 163 164 165
557454	37 47 64 77 78 80 81 88 90 93 97 98 106 110 113 117 119 120 121 125 126 127 137 138 142 143 145 151 152 153 154 155 156 157 158 159 160 161 162 163 164 165
235919	16 22 23 57 90 91 95 97 104 106 109 110 111 117 123 125 126 128 129 132 137 138 145 146 151 152 153 154 155 156 157 158 159 161 162 163 164 165
150416	41 49 54 62 66 74 75 79 80 82 84 85 86 90 91 92 95 98 100 104 108 110 111 112 117 118 121 122 125 128 129 131 133 135 136 137 138 141 142 145 147 148 149 151 153 154 155 156 158 159 160 161 162 163 164 165
581526	14 51 58 60 61 67 73 81 88 102 124 125 129 130 132 138 145 148 153 155 162 163 164 165
93079	23 53 54 72 74 79 80 82 90 91 92 95 97 100 104 106 109 110 111 114 115 117 118 123 126 128 129 131 132 136 138 139 140 141 142 146 147 149 151 152 153 154 155 156 157 158 159 160 161 162 163 164 165
581528	14 51 58 60 61 67 73 74 81 88 102 115 116 118 124 128 129 130 132 138 141 147 148 149 153 155 160 164
581529	14 51 58 60 61 67 73 81 88 102 108 114 115 116 118 124 128 129 130 132 138 147 148 149 153 155 160 164
411546	19 23 41 42 62 75 78 79 80 82 85 87 89 90 92 95 97 99 100 103 104 105 106 107 109 110 111 112 117 119 120 121 122 123 125 126 128 129 131 132 133 134 135 136 137 138 140 142 143 144 145 146 148 150 151 153 154 155 156 157 158 159 161 162 163 164 165
164591	32 33 51 55 56 58 59 60 61 63 64 67 70 71 73 75 79 80 81 83 88 90 91 92 94 95 96 97 100 102 104 106 110 111 112 117 119 121 122 124 125 128 129 130 133 135 136 137 140 142 144 145 146 147 148 150 151 153 154 155 156 158 159 161 162 163 164 165
135582	12 31 103 106 107 124 130 134 148
610207	23 53 54 65 72 74 79 80 82 90 91 92 95 97 98 100 104 106 109 110 111 114 115 117 121 123 125 126 131 136 137 138 140 141 142 145 146 149 151 152 153 154 155 156 157 158 159 160 161 162 163 164 165
264611	23 53 54 72 74 79 80 82 89 90 91 92 93 95 97 100 104 106 109 110 111 113 114 115 117 123 125 126 127 131 136 138 140 141 142 143 145 146 149 151 152 153 154 155 156 157 158 159 160 161 162 163 164 165
603561	32 33 42 51 55 58 59 60 61 64 67 73 75 79 81 83 87 88 90 91 92 94 95 96 100 102 104 106 107 110 111 112 117 121 122 124 125 128 129 130 134 136 137 140 142 145 146 147 148 150 151 153 154 155 156 158 159 161 162 163 164 165
93098	23 53 54 65 72 74 79 80 82 90 91 92 95 97 98 100 104 106 109 110 111 114 115 117 121 123 125 126 131 136 137 138 140 141 142 145 146 149 151 152 153 154 155 156 157 158 159 160 161 162 163 164 165
56237	32 33 51 54 55 58 60 61 67 69 73 79 86 88 89 90 91 92 93 94 95 97 102 104 106 108 109 110 111 112 113 117 124 125 126 130 131 136 138 140 142 143 145 146 148 151 152 153 154 155 156 157 158 159 160 161 162 163 164 165
92590	23 53 54 65 72 74 75 77 79 80 82 83 85 90 91 92 95 96 97 100 104 106 109 110 111 114 115 117 120 121 122 123 125 126 131 136 137 138 140 141 142 146 147 148 149 151 152 153 154 155 156 157 158 159 160 161 162 163 164 165
89522	23 53 54 72 74 79 80 82 90 91 92 93 95 97 100 104 106 109 110 111 113 114 115 117 123 125 126 131 136 138 140 141 142 143 145 146 147 149 151 152 153 154 155 156 157 158 159 160 161 162 163 164 165
162740	36 41 47 49 62 65 74 75 77 79 81 82 83 85 86 88 90 91 92 93 96 98 100 104 106 110 111 115 116 117 118 120 121 122 125 128 129 131 133 135 137 138 141 142 145 147 148 149 151 153 154 155 156 158 160 161 162 163 164 165
33205	8 11 23 53 54 79 80 89 90 91 92 95 96 97 104 106 109 110 111 117 121 123 126 127 128 129 131 133 136 137 140 142 143 146 147 150 151 153 154 155 156 157 158 159 160 161 162 163 164 165
336311	23 53 54 72 74 79 80 82 90 91 92 95 97 100 104 106 109 110 111 114 115 117 123 125 126 131 136 138 140 141 142 145 146 149 151 152 153 154 155 156 157 158 159 160 161 162 163 164 165
78778	23 53 54 72 74 79 80 82 90 91 92 95 97 100 104 106 109 110 111 114 115 117 123 125 126 131 136 138 140 141 142 145 146 149 151 152 153 154 155 156 157 158 159 160 161 162 163 164 165
328123	8 11 23 54 75 79 83 85 89 90 91 92 95 96 97 100 106 109 110 111 117 120 121 122 123 126 127 128 129 131 133 136 137 138 140 142 143 146 147 148 150 151 153 154 155 156 157 158 159 160 161 162 163 164 165
256957	23 53 54 72 74 79 80 82 90 91 92 95 97 100 104 106 109 110 111 114 115 117 123 126 131 136 138 140 141 142 146 149 151 152 153 154 155 156 157 158 159 160 161 162 163 164 165
67006	23 54 79 86 88 90 92 95 104 106 109 110 111 117 123 125 126 128 129 131 132 136 138 140 142 145 146 147 151 152 153 154 155 156 157 158 159 161 162 163 164 165
357828	32 33 51 55 58 59 60 61 64 67 73 75 79 81 83 88 90 91 92 94 95 96 100 102 104 106 110 111 112 117 121 122 124 125 128 129 130 136 137 140 142 145 146 147 148 150 151 153 154 155 156 158 159 160 161 162 163 164 165
559606	37 47 56 63 64 70 71 77 78 80 81 88 90 94 97 98 102 106 110 117 119 120 121 122 124 125 130 133 135 136 137 138 142 143 144 145 146 148 150 151 153 154 155 156 158 159 161 162 163 164 165
506822	28 57 62 65 72 83 84 92 96 97 98 105 109 110 113 117 120 121 123 125 126 133 135 137 140 142 143 144 145 146 151 152 153 154 156 157 158 159 160 161 162 163 164 165
62407	49 53 54 72 79 82 84 90 91 92 95 97 100 104 109 110 111 114 115 117 125 128 129 131 132 136 138 139 140 142 145 146 147 149 151 152 153 154 155 156 157 158 159 160 161 162 163 164 165
560204	37 47 56 63 64 70 71 77 78 80 81 88 90 94 97 98 102 106 110 117 119 120 121 122 124 125 130 133 135 136 137 138 142 143 145 146 148 151 153 154 155 156 158 159 161 162 163 164 165
296907	23 41 49 52 74 77 79 94 95 106 108 110 115 117 118 122 123 124 126 128 129 132 141 142 147 148 149 152 154 155 156 157 158 159 160 161 163 164 165
31694	8 11 23 54 66 79 89 90 91 92 95 97 104 106 109 110 111 112 113 117 118 121 123 125 126 127 128 129 131 133 136 137 140 142 143 145 146 147 150 151 152 153 154 155 156 157 158 159 161 162 163 164 165
1110206	19 23 42 62 74 75 78 79 80 85 87 89 90 92 93 95 97 99 100 103 104 105 106 107 109 110 111 112 115 117 119 120 121 122 123 125 126 128 131 132 133 134 135 136 137 138 140 141 142 143 144 145 146 148 149 150 151 153 154 155 156 157 158 159 160 161 162 163 164 165
515455	23 41 52 77 79 80 90 92 93 94 95 104 106 108 109 110 111 117 122 123 124 125 126 136 142 145 146 148 149 151 153 154 155 156 157 158 159 160 161 162 163 164 165
64982	23 54 75 79 80 85 86 90 92 95 97 98 100 104 106 108 109 110 111 114 115 117 121 122 123 125 126 127 128 129 131 132 133 136 137 138 140 142 143 145 146 147 148 150 151 152 153 154 155 156 157 158 159 160 161 162 163 164 165
576763	27 37 45 49 51 52 54 55 57 58 59 60 61 64 67 73 75 77 79 81 86 87 88 89 90 91 92 94 95 97 98 99 100 102 104 106 107 109 110 111 112 113 117 118 120 121 122 124 125 128 129 130 131 132 133 134 136 137 138 139 140 142 143 144 145 146 147 148 150 151 152 153 154 155 156 157 158 159 161 162 163 164 165
116700	23 54 74 79 86 88 90 92 95 104 106 109 110 111 115 117 123 125 126 128 129 131 132 136 138 140 142 145 146 147 149 151 152 153 154 155 156 157 158 159 160 161 162 163 164 165
36829	53 72 75 80 84 85 86 90 91 92 95 97 98 100 104 105 110 111 117 118 121 122 125 128 129 131 136 137 138 140 142 145 146 147 148 151 152 153 154 155 156 158 159 161 162 163 164 165
1110207	19 23 42 62 75 78 79 80 82 85 87 89 90 92 93 95 97 99 100 103 104 105 106 107 109 110 111 112 117 119 120 121 122 123 125 126 128 129 131 132 133 134 135 136 137 138 140 142 143 144 145 146 148 150 151 153 154 155 156 157 158 159 160 161 162 163 164 165
560489	37 47 64 77 78 80 81 88 90 93 97 98 106 110 113 117 119 120 121 125 126 127 137 138 142 143 145 151 152 153 154 155 156 157 158 159 160 161 162 163 164 165
93664	23 53 54 72 74 79 80 82 90 91 92 93 95 97 100 104 106 109 110 111 113 114 115 117 123 125 126 131 136 138 140 141 142 143 145 146 147 149 151 152 153 154 155 156 157 158 159 160 161 162 163 164 165
374753	23 37 38 53 54 65 72 74 75 77 79 80 82 83 84 85 90 91 92 93 95 96 97 98 100 104 105 106 109 110 111 113 114 115 117 120 121 122 123 125 126 131 133 135 136 137 138 140 141 142 143 145 146 147 148 149 151 152 153 154 155 156 157 158 159 160 161 162 163 164 165
633315	22 23 53 54 66 72 74 79 80 82 90 91 92 95 97 100 104 106 109 110 111 112 116 117 123 125 126 131 133 136 138 140 142 145 146 147 149 150 151 152 153 154 155 156 157 158 159 160 161 162 163 164 165
250340	23 54 75 79 80 85 86 90 92 95 97 98 100 104 106 109 110 111 117 121 122 123 125 126 127 128 129 131 132 133 136 137 138 140 142 143 145 146 147 148 150 151 152 153 154 155 156 157 158 159 161 162 163 164 165
616924	19 23 42 62 75 78 79 80 85 87 89 90 92 95 97 99 100 103 104 105 106 107 109 110 111 112 117 119 120 121 122 123 125 126 128 131 132 133 134 135 136 137 138 140 142 143 144 145 146 147 148 150 151 152 153 154 155 156 157 158 159 160 161 162 163 164 165
306664	32 33 51 55 58 60 61 64 67 73 74 75 79 81 83 88 90 91 92 94 95 96 100 102 104 106 108 110 111 112 117 121 122 124 128 129 130 136 137 140 142 146 147 148 149 150 151 153 154 155 156 158 159 160 161 162 163 164 165
558419	37 41 47 64 77 78 80 81 88 90 97 98 106 110 117 119 120 121 125 137 138 142 143 145 151 153 154 155 156 158 161 162 163 164 165
555500	37 41 47 64 77 78 80 81 88 90 97 98 106 110 111 117 119 120 121 137 138 142 143 145 151 153 154 155 156 158 161 162 163 164 165
125933	23 54 62 75 79 82 85 86 88 90 91 92 93 95 98 100 104 106 109 110 111 115 116 117 118 121 122 123 125 126 128 129 131 133 135 136 137 138 142 145 146 147 148 151 153 154 155 156 157 158 159 160 161 162 163 164 165
557039	37 42 47 64 77 78 80 81 87 88 90 97 98 106 107 110 117 119 120 121 125 134 137 138 142 143 145 151 153 154 155 156 158 161 162 163 164 165
93680	23 53 54 65 72 74 79 80 82 90 91 92 95 97 98 100 104 105 106 109 110 111 115 117 121 123 125 126 131 136 137 138 140 142 145 146 149 151 152 153 154 155 156 157 158 159 160 161 162 163 164 165
62449	23 53 54 72 79 82 90 91 92 95 97 104 106 109 110 111 114 115 117 123 125 126 128 129 131 132 136 138 139 140 142 145 146 147 149 151 152 153 154 155 156 157 158 159 160 161 162 163 164 165
264691	23 37 49 52 54 65 69 74 77 79 80 83 90 91 92 93 94 95 96 104 106 109 110 111 114 115 117 120 121 123 124 125 126 131 136 137 140 141 142 146 149 151 153 154 155 156 157 158 159 160 161 162 163 164 165
559605	37 42 47 64 77 78 80 81 87 88 90 97 98 106 107 110 117 119 120 121 125 134 137 138 142 143 145 151 153 154 155 156 158 161 162 163 164 165
639990	32 33 51 55 56 58 59 60 61 63 64 67 70 71 73 75 79 81 83 88 90 91 92 94 95 96 100 102 104 106 110 111 112 117 119 121 122 124 125 128 129 130 133 135 136 137 140 142 145 146 147 148 150 151 153 154 155 156 158 159 161 162 163 164 165
529911	49 54 74 79 82 84 90 91 92 95 99 100 104 110 111 115 117 123 125 128 129 131 132 136 138 140 141 142 145 146 149 151 153 154 155 156 157 158 159 160 161 162 163 164 165
592889	53 54 65 66 72 74 75 79 80 83 85 90 91 92 95 96 97 98 100 101 104 105 110 111 112 114 115 117 118 120 121 122 125 128 129 131 136 137 140 141 142 145 146 147 148 149 150 151 152 153 154 155 156 158 159 160 161 162 163 164 165
41386	23 49 54 79 90 91 92 95 104 106 109 110 111 117 118 123 125 126 128 129 131 132 133 136 140 142 143 145 146 147 150 151 152 153 154 155 156 157 158 159 161 162 163 164 165
967440	37 38 41 43 52 57 62 65 71 74 77 79 80 82 83 90 91 92 93 94 95 96 97 100 102 104 106 108 110 111 115 117 120 121 122 124 125 130 131 136 137 141 142 146 148 149 151 153 154 155 156 158 159 160 161 162 163 164 165
