#cr_index	maccs
224768	38 42 45 62 65 75 76 77 78 79 80 82 84 85 89 91 92 95 97 98 99 100 104 107 110 111 112 117 119 120 121 122 125 128 131 132 133 134 136 137 138 140 142 143 145 146 148 150 151 152 153 154 155 156 158 159 160 161 162 163 164 165
124935	42 49 74 75 79 83 85 89 90 91 92 95 96 97 100 104 107 110 111 112 117 121 122 123 125 128 129 131 133 134 135 136 137 140 141 142 145 146 147 148 149 150 151 152 153 154 155 156 157 158 159 160 161 162 163 164 165
582154	23 42 49 66 74 75 79 83 85 89 90 91 92 95 96 97 100 104 106 107 110 111 112 117 121 122 123 126 128 129 131 132 134 136 137 140 141 142 146 147 148 149 150 151 152 153 154 155 156 157 158 159 160 161 162 163 164 165
225291	38 42 45 57 62 65 72 75 76 77 78 79 80 83 84 85 87 91 92 95 96 97 98 99 100 104 105 107 110 111 117 119 120 121 122 125 128 131 132 133 134 136 137 140 142 143 145 146 148 150 151 152 153 154 155 156 158 159 161 162 163 164 165
1080332	38 42 45 62 75 76 77 78 79 80 82 84 85 89 91 92 93 95 97 98 99 100 104 107 110 111 112 116 117 119 120 121 122 123 125 126 128 131 132 133 134 136 137 138 140 142 143 145 146 148 149 150 151 152 153 154 155 156 157 158 159 160 161 162 163 164 165
606224	23 42 49 66 74 75 79 82 83 85 89 90 91 92 95 96 97 100 104 106 107 110 111 112 117 118 121 122 123 126 128 129 131 132 134 136 137 138 140 141 142 146 147 148 149 150 151 152 153 154 155 156 157 158 159 160 161 162 163 164 165
223766	38 42 45 62 75 76 77 78 79 80 82 84 85 87 89 91 92 95 97 98 99 100 104 107 110 111 112 117 119 120 121 122 125 128 131 132 133 134 136 137 138 140 142 143 145 146 148 150 151 152 153 154 155 156 158 159 161 162 163 164 165
225311	38 42 45 57 62 65 72 75 76 77 78 79 80 83 84 85 87 91 92 95 96 97 98 99 100 104 105 107 110 111 117 119 120 121 122 125 128 131 132 133 134 136 137 140 142 143 145 146 148 150 151 152 153 154 155 156 158 159 161 162 163 164 165
622626	23 42 49 66 74 75 79 83 85 89 90 91 92 95 96 97 100 104 106 107 110 111 112 117 118 121 122 123 126 128 129 131 132 134 136 137 140 141 142 146 147 148 149 150 151 152 153 154 155 156 157 158 159 160 161 162 163 164 165
217125	38 42 45 62 65 75 76 77 78 79 80 82 84 85 89 91 92 95 97 98 99 100 104 107 110 111 112 117 119 120 121 122 125 128 131 132 133 134 136 137 138 140 142 143 145 146 148 150 151 152 153 154 155 156 158 159 161 162 163 164 165
227883	38 42 45 57 62 65 72 75 76 77 78 79 80 83 84 85 87 91 92 95 96 97 98 99 100 104 105 107 109 110 111 114 117 119 120 121 122 123 125 126 128 131 132 133 134 136 137 138 140 142 143 145 146 148 150 151 152 153 154 155 156 157 158 159 160 161 162 163 164 165
125997	32 33 42 49 51 55 58 60 61 67 69 73 74 75 79 83 85 88 89 90 91 92 93 94 95 96 97 100 102 104 106 107 110 111 112 117 121 122 123 124 125 128 129 130 131 133 134 135 136 137 140 141 142 145 146 147 148 149 150 151 152 153 154 155 156 157 158 159 160 161 162 163 164 165
1078322	38 42 45 54 62 75 76 77 78 79 80 82 84 85 89 91 92 95 97 98 99 100 104 107 108 110 111 112 114 117 119 120 121 122 125 128 129 131 132 133 134 136 137 138 140 142 143 145 146 148 149 150 151 152 153 154 155 156 158 159 160 161 162 163 164 165
291383	23 42 49 66 74 75 79 83 85 89 90 91 92 95 96 97 100 104 106 107 110 111 112 117 121 122 123 125 126 128 129 131 132 133 134 135 136 137 140 141 142 145 146 147 148 149 150 151 152 153 154 155 156 157 158 159 160 161 162 163 164 165
624698	23 42 66 74 75 79 83 85 89 90 91 92 93 95 96 97 100 104 106 107 110 111 112 117 121 122 123 126 128 129 131 134 136 137 140 141 142 146 147 148 149 150 151 152 153 154 155 156 157 158 159 160 161 162 163 164 165
223754	36 38 42 45 47 62 65 75 76 77 78 79 80 81 83 84 85 87 88 91 92 95 96 97 98 99 100 104 107 110 111 117 119 120 121 122 125 128 131 132 133 134 136 137 142 143 145 146 148 150 151 152 153 154 155 156 158 159 161 162 163 164 165
225348	23 42 49 66 74 75 79 83 85 89 90 91 92 95 96 97 100 104 106 107 110 111 112 117 121 122 123 125 126 128 129 131 133 134 135 136 137 140 141 142 145 146 147 148 149 150 151 152 153 154 155 156 157 158 159 160 161 162 163 164 165
125003	23 42 66 74 75 79 82 83 85 89 90 91 92 93 95 96 97 100 104 106 107 110 111 112 116 117 121 122 123 126 128 129 131 132 134 136 137 138 140 141 142 146 147 148 149 150 151 152 153 154 155 156 157 158 159 160 161 162 163 164 165
1079372	36 38 42 45 47 62 65 75 76 77 78 79 80 81 83 84 85 87 88 91 92 95 96 97 98 99 100 104 105 107 110 111 117 119 120 121 122 125 128 131 132 133 134 136 137 142 143 145 146 148 150 151 152 153 154 155 156 158 159 161 162 163 164 165
591443	38 45 57 62 65 72 75 76 77 78 79 80 83 84 85 91 92 93 95 96 97 98 99 100 104 105 110 111 113 117 119 120 121 122 123 125 126 127 128 131 132 133 136 137 140 142 143 145 146 148 149 150 151 152 153 154 155 156 157 158 159 160 161 162 163 164 165
1078359	38 42 45 62 75 76 77 78 79 80 82 84 85 86 89 91 92 95 97 98 99 100 104 107 110 111 112 117 118 119 120 121 122 125 128 129 131 132 133 134 136 137 138 140 142 143 145 146 147 148 150 151 152 153 154 155 156 158 159 160 161 162 163 164 165
124512	23 42 49 66 74 75 79 83 85 89 90 91 92 95 96 97 100 104 105 106 107 110 111 112 117 118 121 122 123 125 126 128 129 131 132 133 134 135 136 137 140 141 142 145 146 147 148 149 150 151 152 153 154 155 156 157 158 159 160 161 162 163 164 165
596667	38 42 45 62 74 75 76 77 78 79 80 84 85 86 89 91 92 93 95 97 98 99 100 104 107 110 111 112 117 119 120 121 122 125 128 131 132 133 134 136 137 140 141 142 143 145 146 148 149 150 151 152 153 154 155 156 158 159 160 161 162 163 164 165
220775	38 42 45 62 75 76 77 78 79 80 84 85 91 92 95 97 98 99 100 104 106 107 110 111 112 117 119 120 121 122 125 128 131 132 133 134 136 137 142 143 145 146 148 150 151 152 153 154 155 156 158 159 160 161 162 163 164 165
1080342	38 45 57 62 65 72 75 76 77 78 79 80 83 84 85 91 92 93 95 96 97 98 99 100 104 105 110 111 117 119 120 121 122 123 125 126 128 131 132 133 136 137 140 142 143 145 146 148 149 150 151 152 153 154 155 156 157 158 159 160 161 162 163 164 165
125064	23 42 49 66 74 75 79 83 85 89 90 91 92 95 96 97 100 104 106 107 110 111 112 117 118 121 122 123 125 126 128 129 131 132 133 134 135 136 137 140 141 142 145 146 147 148 149 150 151 152 153 154 155 156 157 158 159 160 161 162 163 164 165
609421	23 42 49 66 74 75 79 83 85 89 90 91 92 95 96 97 100 104 106 107 110 111 112 117 121 122 123 125 126 128 129 131 134 136 137 140 141 142 145 146 147 148 149 150 151 152 153 154 155 156 157 158 159 160 161 162 163 164 165
221850	38 42 45 49 62 75 76 77 78 79 80 84 85 89 91 92 95 97 98 99 100 104 107 110 111 112 117 119 120 121 122 123 125 128 131 132 133 134 135 136 137 140 142 143 145 146 148 150 151 152 153 154 155 156 157 158 159 160 161 162 163 164 165
123568	23 42 49 66 74 75 79 83 85 89 90 91 92 95 96 97 100 104 106 107 110 111 112 117 121 122 123 125 126 128 129 131 133 134 135 136 137 140 141 142 145 146 147 148 149 150 151 152 153 154 155 156 157 158 159 160 161 162 163 164 165
220341	38 42 45 57 62 65 72 75 76 77 78 79 80 83 84 85 87 91 92 93 95 96 97 98 99 100 104 105 107 110 111 117 119 120 121 122 123 125 126 128 131 132 133 134 136 137 140 142 143 145 146 148 150 151 152 153 154 155 156 157 158 159 160 161 162 163 164 165
586937	23 32 33 42 49 51 55 58 59 60 61 64 66 67 69 73 74 75 79 81 83 84 85 88 89 90 91 92 94 95 96 97 100 102 104 106 107 110 111 112 117 118 121 122 123 124 125 126 128 129 130 131 132 133 134 135 136 137 140 141 142 145 146 147 148 149 150 151 152 153 154 155 156 157 158 159 160 161 162 163 164 165
298171	23 42 49 66 74 75 79 83 85 89 90 91 92 95 96 97 100 104 106 107 110 111 112 117 121 122 123 125 126 128 129 131 134 136 137 140 141 142 145 146 147 148 149 150 151 152 153 154 155 156 157 158 159 160 161 162 163 164 165
350913	38 42 45 49 62 75 76 77 78 79 80 82 84 85 89 91 92 95 97 98 99 100 104 107 110 111 112 117 119 120 121 122 123 125 128 131 132 133 134 136 137 138 140 142 143 145 146 148 150 151 152 153 154 155 156 157 158 159 160 161 162 163 164 165
342722	23 32 33 42 49 51 55 58 59 60 61 64 66 67 69 73 74 75 79 81 82 83 85 88 89 90 91 92 94 95 96 97 100 102 104 106 107 110 111 112 114 115 116 117 118 121 122 123 124 125 126 128 129 130 131 132 133 134 135 136 137 138 140 141 142 145 146 147 148 149 150 151 152 153 154 155 156 157 158 159 160 161 162 163 164 165
224964	38 42 45 49 62 75 76 77 78 79 80 84 85 89 91 92 95 97 98 99 100 104 107 110 111 112 117 119 120 121 122 123 125 128 131 132 133 134 135 136 137 140 142 143 145 146 148 150 151 152 153 154 155 156 157 158 159 160 161 162 163 164 165
125128	23 42 49 66 74 75 79 83 85 89 90 91 92 95 96 97 100 104 106 107 110 111 112 117 121 122 123 125 126 128 129 131 134 136 137 140 141 142 145 146 147 148 149 150 151 152 153 154 155 156 157 158 159 160 161 162 163 164 165
1080023	38 45 57 62 65 72 75 76 77 78 79 80 83 84 85 87 91 92 93 95 96 97 98 99 100 103 104 105 107 110 111 117 119 120 121 122 123 125 126 128 131 132 133 134 136 137 140 142 143 145 146 148 150 151 152 153 154 155 156 157 158 159 160 161 162 163 164 165
1080025	38 42 45 62 75 76 77 78 79 80 82 84 85 89 91 92 95 97 98 99 100 104 107 110 111 112 117 119 120 121 122 125 128 131 132 133 134 136 137 138 140 142 143 145 146 148 150 151 152 153 154 155 156 158 159 160 161 162 163 164 165
126696	23 42 49 66 74 75 79 83 85 89 90 91 92 95 96 97 100 104 106 107 110 111 112 117 121 122 123 126 128 129 131 134 136 137 140 141 142 146 147 148 149 150 151 152 153 154 155 156 157 158 159 160 161 162 163 164 165
125673	23 42 49 66 74 75 79 83 85 89 90 91 92 95 96 97 100 104 106 107 110 111 112 117 121 122 123 125 126 128 129 131 133 134 135 136 137 140 141 142 144 145 146 147 148 149 150 151 152 153 154 155 156 157 158 159 160 161 162 163 164 165
127213	23 42 49 66 74 75 79 82 83 85 89 90 91 92 95 96 97 100 104 106 107 110 111 112 117 118 121 122 123 126 128 129 131 132 134 136 137 138 140 141 142 146 147 148 149 150 151 152 153 154 155 156 157 158 159 160 161 162 163 164 165
125166	23 42 66 74 75 79 82 83 85 89 90 91 92 95 96 97 100 104 106 107 110 111 112 117 118 121 122 123 125 126 128 129 131 134 136 137 138 140 141 142 145 146 147 148 149 150 151 152 153 154 155 156 157 158 159 160 161 162 163 164 165
124655	23 42 49 66 74 75 79 83 85 89 90 91 92 95 96 97 100 104 106 107 110 111 112 117 121 122 123 125 126 128 129 131 133 134 135 136 137 140 141 142 145 146 147 148 149 150 151 152 153 154 155 156 157 158 159 160 161 162 163 164 165
1080562	19 38 42 45 62 75 76 77 78 79 80 82 84 85 86 89 91 92 95 97 98 99 100 104 107 110 111 112 117 118 119 120 121 122 125 128 129 131 132 133 134 136 137 138 140 142 143 145 146 147 148 150 151 152 153 154 155 156 158 159 160 161 162 163 164 165
1078569	38 42 45 62 75 76 77 78 79 80 82 84 85 89 90 91 92 95 97 98 99 100 104 107 108 110 111 112 114 115 116 117 118 119 120 121 122 125 128 129 131 132 133 134 136 137 138 140 142 143 145 146 147 148 149 150 151 152 153 154 155 156 158 159 160 161 162 163 164 165
1078520	38 42 45 62 75 76 77 78 79 80 84 85 89 91 92 95 97 98 99 100 104 107 110 111 112 117 119 120 121 122 125 128 131 132 133 134 136 137 140 142 143 145 146 148 150 151 152 153 154 155 156 158 159 160 161 162 163 164 165
1078522	38 42 45 62 75 76 77 78 79 80 84 85 89 91 92 93 95 97 98 99 100 104 107 110 111 112 117 119 120 121 122 125 128 131 132 133 134 136 137 140 142 143 145 146 148 149 150 151 152 153 154 155 156 158 159 160 161 162 163 164 165
294443	23 42 49 66 74 75 79 83 84 85 89 90 91 92 95 96 97 100 104 106 107 110 111 112 117 118 121 122 123 125 126 128 129 131 132 133 134 135 136 137 140 141 142 145 146 147 148 149 150 151 152 153 154 155 156 157 158 159 160 161 162 163 164 165
588038	38 42 45 57 62 65 72 75 76 77 78 79 80 83 84 85 87 91 92 93 95 96 97 98 99 100 104 105 107 110 111 117 119 120 121 122 123 125 126 128 131 132 133 134 136 137 140 142 143 145 146 148 150 151 152 153 154 155 156 157 158 159 160 161 162 163 164 165
344840	23 42 49 66 74 75 79 83 85 89 90 91 92 95 96 97 100 104 106 107 110 111 112 117 118 121 122 123 125 126 128 129 131 132 133 134 135 136 137 140 141 142 145 146 147 148 149 150 151 152 153 154 155 156 157 158 159 160 161 162 163 164 165
343309	38 42 45 57 62 65 72 75 76 77 78 79 80 83 84 85 87 91 92 95 96 97 98 99 100 104 105 107 110 111 113 117 119 120 121 122 125 127 128 131 132 133 134 136 137 139 140 142 143 145 146 148 150 151 152 153 154 155 156 157 158 159 161 162 163 164 165
295700	23 42 49 66 74 75 79 83 85 89 90 91 92 95 96 97 100 104 106 107 110 111 112 117 118 120 121 122 123 126 128 129 131 134 136 137 138 140 141 142 146 147 148 149 150 151 152 153 154 155 156 157 158 159 160 161 162 163 164 165
282406	23 36 42 47 49 66 74 75 79 81 83 85 88 89 90 91 92 95 96 97 100 104 106 107 110 111 112 117 118 120 121 122 123 125 126 128 129 131 132 133 134 135 136 137 140 141 142 146 147 148 149 150 151 152 153 154 155 156 157 158 159 160 161 162 163 164 165
516393	38 42 45 49 57 62 65 72 75 76 77 78 79 80 83 84 85 87 91 92 95 96 97 98 99 100 104 105 107 110 111 117 119 120 121 122 123 125 128 131 132 133 134 136 137 140 142 143 145 146 148 150 151 152 153 154 155 156 157 158 159 161 162 163 164 165
222507	38 42 45 62 75 76 77 78 79 80 82 84 85 89 91 92 93 95 97 98 99 100 104 107 110 111 112 113 117 119 120 121 122 125 126 127 128 131 132 133 134 136 137 138 140 142 143 145 146 148 150 151 152 153 154 155 156 157 158 159 160 161 162 163 164 165
1077039	38 42 45 57 62 65 72 75 76 77 78 79 80 83 84 85 87 91 92 95 96 97 98 99 100 104 105 107 110 111 117 119 120 121 122 125 128 131 132 133 134 135 136 137 140 142 143 145 146 148 150 151 152 153 154 155 156 158 159 161 162 163 164 165
1079088	38 42 45 62 65 75 76 77 78 79 80 82 84 85 89 91 92 95 97 98 99 100 104 107 110 111 112 117 119 120 121 122 125 128 131 132 133 134 136 137 138 140 142 143 145 146 148 150 151 152 153 154 155 156 158 159 161 162 163 164 165
280881	23 42 66 74 75 79 83 85 89 90 91 92 95 96 97 100 104 106 107 110 111 112 117 121 122 123 125 126 128 129 131 133 134 135 136 137 140 141 142 145 146 147 148 149 150 151 152 153 154 155 156 157 158 159 160 161 162 163 164 165
124215	23 42 66 74 75 79 83 85 86 89 90 91 92 93 95 96 97 100 104 106 107 110 111 112 115 117 121 122 123 125 126 128 129 131 134 136 137 138 140 141 142 145 146 147 148 149 150 151 152 153 154 155 156 157 158 159 160 161 162 163 164 165
314170	29 36 48 49 81 83 87 88 89 92 96 97 102 103 105 106 107 110 112 117 124 125 130 133 134 135 136 137 140 145 146 148 151 154 156 158 159 161 162 163 164 165
1078587	38 42 45 54 62 75 76 77 78 79 80 82 84 85 89 91 92 95 97 98 99 100 104 107 110 111 112 117 119 120 121 122 125 128 131 132 133 134 136 137 138 140 142 143 145 146 148 150 151 152 153 154 155 156 158 159 160 161 162 163 164 165
591683	38 45 57 62 65 72 75 76 77 78 79 80 83 84 85 91 92 93 95 96 97 98 99 100 104 105 110 111 117 119 120 121 122 123 125 126 128 131 132 133 135 136 137 140 142 143 145 146 148 150 151 152 153 154 155 156 157 158 159 160 161 162 163 164 165
297796	29 48 49 75 80 85 86 89 92 93 98 100 102 105 106 108 110 111 112 116 117 118 121 122 124 125 128 129 130 133 136 137 138 140 142 144 145 146 147 148 150 152 153 154 156 158 159 160 161 162 163 164 165
1079122	38 42 45 57 62 65 72 75 76 77 78 79 80 82 83 84 85 87 91 92 95 96 97 98 99 100 104 105 107 110 111 114 117 119 120 121 122 125 128 131 132 133 134 136 137 138 140 142 143 145 146 148 150 151 152 153 154 155 156 158 159 160 161 162 163 164 165
1077587	38 42 45 62 75 76 77 78 79 80 82 84 85 87 89 91 92 95 97 98 99 100 104 107 110 111 112 117 119 120 121 122 125 128 131 132 133 134 136 137 138 140 142 143 145 146 148 150 151 152 153 154 155 156 158 159 161 162 163 164 165
1079128	38 42 45 62 75 76 77 78 79 80 82 84 85 86 89 91 92 95 97 98 99 100 104 107 108 110 111 112 114 116 117 119 120 121 122 125 128 129 131 132 133 134 136 137 138 140 141 142 143 145 146 148 149 150 151 152 153 154 155 156 158 159 160 161 162 163 164 165
602463	38 42 45 57 62 72 75 76 77 78 79 80 83 84 85 87 91 92 95 96 97 98 99 100 104 107 109 110 111 117 119 120 121 122 125 128 131 132 133 134 136 137 138 140 142 143 145 146 147 148 150 151 152 153 154 155 156 157 158 159 161 162 163 164 165
295779	29 36 42 45 49 81 83 87 88 89 92 93 96 97 99 102 103 105 107 110 112 117 124 125 130 134 136 137 145 146 148 151 154 156 158 159 160 161 162 163 164 165
1079147	38 42 45 57 62 65 72 75 76 77 78 79 80 83 84 85 87 91 92 95 96 97 98 99 100 104 105 107 110 111 117 119 120 121 122 125 128 131 132 133 134 136 137 140 142 143 145 146 148 150 151 152 153 154 155 156 158 159 161 162 163 164 165
125807	23 42 66 74 75 79 82 83 85 89 90 91 92 95 96 97 100 104 106 107 109 110 111 112 117 121 122 123 125 126 128 129 131 132 134 136 137 138 140 141 142 145 146 147 148 149 150 151 152 153 154 155 156 157 158 159 160 161 162 163 164 165
126320	23 42 49 66 74 75 79 82 83 85 89 90 91 92 95 96 97 100 104 106 107 110 111 112 117 121 122 123 126 128 129 131 132 134 136 137 138 140 141 142 146 147 148 149 150 151 152 153 154 155 156 157 158 159 160 161 162 163 164 165
1080184	38 42 45 57 62 65 72 75 76 77 78 79 80 83 84 85 87 91 92 95 96 97 98 99 100 104 105 107 110 111 117 119 120 121 122 125 128 131 132 133 134 136 137 140 142 143 145 146 148 150 151 152 153 154 155 156 158 159 161 162 163 164 165
1077124	38 42 45 49 62 75 76 77 78 79 80 82 84 85 89 91 92 95 97 98 99 100 104 107 110 111 112 117 119 120 121 122 123 125 128 131 132 133 134 136 137 138 140 142 143 145 146 147 148 150 151 152 153 154 155 156 157 158 159 160 161 162 163 164 165
631692	38 42 45 62 75 76 77 78 79 80 82 84 85 89 91 92 95 97 98 99 100 104 107 110 111 112 117 119 120 121 122 125 128 131 132 133 134 136 137 138 140 142 143 145 146 148 150 151 152 153 154 155 156 158 159 161 162 163 164 165
282509	23 49 54 75 79 83 85 90 91 92 93 95 96 100 104 106 108 109 110 111 114 115 117 118 121 122 123 125 126 128 129 131 132 136 137 138 140 141 142 145 146 147 148 149 150 151 153 154 155 156 157 158 159 160 161 162 163 164 165
566161	42 49 74 75 79 83 84 85 90 91 92 95 96 100 104 106 107 110 111 112 117 121 122 128 129 131 134 136 137 142 146 147 148 149 150 151 152 153 154 155 156 158 159 160 161 162 163 164 165
124654	32 33 42 49 51 55 58 59 60 61 64 67 69 73 74 75 79 81 83 85 88 89 90 91 92 94 95 96 97 100 102 104 106 107 110 111 112 117 121 122 123 124 125 128 129 130 131 133 134 135 136 137 140 142 145 146 147 148 149 150 151 152 153 154 155 156 157 158 159 160 161 162 163 164 165
1105327	25 37 43 53 54 74 77 78 79 80 82 84 90 91 92 95 97 98 100 104 106 110 111 115 117 119 120 121 123 125 131 133 136 137 140 142 145 146 147 149 151 153 154 155 156 157 158 159 160 161 162 163 164 165
328648	23 42 66 74 75 79 83 85 90 91 92 95 96 100 104 106 107 110 111 112 117 121 122 123 126 128 129 131 134 136 137 140 141 142 146 147 148 149 150 151 152 153 154 155 156 157 158 159 160 161 162 163 164 165
1079248	38 45 57 62 65 72 75 76 77 78 79 80 83 84 85 91 92 93 95 96 97 98 99 100 104 105 110 111 117 119 120 121 122 123 125 126 128 131 132 133 136 137 140 142 143 145 146 148 150 151 152 153 154 155 156 157 158 159 160 161 162 163 164 165
1080275	38 45 57 62 65 72 75 76 77 78 79 80 83 84 85 91 92 93 95 96 97 98 99 100 104 105 110 111 117 119 120 121 122 123 125 126 128 131 132 133 136 137 140 142 143 145 146 148 150 151 152 153 154 155 156 157 158 159 160 161 162 163 164 165
1077717	38 45 57 62 65 72 75 76 77 78 79 80 83 84 85 91 92 93 95 96 97 98 99 100 104 105 110 111 117 119 120 121 122 123 125 126 128 131 132 133 136 137 140 142 143 145 146 148 150 151 152 153 154 155 156 157 158 159 160 161 162 163 164 165
1078236	38 42 45 62 75 76 77 78 79 80 82 84 85 86 89 91 92 95 97 98 99 100 104 107 108 110 111 112 114 116 117 119 120 121 122 125 128 129 131 132 133 134 136 137 138 140 141 142 143 145 146 147 148 149 150 151 152 153 154 155 156 158 159 160 161 162 163 164 165
221946	38 42 45 57 62 65 72 75 76 77 78 79 80 83 84 85 87 91 92 95 96 97 98 99 100 104 105 107 110 111 117 119 120 121 122 125 128 131 132 133 134 136 137 140 142 143 145 146 148 150 151 152 153 154 155 156 158 159 161 162 163 164 165
226275	38 42 45 57 62 65 72 75 76 77 78 79 80 83 84 85 87 91 92 93 95 96 97 98 99 100 104 105 107 110 111 117 119 120 121 122 123 125 126 128 131 132 133 134 136 137 140 142 143 145 146 148 150 151 152 153 154 155 156 157 158 159 160 161 162 163 164 165
125414	42 49 74 75 79 83 85 89 90 91 92 95 96 97 100 104 107 110 111 112 117 121 122 123 125 128 129 131 133 134 135 136 137 140 142 145 146 147 148 149 150 151 152 153 154 155 156 157 158 159 160 161 162 163 164 165
1079271	38 42 45 57 62 65 72 75 76 77 78 79 80 83 84 85 87 91 92 93 95 96 97 98 99 100 104 105 107 110 111 113 117 119 120 121 122 125 126 127 128 131 132 133 134 136 137 140 142 143 145 146 148 150 151 152 153 154 155 156 157 158 159 160 161 162 163 164 165
281587	42 49 74 75 79 83 85 89 90 91 92 95 96 97 100 104 107 110 111 112 117 118 121 122 123 125 128 129 131 132 133 134 135 136 137 140 142 145 146 147 148 149 150 151 152 153 154 155 156 157 158 159 160 161 162 163 164 165
223733	38 45 56 57 62 63 65 70 71 72 75 76 77 78 79 80 83 84 85 91 92 93 94 95 96 97 98 99 100 102 104 105 110 111 117 119 120 121 122 123 124 125 126 128 130 131 132 133 135 136 137 140 142 143 145 146 148 150 151 152 153 154 155 156 157 158 159 160 161 162 163 164 165
223739	38 42 45 57 62 65 72 75 76 77 78 79 80 83 84 85 86 87 91 92 95 96 97 98 99 100 104 105 107 110 111 114 116 117 119 120 121 122 125 128 131 132 133 134 136 137 138 140 142 143 145 146 148 149 150 151 152 153 154 155 156 158 159 160 161 162 163 164 165
