#cr_index	ecfp4
228994	1459664733 -115261248 1847355198 -283115811 -508288258 -369033055 1431035582 1986640192 -311744962 -369003264 -2054525506 47286561 -2111783808 1790096896 440402944 -311774753 -2054555297 -1007369063 -890933927 -1284818341 1202694492 -524201869 1544874227 -1139580813 722049972 -1138787566 -1814732974 -204220718 1061559793 -1622895247 1491165361 -1428280367 1003225989 1517763529 -1956520505 -50867175 -541807046 -242303014 347297088 1267004126 -697265441 -244688323 2096229265 -448123726 1141324564 1025471808 1542637703 -1384571214 1574032500 -1110422540 328033492 -1595615794 -1970137360 1087714863 325974587 -636953175 -1692930647 1975184101 1300941203 1116363579 553538404 244493284 571884362 1224188894 1201112030 -589945429 -673869488 148710706 -1629676249 -659419069 941764299 200022613 1643690068 -183498786 -2069648704 149433175 -454261305 -2055615290 -25534333 1314690032 -2135874308 -58610749 -914090752 38477459 -338619805 -489045089 1532164321 -600030314 1567195885 830733982
89477	-508288258 -369033055 -369003264 -311744962 1986640192 47286561 -2111783808 -2054525506 1790096896 -311774753 440402944 -2054555297 719578329 1042219993 -2027084494 722049972 -1814732974 -204220718 1061559793 -1622895247 1491165361 1333589447 -1178058105 -975846010 521717382 1003225989 1517763529 -1661170535 -541807046 -880087848 -242303014 347297088 1141324564 1025471808 1542637703 841319986 -2188384 1030706095 137482038 -1729475978 1300941203 553538404 244493284 571884362 1224188894 1201112030 -589945429 -1497697845 -454691223 273638183 1088591061 -76957495 -659419069 220897569 2074064115 1599227929 -183498786 149433175 -294387294 -1284664830 38477459 1749082337 -117875679 -1856469822 229237698 -338619805 -489045089 -980188571 -633075194
163720	-311774753 -2111783808 -2054555297 -369033055 1790096896 47286561 1465938819 47316352 440402944 1042219993 -1004774060 -1668874541 1545667474 -1138787566 -1814732974 -204220718 1864855378 1232813272 -242303014 1368209242 466198234 -188715558 1542637703 646593555 609592281 2012659226 1521378356 -704512844 1288871533 -851581181 1374529017 284498739 -1508571564 553538404 244493284 571884362 1316338634 -1478980406 30577522 1530225778 1170355052 -1846666129 785204206 -2069648704 991656722 1939033488 1503407504 -244611568 52907002 1727882478 -324889649 897805375 458043954 -783337499 -811837789
335244	1373777280 -369033055 -508288258 1986640192 -369003264 -311744962 47286561 -311774753 -149226944 -2111783808 -2054555297 -2054525506 440402944 719578329 722049972 -1814732974 -204220718 1061559793 -1622895247 1491165361 1422995847 1003225989 1187997768 1517763529 -1661170535 -541807046 -880087848 -242303014 1457472473 347297088 740556372 906480020 926817395 1141324564 1025471808 1542637703 285912601 -2188384 1300941203 553538404 244493284 571884362 172065387 1224188894 1201112030 -589945429 -567073283 -606456101 -76957495 -1331119140 -659419069 220897569 -2029303918 -1324576613 1599227929 -183498786 1469268196 149433175 -938258579 -595942431 1267677670 1220985763 -1284664830 1280206500 38477459 -1919546079 -338619805 -1950625088 -489045089 1798786957 1322826829 1603176718
326672	1459664733 -115261248 1847355198 -508288258 -369033055 -283115811 -369003264 1431035582 1986640192 -311744962 -2054525506 47286561 -2111783808 1790096896 -311774753 440402944 -2054555297 -1007369063 -1284818341 1202694492 722049972 -1138787566 -1814732974 -204220718 1061559793 -1622895247 1491165361 -1428280367 1003225989 1517763529 -1956520505 -50867175 -880087848 -357272967 -242303014 1787238234 347297088 1267004126 -697265441 -244688323 2096229265 -448123726 1141324564 1025471808 1542637703 -1384571214 1574032500 -1110422540 328033492 -1970137360 1087714863 2031579122 1116363579 553538404 244493284 571884362 -1914389558 1224188894 1201112030 -589945429 -673869488 148710706 -76957495 -659419069 941764299 31450548 642666041 2069287937 -183498786 -2069648704 1804933523 149433175 -454261305 -2055615290 -25534333 1314690032 -2135874308 -58610749 1650780578 38477459 -338619805 -489045089 1532164321 -600030314 1567195885 830733982
224024	1459664733 -115261248 1847355198 -283115811 -508288258 -369033055 1431035582 -369003264 1986640192 -311744962 -2054525506 47286561 -2111783808 1790096896 440402944 -311774753 -2054555297 -1007369063 -1284818341 1202694492 722049972 -1138787566 -1814732974 -204220718 1061559793 -1622895247 1491165361 -1428280367 1003225989 1517763529 -1956520505 -50867175 -541807046 -242303014 347297088 1267004126 -697265441 -244688323 2096229265 -448123726 1141324564 1025471808 1542637703 -1384571214 1574032500 -1110422540 328033492 -1970137360 1087714863 2031579122 1300941203 1116363579 553538404 244493284 571884362 1224188894 1201112030 -589945429 -673869488 148710706 -1629676249 -659419069 941764299 31450548 1643690068 -183498786 -2069648704 149433175 -454261305 -2055615290 -25534333 1314690032 -2135874308 -58610749 -914090752 38477459 -338619805 -489045089 1532164321 -600030314 1567195885 830733982
297796	-2054555297 -283145602 -311774753 -369033055 -369003264 47286561 -565546560 -1680759263 1465938819 440402944 -311744962 -2054525506 -508288258 621326871 -461328359 -1814732974 -204220718 -2011675181 57400915 -1622895247 1491165361 1257962534 -1037893432 -1171906938 1894645250 1457472473 -1226982567 1590296027 -278939877 1551410160 -674481040 397397052 -488268838 1542637703 1918922565 -361126651 -1053223651 373576003 -2094351959 -902045836 1868265204 -1902016061 -1648978188 185598188 1469426587 722494235 1763202692 193794787 1540286306 1033854402 651316516 -1411545579 1977816778 -1208746516 1665945029 1845721480 -1461089307 -1436628434 1333682606 1110319790 1758963396 -947784531 1577897755 -689419742 819685952 -1552053310 1157137167
226475	1459664733 -115261248 1847355198 -508288258 -369033055 -283115811 -369003264 1431035582 1986640192 -311744962 -2054525506 47286561 1790096896 -311774753 440402944 -2111783808 -2054555297 -1007369063 -890933927 -1284818341 1202694492 -524201869 1544874227 -1139580813 -1138787566 -1814732974 -204220718 1061559793 -1622895247 1491165361 -1428280367 1003225989 1517763529 -1956520505 -50867175 -880087848 -357272967 -242303014 1787238234 347297088 1267004126 -697265441 -244688323 2096229265 -448123726 1141324564 1025471808 1542637703 -1384571214 1574032500 -1110422540 328033492 -1595615794 -1970137360 1087714863 325974587 -636953175 -1692930647 1975184101 1116363579 553538404 244493284 571884362 -1914389558 1224188894 1201112030 -589945429 -673869488 148710706 -76957495 -659419069 941764299 200022613 642666041 2069287937 -2069648704 1804933523 149433175 -454261305 -2055615290 -25534333 1314690032 -2135874308 -58610749 1650780578 38477459 -338619805 -489045089 1532164321 -600030314 1567195885 830733982
227885	-115261248 1459664733 1847355198 -283115811 -508288258 -369003264 -369033055 1986640192 1431035582 -311744962 -2054525506 1373777280 47286561 -2111783808 1790096896 440402944 -311774753 -2054555297 -1007369063 -890933927 -1964876711 -1284818341 1202694492 -1598144653 722049972 -1138787566 -1814732974 -204220718 1061559793 -1622895247 1491165361 -1428280367 1003225989 1517763529 -1956520505 -207682279 -541807046 -242303014 347297088 1267004126 -697265441 -244688323 401629363 2096229265 -448123726 1141324564 1025471808 1542637703 -1384571214 1574032500 -1110422540 86578132 2081261262 1544746638 -1970137360 1087714863 885057211 1300941203 1116363579 553538404 244493284 571884362 1224188894 1201112030 -589945429 -673869488 148710706 -1629676249 -659419069 941764299 51347029 1643690068 -183498786 -2069648704 149433175 -454261305 -2055615290 -25534333 424827525 1314690032 -2135874308 1187044035 -914090752 38477459 -338619805 -489045089 1532164321 -600030314 1567195885 830733982
1076145	-508288258 1373777280 -311774753 -369033055 2043868703 -369003264 -2054555297 -2111783808 1986640192 47286561 -149226944 243859648 1287717283 1130139637 -1828264042 722049972 42119122 -217935390 -1814732974 -204220718 1864855378 1333589447 1422995847 1097704647 -541807046 -704546051 -242303014 -79760948 -1551496246 -728006264 -387894693 -1618750637 1262396122 441655794 1141324564 467485154 1849321787 1542637703 -2072271223 285912601 237156041 -293639777 1300941203 1894420475 60876850 553538404 244493284 751796697 571884362 1167144233 -2031098780 2044054356 -1712871377 1259923580 1485747210 -2029303918 943824189 -183498786 1325964800 -1194706736 -138529118 637290780 -313943762 -1228359629 771756237 796554774 1435708672 600404148 -237292725 1749082337 -1919546079 1071501793 -1511378560 -1471486418
220341	-508288258 -311774753 2043868703 -369033055 1847355198 -283145602 -369003264 -2054555297 -2111783808 1986640192 47286561 243859648 1790096896 -149226944 440402944 1042219993 -1828264042 722049972 -217935390 -1814732974 -204220718 -2011675181 57400915 1333589447 1257962534 -1323649784 -541807046 -242303014 1457472473 1766482522 -79760948 -1551496246 -728006264 -387894693 -312264166 -1725452274 -2018855281 1262396122 1141324564 467485154 -1768826093 1849321787 1542637703 -2072271223 841319986 -1644752846 -1532044966 1030706095 -293639777 1300941203 60876850 553538404 244493284 571884362 420211881 -1328588662 1438354421 185598188 772326077 -1712871377 -1433966911 -288112518 -2122358189 -183498786 859081797 -1992926973 -1194706736 1386127138 637290780 -313943762 232890450 -1404780319 -106184961 771756237 1435708672 600404148 1196346750 -237292725 1749082337 -689419742 477384192 -1511378560 -384928700 -1731885828 -1249913793
24504	-508288258 -369033055 1373777280 1986640192 -369003264 -311744962 -311774753 47286561 -149226944 -2054555297 -2054525506 1790096896 440402944 719578329 1042219993 -204220718 1061559793 -1622895247 1491165361 1422995847 1003225989 1187997768 1517763529 -1661170535 -880087848 1457472473 -1799227814 347297088 906480020 1141324564 1025471808 1542637703 1521378356 285912601 -2188384 1288871533 172065387 -1169935286 1224188894 1201112030 -589945429 1741394459 -76957495 -1331119140 -659419069 220897569 -1324576613 1599227929 1469268196 -552161442 149433175 -595942431 1220985763 1280206500 38477459 -1919546079 -338619805 -1950625088 -489045089 767089074 1322826829
314170	-2054555297 -283145602 -311774753 1986640192 -369033055 -369003264 47286561 -1680759263 1465938819 -1010667871 1287717283 621326871 -77310025 1130139637 2100958324 -1814732974 -204220718 -2011675181 57400915 -931836601 1894645250 -704546051 1590296027 -1020765414 351566892 1551410160 -674481040 933879253 1542637703 1918922565 -361126651 -429614876 237156041 -243382610 373576003 -902045836 1096971978 -1648978188 -508752904 1488524811 -1549791969 1224258140 755224220 -163391818 1072906908 -1910912606 -1530833028 -1922180144 -1436628434 1110319790 632985978 89811872 -737191583 1157137167
351300	-2054525506 -311774753 47286561 2043898494 -311744962 -2111783808 1986640192 -369033055 243859648 243859679 -283115811 -369003264 440402944 47316352 -479659107 -2054555297 1465938819 -1010667871 243889470 -377716693 -890933927 719578329 1086310387 1544874227 -459522443 -358117515 363967539 -647357354 -781370860 -492388815 -1814732974 -204220718 -80670831 1061559793 864617586 -316289102 -307181806 1232813272 594919689 1087963931 1055097559 -242303014 -201890551 1827650697 -465247256 904967114 -1387930839 448138492 -1817287556 972205311 775263104 582337752 159253641 -773791781 441655794 -41658640 658010130 -1149444333 1453437824 1542637703 -2072271223 646593555 609592281 -2074862759 -1114652414 -1904660914 -1268679202 -1138223966 -516368047 -1434765209 157435751 -1323769054 2084298659 2020493258 1000741287 -1205379961 1685000913 1368560246 553538404 244493284 571884362 710063481 -998130274 -1021207138 2026257065 1909429744 1343326190 2071526327 880487381 1428771235 -1330381442 1717533033 795643095 1013365881 -1310661958 1853609509 -1254845447 716094010 -330035547 500870012 1141233405 1958470433 259170581 17703990 -1256125067 -1627218991 1252436543 519036992 -633953029 -538408942 303366550 -1458902667 -264332176 -2071417375 1346178506 1595883125 1465528278 -160419970 -738932994 1069760382 -470449125 337620415 2146313791 1283214388 -1935199499 52907002 -333835681 1474857695 911815456 1598930942 1035888703 1727882478 1892868304 -143807710
585541	1459664733 -115261248 1847355198 -283115811 -508288258 -369033055 1431035582 1986640192 -311744962 -369003264 -2054525506 47286561 -2111783808 1790096896 440402944 -311774753 -2054555297 -1007369063 -1284818341 1202694492 1042219993 1544874227 -1139580813 -816939149 722049972 -1138787566 -1814732974 -204220718 1061559793 -1622895247 1491165361 -1428280367 1003225989 1517763529 -1956520505 -50867175 -541807046 -242303014 347297088 1267004126 -697265441 -244688323 2096229265 -448123726 1141324564 1025471808 1542637703 118311411 -1384571214 1574032500 -1110422540 328033492 -1970137360 1087714863 1143237710 1975184101 -1415343063 7448361 1300941203 1116363579 553538404 244493284 571884362 1224188894 1201112030 -589945429 -673869488 148710706 -1629676249 -659419069 941764299 200022613 1643690068 -183498786 -2069648704 149433175 -454261305 -2055615290 -25534333 1314690032 -2135874308 -58610749 -914090752 38477459 -338619805 -489045089 1532164321 -1989172293 -600030314 1567195885 830733982
227270	1459664733 -115261248 1847355198 -283115811 -508288258 -369033055 1431035582 1986640192 -311744962 -369003264 -2054525506 47286561 -2111783808 1484260579 1790096896 1986610401 440402944 243859648 -311774753 -2054555297 -300181837 -1007369063 -1284818341 1202694492 1544874227 -2027084494 -1139580813 722049972 -1138787566 -1814732974 -204220718 1061559793 -1622895247 1491165361 -1428280367 -2069177618 1003225989 1517763529 -1956520505 -50867175 -541807046 -242303014 347297088 1267004126 -697265441 -244688323 2096229265 -448123726 2085886104 -1373013053 1141324564 1025471808 1542637703 -1384571214 1574032500 -1110422540 130017400 328033492 -1970137360 1087714863 -1847804082 1975184101 225532618 1300941203 1116363579 553538404 244493284 571884362 1224188894 1201112030 -589945429 -673869488 148710706 -1581714362 -1629676249 -659419069 941764299 200022613 1643690068 -183498786 -2069648704 149433175 -454261305 -2055615290 -25534333 1314690032 -2135874308 -1590344386 -694305520 -58610749 -914090752 38477459 -338619805 -489045089 1532164321 -600030314 1567195885 830733982
105591	-508288258 -369033055 1373777280 -369003264 -311744962 1986640192 47286561 1790096896 -2111783808 -149226944 -2054525506 -311774753 440402944 -2054555297 719578329 -1964876711 722049972 -1814732974 -204220718 1061559793 -1622895247 1491165361 1422995847 1003225989 1517763529 -1956520505 -1661170535 -541807046 -880087848 -242303014 347297088 -1344805069 906480020 1141324564 1025471808 1542637703 925609812 285912601 -2188384 -1544560626 1300941203 553538404 244493284 571884362 1224188894 1201112030 -589945429 -567073283 -76957495 -659419069 -1442499091 220897569 -2029303918 1599227929 -183498786 149433175 1776328538 -595942431 -1284664830 1650780578 38477459 -1919546079 -338619805 -489045089 1532164321 -806524275 1322826829
591443	-508288258 -311774753 2043868703 -369033055 1847355198 -283145602 -369003264 -2054555297 -2111783808 1986640192 47286561 243859648 1790096896 440402944 1042219993 -1828264042 722049972 -217935390 -1814732974 -204220718 -2011675181 1864855378 57400915 1333589447 1257962534 -1323649784 -541807046 -242303014 1457472473 1766482522 -79760948 -1551496246 -728006264 -387894693 -1799227814 -1725452274 -2018855281 1262396122 1141324564 467485154 -1768826093 1849321787 1542637703 -2072271223 841319986 1521378356 -1644752846 1030706095 1288871533 -293639777 1300941203 60876850 553538404 244493284 571884362 1167144233 -423002934 -2031098780 1438354421 185598188 772326077 -193390989 -1712871377 -1433966911 -288112518 -2122358189 -183498786 859081797 -1992926973 -1194706736 -138529118 637290780 -313943762 -2076817698 -1404780319 -106184961 771756237 1435708672 600404148 1196346750 -237292725 1749082337 -689419742 477384192 -1511378560 -384928700 767089074 -1731885828
7646	1459664733 -115261248 1847355198 -508288258 -369033055 -283115811 -369003264 1431035582 1986640192 -311744962 -2054525506 47286561 1790096896 -311774753 440402944 -2111783808 -2054555297 -1007369063 -1284818341 1202694492 1042219993 1544874227 -1139580813 -816939149 -1138787566 -1814732974 -204220718 1061559793 -1622895247 1491165361 -1428280367 1003225989 1517763529 -1956520505 -50867175 -880087848 -357272967 -242303014 1787238234 347297088 1267004126 -697265441 -244688323 2096229265 -448123726 1141324564 1025471808 1542637703 118311411 -1384571214 1574032500 -1110422540 328033492 -1970137360 1087714863 1143237710 1975184101 -1415343063 7448361 1116363579 553538404 244493284 571884362 -1914389558 1224188894 1201112030 -589945429 -673869488 148710706 -76957495 -659419069 941764299 200022613 642666041 2069287937 -2069648704 1804933523 149433175 -454261305 -2055615290 -25534333 1314690032 -2135874308 -58610749 1650780578 38477459 -338619805 -489045089 1532164321 -1989172293 -600030314 1567195885 830733982
256868	2043868703 -311774753 -2054555297 -369033055 47286561 1986640192 -369003264 -2111783808 440402944 -172519550 47316352 -1381935657 719578329 929495283 722049972 -1814732974 -204220718 1299327634 -926563566 -931836601 1187997768 1794499991 1023284505 -541807046 -242303014 276565785 1141324564 654007314 -2030447726 1542637703 1626003863 1022628608 306856736 1773326545 1300941203 553538404 244493284 571884362 1456069476 1147024356 867968541 -1509831875 -512899300 -1363122473 -1223254226 -1931410478 -183498786 -394508316 1835103235 -1343885567 -1204715228 -1252270549 -737191583 -1950625088 326826018
228837	-115261248 1459664733 1847355198 -508288258 -369033055 -283115811 -369003264 1986640192 1431035582 -311744962 -2054525506 1373777280 47286561 1790096896 -311774753 440402944 -2111783808 -2054555297 -1007369063 -890933927 -1964876711 -1284818341 1202694492 -1598144653 -1138787566 -1814732974 -204220718 1061559793 -1622895247 1491165361 -1428280367 1003225989 1517763529 -1956520505 -207682279 -880087848 -357272967 -242303014 1787238234 347297088 1267004126 -697265441 -244688323 401629363 2096229265 -448123726 1141324564 1025471808 1542637703 -1384571214 1574032500 -1110422540 86578132 2081261262 1544746638 -1970137360 1087714863 885057211 1116363579 553538404 244493284 571884362 -1914389558 1224188894 1201112030 -589945429 -673869488 148710706 -76957495 -659419069 941764299 51347029 642666041 2069287937 -2069648704 1804933523 149433175 -454261305 -2055615290 -25534333 424827525 1314690032 -2135874308 1187044035 1650780578 38477459 -338619805 -489045089 1532164321 -600030314 1567195885 830733982
127083	-283145602 2043868703 -311774753 -508288258 -369033055 1373777280 -2054555297 -369003264 1986640192 -2111783808 47286561 47316352 -149226944 1465938819 440402944 719578329 -1828264042 683199906 -2001255134 -1609698047 -1797427839 1333589447 1422995847 1014438519 -1661170535 -880087848 1662507400 1057919950 -39909236 1005667531 -1639314003 906480020 1141324564 662100034 -219754309 1542637703 646593555 2012659226 285912601 -2188384 1231016479 -342768970 926534459 -123687574 -1297543893 1713556700 -1712871377 1741394459 522987658 220897569 -1324576613 -13063980 -905030148 -342950611 1678013711 1713573609 1847880051 -595942431 -294387294 -151614204 -1077331256 1749082337 -1919546079 1326093819 -1293898001 -1961303349 1322826829
227577	-115261248 1459664733 1847355198 -283115811 -508288258 -369003264 -369033055 1986640192 1431035582 -311744962 -2054525506 1373777280 -2111783808 47286561 -283145602 -311774753 -2054555297 1790096896 440402944 -1007369063 -890933927 -1964876711 -1284818341 1202694492 -1598144653 722049972 -1138787566 -1814732974 -204220718 -2011675181 57400915 1061559793 -1622895247 1491165361 -1428280367 1003225989 1517763529 -1956520505 -207682279 -541807046 -242303014 347297088 1551410160 1267004126 -697265441 -244688323 401629363 2096229265 -448123726 1141324564 1025471808 1542637703 -1384571214 1574032500 -1110422540 86578132 2081261262 1544746638 -1970137360 1087714863 885057211 1300941203 1116363579 553538404 244493284 373576003 571884362 -902045836 -1648978188 -161515189 2107160348 1224188894 1201112030 -589945429 -673869488 148710706 -1629676249 -659419069 941764299 51347029 1643690068 -1579072323 -2069648704 149433175 -1436628434 1110319790 -454261305 -2055615290 -25534333 424827525 1314690032 -2135874308 1187044035 -914090752 38477459 -338619805 -489045089 1532164321 -600030314 1567195885 830733982
