#cr_index	ecfp4
409860	-2054555297 -283145602 1847355198 -311774753 2043868703 -369033055 47286561 -369003264 1986640192 -2111783808 243889470 1790096896 1544874227 -1139580813 -1347026124 -358117515 -1138787566 -1814732974 -204220718 -2011675181 1257962534 -931836601 -1956520505 -541807046 -242303014 1766482522 -1725452274 -2018855281 -773791781 1141324564 -1768826093 1542637703 -1384571214 -1644752846 -1692930647 157435751 749130020 2084298659 1879741188 -837788955 1116363579 553538404 244493284 373576003 571884362 -1599146346 -2109680523 -1433966911 -1509831875 941764299 -2004989486 -1814041775 2084712542 -2069648704 859081797 -1404780319 2077460095 1346178506 857195648 -914090752 1196346750 -689419742 -737191583 1532164321 -600030314 -1731885828
593286	-2054555297 -283145602 1847355198 -311774753 2043868703 -369033055 47286561 -369003264 1986640192 -311744962 -2111783808 243889470 -2054525506 -508288258 1790096896 47316352 1544874227 -1139580813 -1347026124 -358117515 -1138787566 -1814732974 -204220718 -2011675181 446180849 -734725839 1257962534 1003225989 1517763529 -1956520505 -541807046 -242303014 1766482522 -385903781 347297088 -1725452274 -2018855281 -773791781 1141324564 -1768826093 1025471808 1542637703 -1394804389 -1384571214 -1644752846 -1692930647 157435751 749130020 2084298659 1879741188 -837788955 1116363579 553538404 244493284 373576003 571884362 -1599146346 -2109680523 -2119345844 -2142422708 -1433966911 -1629676249 -659419069 941764299 -2004989486 1761058771 2084712542 -2069648704 859081797 620792230 -779623721 -1404780319 2077460095 1346178506 -1284664830 -914090752 1196346750 -890579437 -689419742 -338619805 -489045089 1532164321 -816604130 -600030314 -1731885828
572298	-2054555297 -283145602 1847355198 -311774753 2043868703 -369033055 47286561 -369003264 1986640192 -311744962 -2111783808 243889470 -2054525506 -508288258 1790096896 1544874227 -1139580813 -1347026124 -358117515 -1138787566 -1814732974 -204220718 -2011675181 1061559793 -1622895247 1491165361 1257962534 1003225989 1517763529 -1956520505 -541807046 -242303014 1766482522 347297088 -1725452274 -2018855281 -773791781 1141324564 -1768826093 1025471808 1542637703 -1384571214 -1644752846 -1692930647 157435751 749130020 2084298659 1879741188 -837788955 1116363579 553538404 244493284 373576003 571884362 -1599146346 -2109680523 1224188894 1201112030 -589945429 -1433966911 -1629676249 -659419069 941764299 -2004989486 1761058771 2084712542 -2069648704 859081797 149433175 -1404780319 2077460095 1346178506 -1284664830 -914090752 1196346750 38477459 -689419742 -338619805 -489045089 1532164321 -600030314 -1731885828
362896	-2054555297 -283145602 1847355198 -311774753 2043868703 -369033055 47286561 -369003264 1986640192 -311744962 -2111783808 243889470 -2054525506 -508288258 1790096896 1544874227 -1139580813 -1347026124 -358117515 -1138787566 -1814732974 -204220718 -2011675181 -1622895247 1491165361 1257962534 1003225989 1517763529 -1956520505 -541807046 -242303014 1766482522 -58128932 1394190270 1720369946 -1725452274 -2018855281 -773791781 1141324564 -1768826093 1025471808 1542637703 -1384571214 -1644752846 -1692930647 157435751 749130020 2084298659 1879741188 -837788955 1116363579 553538404 244493284 373576003 571884362 -1666243064 -1599146346 -2109680523 454179678 1318533984 -1433966911 -1629676249 1560821789 941764299 -2004989486 1761058771 2084712542 -2069648704 859081797 1215944878 1960527824 687941616 -1404780319 2077460095 1346178506 -1284664830 -914090752 1196346750 -16536967 -689419742 -338619805 -489045089 1532164321 -600030314 -1731885828
408995	-2054555297 -283145602 1847355198 -311774753 2043868703 -369033055 47286561 -369003264 1986640192 -311744962 -2111783808 243889470 -2054525506 -508288258 1790096896 1544874227 -1139580813 -1347026124 -358117515 -1138787566 -1814732974 -204220718 -2011675181 446180849 -734725839 1257962534 1003225989 1517763529 -1956520505 -541807046 -242303014 1766482522 1224608475 347297088 -1725452274 -2018855281 -773791781 1141324564 -1768826093 1025471808 1542637703 -1384571214 182990837 -1644752846 -1692930647 157435751 749130020 2084298659 1879741188 -837788955 1116363579 1178015512 553538404 244493284 373576003 571884362 -1599146346 -2109680523 1428689100 1405612236 -1433966911 -1629676249 -659419069 941764299 -2004989486 1761058771 2084712542 -2069648704 859081797 -104217340 -779623721 -1404780319 2077460095 1346178506 -1284664830 -914090752 1196346750 -890579437 -689419742 -338619805 -489045089 1532164321 -600030314 -39973374 -1731885828
586148	-2054555297 -283145602 1847355198 -311774753 2043868703 -369033055 47286561 -369003264 1986640192 -2111783808 243889470 440402944 2043898494 1790096896 719578329 1544874227 -1139580813 -358117515 929495283 722049972 -1138787566 -1814732974 -204220718 -2011675181 -926563566 -324816237 1257962534 -931836601 -1956520505 1023284505 -541807046 -242303014 -535706021 1766482522 -1725452274 -2018855281 -773791781 1141324564 654007314 -1768826093 -80147471 1542637703 -1384571214 -1644752846 306856736 -1692930647 157435751 749130020 2084298659 1537484434 790407026 1116363579 553538404 244493284 373576003 571884362 -1599146346 -2109680523 -639536101 -395187803 -1433966911 -1509831875 941764299 -1223254226 -2004989486 297280465 -1931410478 1325008415 -2069648704 859081797 -1404780319 2077460095 1346178506 857195648 -914090752 1804504451 1196346750 -4235221 -689419742 -737191583 1532164321 -600030314 -1731885828
1061798	-2054555297 -283145602 1847355198 -311774753 2043868703 -369033055 47286561 -369003264 1986640192 -311744962 -2111783808 243889470 -2054525506 -508288258 1790096896 1544874227 -1139580813 -1347026124 -358117515 -1138787566 1118123441 -1814732974 -204220718 -2011675181 1061559793 -1622895247 446180849 -734725839 1257962534 1003225989 1517763529 -1956520505 -541807046 -242303014 1766482522 1816880091 1224608475 347297088 -1725452274 -2018855281 -773791781 1141324564 -1768826093 1025471808 1542637703 -1384571214 182990837 -1644752846 -1692930647 157435751 749130020 2084298659 1879741188 -837788955 1116363579 -1070304841 553538404 244493284 373576003 571884362 -1599146346 -2109680523 -1986254869 1999667307 -1325184157 1428689100 1405612236 -1433966911 -1629676249 -659419069 941764299 -2004989486 1761058771 2084712542 -2069648704 859081797 -2013138424 -104217340 -779623721 -1404780319 2077460095 1346178506 -1284664830 -914090752 1196346750 -890579437 -689419742 -338619805 -489045089 1532164321 -600030314 898558241 -1731885828
617645	-2054555297 -283145602 1847355198 -311774753 2043868703 -369033055 47286561 -369003264 1986640192 -311744962 -2111783808 243889470 -2054525506 -508288258 1790096896 440402944 512133018 1544874227 -1139580813 -1347026124 -358117515 -1138787566 -1814732974 -204220718 -2011675181 446180849 -734725839 1257962534 1003225989 1517763529 -1956520505 -541807046 2023123034 -242303014 1766482522 1224608475 347297088 -1725452274 -2018855281 -773791781 1141324564 -1768826093 1025471808 1542637703 -1384571214 182990837 -1644752846 898276415 -1692930647 157435751 749130020 2084298659 1879741188 -837788955 1116363579 1178015512 553538404 244493284 373576003 571884362 -1599146346 -2109680523 -1983741366 -175047990 1428689100 1405612236 -1433966911 -1629676249 -659419069 941764299 -2004989486 1761058771 -1506776558 2084712542 -2069648704 859081797 -104217340 -779623721 -1404780319 2077460095 1346178506 -1284664830 -914090752 1196346750 -890579437 -689419742 -338619805 -489045089 1532164321 -600030314 -39973374 -1731885828
358962	-2054555297 -283145602 1847355198 -311774753 2043868703 -369033055 47286561 -369003264 1986640192 -311744962 -2111783808 243889470 -2054525506 -508288258 1790096896 1544874227 -1139580813 -1347026124 -358117515 -1138787566 1118123441 -1814732974 -204220718 -2011675181 1061559793 -1622895247 446180849 -734725839 1257962534 1003225989 1517763529 -1956520505 -541807046 -242303014 1766482522 1816880091 1224608475 347297088 -1725452274 -2018855281 -773791781 1141324564 -1768826093 1025471808 1542637703 -1384571214 182990837 -1644752846 -1692930647 157435751 749130020 2084298659 1879741188 -837788955 1116363579 -1070304841 553538404 244493284 373576003 571884362 -1599146346 -2109680523 1999667307 -1325184157 1428689100 1405612236 -1433966911 -1629676249 -659419069 941764299 -2004989486 1761058771 2084712542 -2069648704 859081797 -2013138424 -104217340 -779623721 -1404780319 2077460095 1346178506 -1284664830 -914090752 1196346750 -890579437 -689419742 -338619805 -489045089 1532164321 -600030314 898558241 -1731885828
411315	1790096896 -369033055 47286561 -565546560 -2054555297 -283145602 1847355198 -311774753 2043868703 -369003264 1986640192 -311744962 -2111783808 243889470 -2054525506 -508288258 440402944 -461328359 1544874227 -1139580813 -1347026124 -358117515 -1138787566 -1814732974 -204220718 -2011675181 446180849 -734725839 1257962534 1003225989 1517763529 -1956520505 73020743 -541807046 -242303014 1766482522 1224608475 347297088 -1725452274 -2018855281 -773791781 1141324564 -1768826093 1243561112 1025471808 1542637703 -1384571214 -4844074 -1644752846 -142772415 -1692930647 157435751 749130020 2084298659 1879741188 -837788955 1116363579 553538404 244493284 373576003 571884362 -1599146346 -2109680523 1428689100 1405612236 -1433966911 -1629676249 -659419069 941764299 822307037 -2004989486 1761058771 2084712542 -2069648704 859081797 448335747 -779623721 -1404780319 2077460095 1346178506 -1284664830 -914090752 1196346750 797073810 -890579437 -689419742 -338619805 -489045089 1532164321 -954109599 -600030314 -626287361 -1731885828
583608	-2054555297 -283145602 1847355198 -311774753 2043868703 -369033055 47286561 -369003264 1986640192 -311744962 -2111783808 243889470 -2054525506 -508288258 1790096896 1287717283 1130139637 1544874227 -1139580813 -1347026124 -358117515 -1138787566 -1814732974 -204220718 -2011675181 446180849 -734725839 1257962534 1003225989 1517763529 -1956520505 -541807046 -704546051 -242303014 1766482522 1224608475 347297088 -1725452274 -2018855281 -773791781 1141324564 -1768826093 1025471808 1542637703 -1384571214 182990837 -1644752846 237156041 -1692930647 157435751 749130020 2084298659 1879741188 -837788955 1116363579 1178015512 553538404 244493284 373576003 571884362 -1599146346 -2109680523 -928269735 -175047990 1428689100 1405612236 -1433966911 -1629676249 -659419069 941764299 -2004989486 1761058771 -1826486851 2084712542 -2069648704 859081797 -104217340 -779623721 -1404780319 2077460095 1346178506 -1284664830 -914090752 1196346750 -890579437 -689419742 -338619805 -489045089 1532164321 -600030314 -39973374 -1731885828
577722	-2054555297 -283145602 1847355198 -311774753 2043868703 -369033055 47286561 -369003264 1986640192 -311744962 -2111783808 243889470 -2054525506 -508288258 1790096896 1544874227 -1139580813 -1347026124 -358117515 42119122 -1138787566 -1814732974 -204220718 -2011675181 446180849 -734725839 1257962534 1003225989 1517763529 -1956520505 -541807046 -242303014 1766482522 1224608475 347297088 -1725452274 -2018855281 -773791781 441655794 1141324564 -1768826093 1025471808 1542637703 -1384571214 -4844074 -1644752846 -1692930647 157435751 749130020 2084298659 1879741188 -837788955 1894420475 1116363579 553538404 244493284 373576003 571884362 -1599146346 -2109680523 1428689100 1405612236 -1433966911 -1629676249 -659419069 -854104115 941764299 -2004989486 1761058771 2084712542 1325964800 -2069648704 859081797 448335747 -779623721 -1404780319 2077460095 1346178506 1257217302 -1284664830 -914090752 1196346750 -890579437 -689419742 -338619805 -489045089 1532164321 -600030314 -47774337 -1731885828
1061954	-2054555297 -283145602 1847355198 -311774753 2043868703 -369033055 47286561 -369003264 1986640192 -311744962 -2111783808 243889470 -2054525506 -508288258 1790096896 -1877272737 440402944 1465938819 -342175413 2146160738 1544874227 -1139580813 -1347026124 -358117515 42119122 -1138787566 -1814732974 -204220718 -2011675181 446180849 -734725839 1257962534 1003225989 1517763529 -1956520505 -541807046 1683098817 -242303014 1766482522 1224608475 347297088 -1725452274 -2018855281 -773791781 441655794 1141324564 -1768826093 1025471808 1542637703 1626443079 -1384571214 -4844074 -1644752846 -637252883 1485148846 -1692930647 157435751 749130020 2084298659 1879741188 -837788955 1894420475 1116363579 553538404 244493284 373576003 571884362 -1599146346 -2109680523 446603797 -175047990 1428689100 1405612236 -1433966911 -1629676249 -659419069 -854104115 941764299 -2004989486 1761058771 1636828481 2084712542 1325964800 -2069648704 859081797 448335747 -779623721 -1404780319 2077460095 1346178506 1257217302 -1284664830 -914090752 1196346750 -890579437 -689419742 -338619805 -489045089 1532164321 2031687593 -600030314 -47774337 -1731885828
405878	-2054555297 -283145602 1847355198 -311774753 2043868703 -369033055 47286561 -369003264 1986640192 -311744962 -2111783808 243889470 -2054525506 -508288258 1790096896 -149226944 1544874227 -1139580813 -1347026124 -358117515 -1138787566 -1814732974 -204220718 -2011675181 446180849 -734725839 1257962534 1003225989 1517763529 -1956520505 -541807046 -242303014 1766482522 -312264166 1224608475 347297088 -1725452274 -2018855281 -773791781 1141324564 -1768826093 1025471808 1542637703 -1384571214 182990837 -1644752846 -1532044966 -1692930647 157435751 749130020 2084298659 1879741188 -837788955 1116363579 1178015512 553538404 244493284 373576003 571884362 -1599146346 -2109680523 -175047990 -1328588662 1428689100 1405612236 -1433966911 -1629676249 -659419069 941764299 -2004989486 1761058771 2084712542 -2069648704 859081797 232890450 -104217340 -779623721 -1404780319 2077460095 1346178506 -1284664830 -914090752 1196346750 -890579437 -689419742 -338619805 -489045089 1532164321 -600030314 -39973374 -1731885828 -1249913793
357192	-2054555297 -283145602 1847355198 -311774753 2043868703 -369033055 47286561 -369003264 1986640192 -311744962 -2111783808 243889470 -2054525506 -508288258 1790096896 1544874227 -1139580813 -1347026124 -358117515 -1138787566 -1814732974 -204220718 -2011675181 446180849 -734725839 1257962534 1003225989 1517763529 -1956520505 -541807046 -242303014 1766482522 -1020765414 1224608475 347297088 -1725452274 -2018855281 -773791781 1141324564 933879253 -1768826093 1025471808 1542637703 -1384571214 -4844074 -1644752846 -1692930647 157435751 749130020 2084298659 1879741188 -837788955 1116363579 553538404 244493284 373576003 571884362 -2073042934 -1599146346 -2109680523 1428689100 1405612236 -1433966911 -1629676249 -659419069 941764299 1731777200 -2004989486 1761058771 2084712542 -2069648704 859081797 -135259491 448335747 -779623721 -1404780319 2077460095 1346178506 -1284664830 -914090752 -1681474528 1196346750 -890579437 -689419742 -338619805 -489045089 1532164321 -600030314 -47774337 -1731885828
572105	-2054555297 -283145602 1847355198 -311774753 2043868703 -369033055 47286561 -369003264 1986640192 -311744962 -2111783808 243889470 -2054525506 -508288258 1790096896 1373777280 -149226944 1544874227 -1139580813 -1347026124 -358117515 -1138787566 -1814732974 -204220718 -2011675181 446180849 -734725839 1257962534 1003225989 1517763529 -1956520505 -541807046 -242303014 1766482522 -478187814 1224608475 347297088 -1725452274 -2018855281 1782499026 -773791781 1141324564 -1768826093 1025471808 1542637703 -1384571214 182990837 -1644752846 285912601 -1692930647 157435751 749130020 2084298659 1879741188 -837788955 1116363579 1178015512 553538404 244493284 373576003 571884362 -1599146346 -2109680523 -175047990 -852628534 1428689100 1405612236 -1433966911 -1629676249 -659419069 941764299 -2004989486 1761058771 2084712542 -2069648704 859081797 -1306742848 -104217340 -779623721 -1404780319 2077460095 252729524 1346178506 -1284664830 -914090752 1196346750 -890579437 -689419742 -338619805 -489045089 1532164321 -600030314 -39973374 -1731885828 -1711223217
609239	-2054555297 -283145602 1847355198 -311774753 2043868703 -369033055 47286561 -369003264 1986640192 -2111783808 243889470 2043898494 1790096896 1544874227 -1139580813 -1347026124 -358117515 722049972 -1138787566 -1814732974 -204220718 -2011675181 -926563566 -324816237 1257962534 -931836601 -1956520505 -541807046 -242303014 -535706021 1766482522 -1725452274 -2018855281 -773791781 1141324564 654007314 -1768826093 -80147471 1542637703 -1384571214 -1644752846 -1692930647 157435751 749130020 2084298659 1879741188 -837788955 790407026 1116363579 553538404 244493284 373576003 571884362 -1599146346 -2109680523 -639536101 -395187803 -1433966911 -1509831875 941764299 -2004989486 -1814041775 -1931410478 2084712542 1325008415 -2069648704 859081797 -1404780319 2077460095 1346178506 857195648 -914090752 1804504451 1196346750 -4235221 -689419742 -737191583 1532164321 -600030314 -1731885828
380858	1790096896 -369033055 47286561 -508288258 -2054525506 -2054555297 -283145602 1847355198 -311774753 2043868703 -369003264 1986640192 -311744962 -2111783808 243889470 1544874227 -1139580813 -1347026124 -358117515 -1138787566 -1814732974 -204220718 -2011675181 1061559793 1491165361 446180849 -734725839 1257962534 1003225989 1517763529 -1956520505 -1772346423 -541807046 -242303014 1766482522 1224608475 347297088 -1725452274 -2018855281 -773791781 1141324564 -1768826093 -488268838 1025471808 1542637703 -1384571214 -4844074 -1644752846 -1692930647 157435751 749130020 2084298659 1879741188 -837788955 1116363579 553538404 244493284 373576003 571884362 -1599146346 -2109680523 -1986254869 1685646635 -1784832252 1428689100 1405612236 -1433966911 -1629676249 -659419069 941764299 501584415 -2004989486 1761058771 2084712542 -2069648704 859081797 448335747 -779623721 -1404780319 2077460095 1346178506 -1284664830 -914090752 1196346750 -1870979336 -890579437 -689419742 -338619805 -489045089 1532164321 -705963105 -600030314 1526819457 -1731885828
403426	1790096896 -369033055 47286561 -508288258 -2054555297 -283145602 1847355198 -311774753 2043868703 -369003264 1986640192 -311744962 -2111783808 243889470 -2054525506 1544874227 -1139580813 -1347026124 -358117515 -1138787566 -1814732974 -204220718 -2011675181 1061559793 1491165361 446180849 -734725839 1257962534 1003225989 1517763529 -1956520505 -1772346423 -541807046 -242303014 1766482522 1224608475 347297088 -1725452274 -2018855281 -773791781 1141324564 -1768826093 -488268838 1025471808 1542637703 -1384571214 -4844074 -1644752846 -1692930647 157435751 749130020 2084298659 1879741188 -837788955 1116363579 553538404 244493284 373576003 571884362 -1599146346 -2109680523 1685646635 -1784832252 1428689100 1405612236 -1433966911 -1629676249 -659419069 941764299 501584415 -2004989486 1761058771 2084712542 -2069648704 859081797 448335747 -779623721 -1404780319 2077460095 1346178506 -1284664830 -914090752 1196346750 -1870979336 -890579437 -689419742 -338619805 -489045089 1532164321 -705963105 -600030314 1526819457 -1731885828
414831	-2054555297 -283145602 1847355198 -311774753 2043868703 -369033055 47286561 -369003264 1986640192 -311744962 -2111783808 243889470 -2054525506 -508288258 1790096896 440402944 1399636699 1544874227 -1139580813 -1347026124 -358117515 -1138787566 -1814732974 -204220718 -2011675181 -1622895247 1491165361 1257962534 1003225989 1517763529 -1956520505 -541807046 -242303014 1766482522 1397851099 1720369946 -1725452274 -2018855281 -773791781 1141324564 -1768826093 1025471808 1542637703 -1384571214 -1644752846 695223582 -1692930647 157435751 749130020 2084298659 1879741188 -837788955 1116363579 553538404 244493284 373576003 571884362 -1599146346 -2109680523 454179678 -1290858973 -1433966911 -1629676249 1560821789 941764299 -2004989486 1761058771 2084712542 -2069648704 859081797 620117685 1799898509 -1404780319 2077460095 1346178506 -1284664830 -914090752 1196346750 -16536967 -689419742 -338619805 -489045089 1532164321 -600030314 -1731885828
354160	-2054555297 -283145602 1847355198 -311774753 2043868703 -369033055 47286561 -369003264 1986640192 -311744962 -2111783808 243889470 -2054525506 -508288258 1790096896 1373777280 -149226944 1544874227 -1139580813 -1347026124 -358117515 -1138787566 -1814732974 -204220718 -2011675181 1864855378 446180849 -734725839 1257962534 1003225989 1517763529 -1956520505 -541807046 -242303014 1766482522 -478187814 1224608475 347297088 -1725452274 -2018855281 1782499026 -773791781 1141324564 -1768826093 1025471808 1542637703 -1384571214 182990837 -1644752846 285912601 -1692930647 157435751 749130020 2084298659 1879741188 -837788955 1116363579 1178015512 553538404 244493284 373576003 571884362 -105696182 -1599146346 -2109680523 -2031098780 -1391457294 1428689100 1405612236 -1433966911 -1629676249 -659419069 941764299 -2004989486 1761058771 2084712542 -2069648704 700662336 859081797 1463568192 -104217340 -779623721 -1404780319 2077460095 252729524 1346178506 -1284664830 -914090752 1196346750 -890579437 -689419742 -338619805 -489045089 1532164321 -600030314 -39973374 -1731885828 -1711223217
413302	1790096896 -369033055 47286561 -2054525506 -2054555297 -283145602 1847355198 -311774753 2043868703 -369003264 1986640192 -311744962 -2111783808 243889470 -508288258 1544874227 -1139580813 -1347026124 -358117515 -1138787566 -1814732974 -204220718 -2011675181 1491165361 -1300253583 446180849 -734725839 1257962534 1003225989 1517763529 -1956520505 -1772346423 -541807046 -242303014 1766482522 1224608475 347297088 -1725452274 -2018855281 -773791781 1141324564 -1768826093 -488268838 1025471808 1542637703 -1384571214 -4844074 1704073073 -1644752846 -1692930647 157435751 749130020 2084298659 1879741188 -837788955 1116363579 553538404 244493284 373576003 571884362 -1599146346 -2109680523 157594539 -281807484 1428689100 1405612236 -1433966911 -1629676249 -659419069 941764299 501584415 -2004989486 1761058771 2084712542 -2069648704 859081797 448335747 -779623721 -1404780319 2077460095 1346178506 -1284664830 -914090752 1196346750 -1870979336 -890579437 -689419742 -338619805 -489045089 1532164321 -705963105 -600030314 1526819457 1841517675 -1731885828
408186	-2054555297 -283145602 1847355198 -311774753 2043868703 -369033055 47286561 -369003264 1986640192 -2111783808 243889470 1790096896 440402944 719578329 1544874227 -1139580813 -358117515 929495283 -1138787566 -1814732974 -204220718 -2011675181 1257962534 -931836601 -1956520505 1023284505 -541807046 -242303014 1766482522 -1725452274 -2018855281 -773791781 1141324564 -1768826093 1542637703 -1384571214 -1644752846 306856736 -1692930647 157435751 749130020 2084298659 1537484434 1116363579 553538404 244493284 373576003 571884362 -1599146346 -2109680523 -1433966911 -1509831875 941764299 -1223254226 -2004989486 -1814041775 297280465 -2069648704 859081797 -1404780319 2077460095 1346178506 857195648 -914090752 1196346750 -689419742 -737191583 1532164321 -600030314 -1731885828
