#cr_index	potency
65538	3.573489
1081358	4.065502
231440	6.346787
116759	4.920819
229401	7.494850
555034	7.259637
124960	6.698970
32805	6.154902
600103	5.602060
284712	4.795880
95922	4.823909
71727	6.886057
71736	7.318759
260162	7.455932
223303	3.966576
585802	6.533132
256077	3.552842
28781	4.221849
254648	6.275724
127058	7.154902
513721	6.081970
505948	5.643974
514406	6.677781
278719	4.638272
583793	5.508638
589964	6.154902
28791	8.096910
12411	5.195368
1081468	3.785156
125053	6.744727
135295	7.187087
360587	6.397940
57484	7.259637
1107650	3.714443
555033	7.420216
71839	3.679854
67745	9.207608
71843	6.698970
231589	6.552842
506022	7.070581
24743	5.698970
366762	5.091515
356523	5.958607
1107639	4.119186
274607	5.920819
276656	4.468521
503985	6.696804
503986	6.696804
1081527	5.709965
69818	3.958607
59580	5.443697
59581	6.259637
284862	3.096910
563391	3.586700
239824	6.638272
1081553	3.568636
231636	6.744727
366763	5.494850
67798	6.974694
73765	6.193820
509906	6.356547
104674	7.236572
57572	5.096910
67816	4.420216
69865	6.017729
22767	5.504456
71921	6.777284
71922	6.286509
415989	5.060481
260343	6.065502
112888	4.214670
227577	6.853872
448763	5.632644
127229	6.040959
30978	7.096910
108803	5.022276
125197	6.318759
254680	4.769551
67862	5.698970
334108	5.397940
250142	6.552842
28959	6.958607
65750	7.489405
618789	6.180456
1081640	3.939302
114986	6.408935
137535	5.920819
65858	3.718967
350532	4.356547
239941	6.602060
70525	5.356547
86350	6.443697
31055	6.000000
256340	4.394695
252250	4.974694
67931	6.987163
1081702	3.565431
254311	5.097997
57715	5.443697
1069435	4.209012
299391	5.790485
22921	3.761954
24975	6.309804
31125	5.070581
110998	4.251812
108951	4.107905
254166	6.397940
510368	6.806875
405922	5.207608
24996	6.259637
1081767	3.860121
22952	5.671620
221612	3.193142
70064	4.136677
235955	6.113509
74173	4.809668
25026	5.031050
115787	7.886057
523340	6.823909
27084	6.555827
254414	5.260428
336337	7.494850
504287	6.029188
338401	5.602060
229862	6.568636
134908	6.136083
71422	5.721246
12791	4.806875
31828	6.744727
340475	4.309804
31230	4.568636
1083136	4.050610
233987	3.170053
31238	7.000000
557576	4.512862
109996	4.920819
14860	5.187755
338450	5.818156
23062	4.785156
254491	4.468521
70172	8.200659
64037	4.576754
231974	5.262013
115240	4.086186
336426	7.657577
31275	7.958607
227885	7.823909
590385	4.920819
371071	5.443697
590395	6.568636
84543	6.309804
375365	4.686133
592460	4.273273
647760	5.180456
62033	4.259637
127570	6.508638
31318	7.096910
78423	6.431798
350809	7.000000
23130	4.906578
57103	5.431798
359081	4.853872
561769	2.838632
561770	4.140261
561771	3.411168
72301	6.632644
344690	5.882729
508691	5.671620
21108	7.189412
13758	3.377786
238203	6.657577
109180	4.455932
602753	5.638272
285314	6.455932
72326	7.552842
72327	7.431798
291464	5.508638
608905	5.674690
10892	2.045757
253037	4.309804
232081	4.376751
324242	4.042393
68245	5.267606
352920	5.045757
74393	6.000000
254618	5.107905
70313	4.721246
350890	5.259637
508701	6.853872
587209	4.040959
281272	5.954677
70092	5.318759
74445	6.856985
516899	6.468521
360847	4.187087
221909	6.275724
266968	6.455932
561882	2.876148
31454	5.568636
505296	6.134896
252644	5.886057
74475	5.853872
70381	4.236572
525040	6.301030
23286	5.892790
127739	6.193820
113409	8.113509
74498	7.552842
29450	5.221849
262927	6.602060
293648	8.000000
522953	6.821023
273171	6.772113
508692	6.292430
68375	4.086186
72473	7.782516
125722	5.408935
285468	4.397940
287517	6.774691
8995	1.036212
127786	6.552842
68398	5.886057
240433	6.221849
125756	6.552842
512829	6.240332
134965	6.206210
127811	5.795880
254789	7.000000
260935	4.886057
334664	5.017729
64329	5.001741
29515	6.823909
74573	6.982967
255800	5.441291
127830	7.221849
252763	6.346787
31586	5.795880
592741	6.455932
508700	6.602060
516967	6.600326
516968	7.236572
72554	6.133122
293740	6.283997
1082237	5.221849
21374	6.259637
510851	6.026872
21386	6.161151
1088395	5.769551
21390	3.534617
318353	3.823909
86933	4.533890
238488	6.036212
1099326	4.853872
253765	6.486782
256931	7.449772
598948	6.236572
287653	5.468521
441257	3.744727
1107605	5.481486
31660	5.000000
621486	7.109122
115634	4.657577
23477	3.832683
27577	6.744727
23484	6.769551
506813	6.511449
70590	3.853872
1082305	4.356547
228290	5.677781
1082307	3.850781
86980	7.698970
354465	5.376751
375752	4.958607
23500	5.795880
66509	6.200200
334799	5.677781
232405	5.823909
398307	5.804100
252903	7.040959
224244	3.262807
115702	7.443697
520020	6.292430
240636	6.259637
56323	5.481486
56324	6.301030
72711	7.200659
93196	8.000000
93197	4.727462
21518	6.136677
345108	7.366532
402454	5.366532
402455	5.744727
185368	7.795880
584730	5.769551
58397	7.602060
281630	6.795880
351265	6.619789
64548	3.707744
367110	5.161151
252972	4.612610
23606	4.793174
508991	6.657577
631876	8.677781
371212	5.420216
239799	6.657577
128076	5.221849
1082448	3.557520
1082452	4.327902
609365	7.628932
255063	6.096910
253017	7.744727
68698	4.481486
1082461	3.920819
1107592	5.677781
1082471	6.698970
300140	5.443697
343149	1.387216
134675	7.301030
613495	6.847712
70776	4.236572
356543	6.860121
126086	6.958607
513162	6.527244
21643	5.638272
421005	5.065502
259228	6.397940
30318	6.537602
328862	6.309804
126111	6.769551
507040	6.645892
109734	4.585027
337063	4.602060
226475	6.267606
81068	4.251812
23725	6.397940
255150	6.200659
578735	5.017729
603312	6.387216
23733	5.638272
105654	5.853872
513209	5.787546
279747	5.657577
111812	5.036212
132297	6.856985
68816	5.630784
29905	6.259637
509143	6.920819
134360	7.327902
70873	6.508638
136410	6.703335
60637	8.096910
21730	6.721246
68817	5.318759
255209	5.716699
23786	5.316053
275695	5.847712
371952	5.080922
68850	4.920819
580853	4.318759
1078518	3.882729
234746	5.065502
137771	7.327902
224517	3.354578
252617	7.080922
507146	6.853872
412945	4.920819
109845	5.795880
236826	4.207608
68893	6.387216
603422	6.793174
29984	6.154902
60719	4.958607
134450	6.261219
75068	6.522879
134462	6.420216
1082690	4.026872
74635	7.420216
253253	4.886057
30024	5.920819
1081570	3.007889
595285	4.552842
126296	6.154902
329056	6.187087
230757	6.721246
611147	2.759451
335215	8.070581
30068	5.096910
30069	5.585027
73080	6.180456
1082746	4.026872
230780	5.537602
599423	7.000000
1099328	4.744727
62851	4.591760
351620	5.173925
75141	6.309804
71046	5.307153
126344	5.853872
71053	4.920819
1099331	7.698970
1099333	7.468521
124321	5.928118
66982	7.397940
601515	4.677781
509356	6.886057
124338	5.735182
411059	5.283997
603574	6.356547
56764	5.552842
1080766	3.515700
1080767	3.327902
239040	4.619789
609729	4.686133
255432	5.292430
24009	5.060481
134603	6.580044
583120	4.552842
562650	3.866461
7646	7.481486
251359	5.494850
234986	6.552842
1081938	3.485452
239869	6.337242
126449	6.744727
514041	6.215383
255499	5.060481
124432	6.552842
251411	4.721246
398870	4.841638
73239	7.576754
589743	7.070581
206366	5.221849
335394	6.494850
509479	6.187087
519703	6.772113
124458	5.991400
87595	5.698970
284205	5.514279
259638	6.045757
257595	7.397940
255550	6.274905
1099327	5.045757
519744	6.480172
1099329	7.481486
1099330	6.853872
284227	6.552842
1099332	5.853872
276037	6.301030
1099334	7.075721
1099335	8.000000
1099336	4.853872
517705	6.603801
9807	0.301030
591440	5.703335
519769	6.511449
255585	5.455932
134757	7.552842
587369	5.228780
220781	4.000000
220782	7.020718
30321	6.721246
72274	5.031517
276086	5.031517
77433	3.306273
22139	4.423659
1107583	4.769551
1107584	5.602060
1107585	5.481486
228994	7.638272
71958	6.910095
65158	5.096910
601736	8.045757
375405	3.889410
69266	7.086186
222868	3.886057
222869	6.221849
1107606	5.481486
126615	6.397940
1107608	6.055517
1107609	5.522879
1107610	5.657577
622235	6.366532
589469	4.552842
65182	5.349692
32415	6.721246
11940	3.987163
1107621	5.130768
1107622	5.036212
1107623	5.077275
1107624	5.136677
231708	4.568636
135794	5.863279
134831	6.847712
253617	5.408935
22194	4.490797
333491	6.113509
368308	5.000000
1107638	4.462181
87735	7.000000
1107640	3.899629
30393	4.356547
65214	4.397940
585410	4.283997
57027	5.721246
255686	5.886057
59080	6.552842
229065	5.070581
374477	4.920819
509649	6.853872
509650	6.769551
259795	6.080922
95961	5.106238
28383	6.022276
66171	5.337242
282340	6.744727
237285	5.000000
528102	6.568636
256636	6.744727
38635	9.337242
1075154	3.127844
32498	6.602060
225011	3.749580
59127	5.443697
282360	5.823909
403195	5.619789
67324	4.387216
521982	4.265200
413439	4.958607
24320	3.779108
22273	4.390406
73480	8.045757
286473	6.086186
591629	6.552842
222991	3.542118
22288	5.148742
513816	7.229148
68911	4.283997
509724	6.795880
225053	5.619789
341797	7.086186
137000	5.497163
20265	6.455932
112426	5.823909
591659	5.259637
251694	6.259637
25224	4.044793
599861	4.387216
225078	3.812479
28472	6.397940
585541	7.091515
645772	5.522879
20303	5.795880
350035	5.124939
134996	8.301030
28506	5.337242
223887	6.032920
276317	4.259637
61295	4.508638
518000	6.721246
137079	6.214670
577402	6.294136
32639	6.657577
32642	5.096910
315273	4.795880
1107607	5.585027
69518	4.721246
32655	4.886057
219026	3.838632
20371	6.366532
280468	7.096910
518041	6.962574
594586	7.366532
1107611	4.772113
599973	3.818156
22447	4.076756
182198	4.468521
634808	5.346787
280505	5.835647
509883	6.508638
94142	6.920819
94143	5.221849
1109953	7.050610
257987	5.318759
227270	11.065502
32714	4.698970
280529	6.958607
63442	4.721246
32723	6.522879
366548	5.431798
329685	3.793174
63447	4.749580
124894	6.301030
514015	6.107905
114667	7.318759
65518	4.443697
255991	4.494850
69972	5.602060
514042	6.079355
374781	5.431798
136533	6.551294
