#cr_index	potency
74498	5.366532
336426	5.477556
600708	5.301030
71958	5.869666
96774	4.537602
72711	5.863279
273290	4.721246
557323	8.301030
307084	8.522879
651757	8.698970
73239	6.397940
66509	5.602060
94446	5.065502
266646	4.920819
72473	6.950782
265497	3.322393
1058970	7.552842
254491	5.481486
70172	6.838632
68893	5.142668
354974	7.886057
253765	5.614394
93216	4.744727
256931	6.071092
155300	8.221849
72326	5.565431
301736	8.221849
307497	8.221849
609365	6.638272
70189	3.088310
95922	5.119186
461342	3.110698
155832	7.431798
69818	4.455932
347707	3.399027
70590	4.568636
262197	3.000000
94531	4.853872
108382	7.236572
263365	3.115205
560967	4.809668
560968	8.397940
564045	6.301030
561453	8.080922
153295	7.920819
583120	4.236572
457781	3.769551
623314	5.050610
310740	7.568636
595285	5.136677
71736	6.360514
156249	8.000000
154846	8.096910
76639	6.244125
156768	7.744727
257595	5.144481
157026	9.301030
69691	4.102373
321380	5.072732
162029	4.366532
587369	4.647817
555370	7.050610
129003	7.214670
74635	5.590067
253037	4.657577
1086830	6.943095
156328	8.397940
154643	8.301030
12667	3.232102
255991	4.823909
70776	4.013228
92793	4.443697
154111	8.522879
72554	4.742321
71422	5.096910
156799	7.187087
