#cr_index	potency
28385	7.769551
591458	8.698970
249947	7.958607
332907	7.823909
594853	8.657577
249127	6.070581
410395	7.522879
120457	7.045757
224139	9.301030
52940	8.481486
53358	8.537602
53040	6.522879
408872	8.698970
261459	7.356547
53428	9.301030
551169	7.065502
121850	8.522879
600379	10.000000
1105811	6.847712
53187	7.677781
621029	7.301030
