#cr_index	potency
574635	8.102373
596484	6.795880
292182	9.070581
336983	6.795880
585741	9.823909
123919	4.657577
126481	7.204120
28178	6.946922
28179	4.744727
499265	6.024568
291861	7.464706
1082903	5.568636
1078296	8.657577
336409	8.154902
72730	7.853872
4123	6.494850
580399	8.394695
4125	4.173925
509471	6.221849
29217	4.769551
289883	9.119186
337444	8.136677
575521	5.958607
150567	7.000000
3115	4.045757
126509	8.096910
592093	7.677781
574515	8.889410
74292	6.585027
572510	3.924453
574601	7.000000
1063007	8.698970
505178	6.892790
256573	8.301030
254014	7.960409
575080	3.525784
458072	9.698970
29761	6.920819
223299	5.657577
40518	5.346787
153185	8.301030
126024	6.403403
127562	7.107905
572491	5.769551
26189	7.602060
25678	7.221849
330325	8.397940
121943	6.872895
131672	8.397940
589401	8.698970
125531	7.948847
498268	5.863279
39518	5.920819
571858	8.366532
153184	7.455932
54369	7.883348
328290	8.301030
152507	8.096910
581222	8.414539
571766	8.154902
126569	7.236572
120938	8.397940
572523	7.777284
572524	8.522879
152847	5.283997
574899	7.698970
301170	7.000000
3037	5.420216
42686	6.920819
591479	5.142668
1081976	5.309804
575252	6.096910
575099	6.000000
574526	8.899629
243837	6.000000
223870	7.853872
46101	6.301030
283268	4.920819
1081989	5.920819
42118	5.769551
332737	7.346787
289929	8.515700
574602	7.667562
43147	5.619789
573956	4.075721
222351	7.022276
573445	5.698970
339093	4.958607
1079958	8.886057
240791	5.045757
1083076	5.455932
120474	4.431798
76444	4.853872
337567	5.055517
334496	7.744727
238619	5.455932
510629	5.920819
329382	7.541773
45736	7.229148
151721	6.585027
25771	7.958607
75948	9.431798
571728	8.522879
1082036	4.698970
578229	8.882729
581935	6.096910
570555	5.356547
595134	7.267606
577909	7.149354
576976	5.823909
624322	9.236572
129220	7.431798
152773	5.552842
153798	6.920819
519879	7.408935
1080009	7.167491
104651	4.602060
243666	6.823909
574947	6.301030
231634	9.000000
1080345	6.229148
220885	8.275724
235222	9.000000
53113	4.376751
28888	8.568636
572135	4.677781
1080028	8.853872
125661	7.091515
2782	5.698970
508368	7.327902
1079522	8.958607
572309	8.742321
298728	8.318759
298729	7.602060
220394	6.301030
122322	4.187087
295662	8.621602
3571	5.356547
55536	6.214670
1080104	8.148742
153330	8.397940
4250	4.130768
282356	4.481486
38014	7.267606
151799	7.795880
502520	5.739929
225017	8.823909
151803	5.585027
292604	7.935542
35582	8.045757
621823	5.169411
104704	5.721246
121604	3.924453
573142	5.920819
171274	8.200659
574731	8.299296
152334	5.677781
1080079	8.744727
122129	4.462181
602386	7.337242
35232	6.013228
152852	8.154902
105348	5.568636
594202	7.397940
37659	6.823909
572700	6.939302
574662	5.251812
578335	6.928118
571680	4.853872
77089	4.886057
41252	8.124939
350501	7.642065
219432	7.180456
574684	5.221849
74029	5.200659
73519	6.795880
580400	8.329754
576563	6.872895
578270	4.059484
356489	8.301030
103225	5.494850
1086267	3.924453
1086268	4.602060
1086269	4.619789
1086270	4.619789
1086271	5.026872
1086272	5.721246
1086273	5.167491
1086274	5.508638
1086275	5.142668
1086276	5.161151
1086277	5.638272
1086278	5.795880
1086279	5.619789
1086280	5.522879
1086281	6.366532
1086282	5.958607
1086283	6.000000
1086284	6.346787
1086285	6.387216
1086286	6.207608
1086287	6.958607
130384	8.638272
1086289	7.000000
127314	6.931814
1086291	6.055517
1086292	6.045757
1086293	6.537602
1086294	5.376751
1080213	6.275724
152922	7.366532
242523	5.886057
119132	7.621602
644068	6.015473
573278	5.958607
571525	9.000000
356200	7.602060
245609	7.376751
1083242	4.154902
348523	9.221849
568684	9.000000
230255	7.000000
152808	6.000000
125810	7.346787
43070	4.301030
222582	7.045757
574839	4.756962
40313	6.946922
129405	8.747147
571526	5.886057
1083285	4.167491
572480	8.551294
3970	5.022276
286083	5.408935
2948	4.568636
299910	8.301030
230279	4.920819
508809	5.723538
218778	7.795880
240013	7.267606
573421	4.823909
1085841	4.677781
54674	7.000000
55534	5.508638
152983	8.397940
44443	5.677781
256412	5.000000
220314	4.619789
54686	5.221849
589728	7.086186
76193	5.769551
7771	8.831979
574875	5.080922
572823	6.000000
152902	5.619789
35750	6.045757
575585	4.177178
153512	6.494850
571340	7.772113
1082286	6.207608
580016	9.045757
591795	7.552842
574837	5.585027
574017	6.221849
1081783	9.823909
1082100	5.397940
152735	6.920819
225657	7.397940
1083541	5.823909
78240	6.619789
332226	5.318759
300483	4.431798
299972	6.593460
575586	4.560667
1079279	8.000000
475151	8.698970
339402	5.782516
574711	9.022276
342988	4.638272
295886	8.939302
55629	5.397940
3408	5.585027
29650	8.221849
127443	6.387216
572961	4.795880
570830	5.070581
69828	7.823909
223707	8.744727
26076	8.327902
122333	4.795880
499678	6.679854
574373	8.314258
248288	5.000000
1086288	6.309804
574946	5.886057
574435	5.991400
301028	6.721246
154087	5.709965
122344	3.133713
589804	7.045757
1086290	6.356547
152558	7.267606
287727	7.240332
115184	6.744727
127827	8.508638
575383	8.034328
341493	5.080922
572585	5.036212
1075197	7.568636
306261	5.677781
